arawkelin_1 = {
	slot = 1
	generic = no
	ai = yes
	has_country_shield = yes
	potential = { tag = Y65 } 

	Y65_begin_deforestation = {
		icon = mission_jungle_pilgrim
		position = 1
		provinces_to_highlight = {
			owned_by = ROOT
				OR = {
					has_terrain = jungle
					has_terrain = ancient_forest
					has_terrain = marsh
				}
			region = lupulan_rainforest_region
			NOT = {
				has_production_building_trigger = yes
				base_production = 8
			}
		}

		trigger = {
			num_of_owned_provinces_with = {
				value = 3
				OR = {
					has_terrain = jungle
					has_terrain = ancient_forest
					has_terrain = marsh
				}
				region = lupulan_rainforest_region
				OR = {
					has_production_building_trigger = yes
					base_production = 8
				}
			}
		}

		effect = { 
			country_event = { id = flavour_arawkelin.9 }  
			custom_tooltip = arawkelin_event_insight.1
		} 
	}

	Y65_countryside_conversions = {
		icon = mission_che_the_cave_country
		position = 2
		required_missions = { Y65_begin_deforestation } 
		provinces_to_highlight = {  } 

		trigger = {
			adm_power = 100
			dip_power = 100
			mil_power = 100
		}

		effect = {
			pingurnsai_area = {
				add_province_modifier = {
					name = "arawkelin_countryside_conversion"
					duration = 9125
				}
			}
			lembiahar_area = {
				add_province_modifier = {
					name = "arawkelin_countryside_conversion"
					duration = 9125
				}
			}
		}
	}

	Y65_oust_the_binhrung = {
		icon = mission_cromandel_coast
		position = 5
		required_missions = { Y65_expand_into_the_interior } 
		provinces_to_highlight = {
			region = lupulan_rainforest_region
			owned_by = Y72
		}

		trigger = {
			lupulan_rainforest_region = {
				type = all
				NOT = { owned_by = Y72 } 
			}
			thuongidut_area = {
				type = all
				country_or_non_sovereign_subject_holds = ROOT
				has_owner_religion = yes
			}
		}

		effect = {
			add_power_projection = {
				type = mission_rewards_power_projection
				amount = 10
			}
			define_advisor = {
				type = trader
				skill = 3
				discount = yes
			}
			add_splendor = 100
			4955 = { add_permanent_claim = ROOT } 
			4837 = { add_permanent_claim = ROOT } 
		}
	}

	Y65_our_link_west = {
		icon = mission_city_of_victory_vij
		position = 7
		required_missions = { Y65_oust_the_binhrung } 
		provinces_to_highlight = { 
			province_id = 4570
			NOT = { 
				owned_by = ROOT
				owner = {
					is_in_trade_league_with = ROOT
				}
			}
		} 

		trigger = {
			any_known_country = {
				is_in_trade_league_with = ROOT
				owns = 4570
				has_reform = trading_city
			}
		}

		effect = {
			1361 = {
				add_trade_modifier = {
					who = ROOT
					duration = 7300
					power = 10
					key = STRONG_MERCHANTS
				}
			}
			pasiragha_hp_colonies = {
				add_permanent_claim = ROOT
			}
		}
	}

	Y65_control_the_western_shipping_lanes = {
		icon = mission_grand_bengali_shipyards
		position = 8
		required_missions = { Y65_our_link_west } 
		provinces_to_highlight = { 
			province_id = 1361
		} 

		trigger = {
			1361 = {
				trade_share = {
					country = ROOT
					share = 65
				}
			}
		}

		effect = {
			add_country_modifier = {
				name = "arawkelin_control_shipping_lanes"
				duration = -1
			}
		}
	}

	Y65_western_arrivals = {
		icon = friends_in_high_places
		position = 10
		required_missions = { Y65_integrate_the_expedition } 
		provinces_to_highlight = {  } 

		trigger = { 
			any_known_country = { has_cannorian_tech_group = yes }  
		} 

		effect = { 
			add_dip_power = 100
			4962 = {
				add_center_of_trade_level = 1
			}
			4963 ={
				add_province_modifier = {
					name = "arawkelin_cannorian_arrivals"
					duration = 9125
				}
			}
		} 
	}

	Y65_welcome_their_traders = {
		icon = purely_for_commerce
		position = 13
		required_missions = { Y65_western_arrivals } 
		provinces_to_highlight = {  } 

		trigger = {
			1366 = {
				trade_share = {
					country = ROOT
					share = 80
				}
			}
			any_known_country = {
				has_cannorian_tech_group = yes
				has_opinion = {
					who = ROOT
					value = 100
				}
			}
		}

		effect = {
			1366 = {
				add_trade_modifier = {
					who = ROOT
					duration = 7300
					power = -20
					key = merchant_recalled
				}
			}
			add_years_of_income = 1.0
			add_country_modifier = {
				name = "arawkelin_cannorian_influence"
				duration = 7300
			}
			hidden_effect = {
				country_event = {
					id = flavour_arawkelin.2
					days = 7300
				}
			}
		}
	}

	Y65_welcome_their_officers = {
		icon = a_show_of_strength
		position = 14
		required_missions = { Y65_welcome_their_traders } 
		provinces_to_highlight = {  } 

		trigger = {
			treasury = 200
			custom_trigger_tooltip = {
				tooltip = arawkelin_welcome_their_veterans_tt
				any_known_country = {
					has_opinion = {
						who = ROOT
						value = 150
					}
					has_cannorian_tech_group = yes
				}
			}
		}

		effect = {
			add_treasury = -200
			add_country_modifier = {
				name = "arawkelin_cannorian_officers"
				duration = 9125
			}
			unlock_merc_company = {
				merc_company = merc_cannorian_veterans
				free_merc = yes
			}
		}
	}

	Y65_modernized_army = {
		icon = establish_a_standing_army
		position = 15
		required_missions = {
			Y65_welcome_their_officers
			Y65_welcome_their_missionaries
		}
		provinces_to_highlight = {  } 

		trigger = {
			army_size_percentage = 0.8
			army_tradition = 60
			custom_trigger_tooltip = {
				tooltip = arawkelin_modernized_army_tt
				all_known_country = {
					OR = {
						NOT = { mil_tech = ROOT } 
						capital_scope = {
							NOT = { superregion = vimdatrong_superregion } 
							NOT = { superregion = yanshen_superregion } 
							NOT = { superregion = rahen_superregion } 
							NOT = { superregion = gozengun_superregion } 
						}
					}
				}
			}
		}

		effect = {
			add_country_modifier = {
				name = "arawkelin_modernized_army"
				duration = -1
			}
		}
	}
}
arawkelin_2 = {
	slot = 2
	generic = no
	ai = yes
	has_country_shield = yes
	potential = { tag = Y65 } 

	Y65_drill_the_troops = {
		icon = mission_assemble_an_army
		position = 1
		provinces_to_highlight = {  } 

		trigger = {
			army_size_percentage = 0.9
			num_of_generals = 1
		}

		effect = {
			if = {
				limit = { Y69 = { exists = yes }  } 
				add_casus_belli = {
					target = Y69
					type = cb_vassalize_mission
					months = 360
				}
			}
			brenulan_area = { add_permanent_claim = ROOT }
		}
	}

	Y65_reign_in_the_expedition = {
		icon = mission_have_two_subjects
		position = 2
		required_missions = { Y65_drill_the_troops } 
		provinces_to_highlight = {
			area = brenulan_area
			NOT = { country_or_non_sovereign_subject_holds = ROOT } 
		}

		trigger = {
			OR = {
				Y69 = { is_subject_of = ROOT }  
				AND = {
					Y69 = { exists = no }
					brenulan_area = {
						type = all
						owned_by = ROOT
					}
				}
			} 
		}

		effect = {
			if = {
				limit = { Y69 = { exists = no }  }
				hidden_effect = {
					brenulan_area = {
						add_core = Y69
					}
					every_owned_province = {
						limit = { is_core = Y69 }
						remove_core = ROOT
					}
				}
				release_with_religion_and_culture = {
					tag = Y69
					religion = ROOT
					culture = kelino
				}
				Y69 = { add_government_reform = stratocracy_reform }
			}
			create_march = Y69
			Y69 = {
				add_country_modifier = {
					name = "arawkelin_sponsored_expedition"
					duration = -1
				}
			}
			mesatulek_area = { add_permanent_claim = Y69 } 
		}
	}

	Y65_conquer_kuta = {
		icon = mission_portuguese_malacca
		position = 3
		required_missions = {
			Y65_countryside_conversions
			Y65_reign_in_the_expedition
		}
		provinces_to_highlight = {
			area = mesatulek_area
			NOT = { country_or_non_sovereign_subject_holds = ROOT } 
		}

		trigger = {
			mesatulek_area = {
				type = all
				country_or_non_sovereign_subject_holds = ROOT
			}
		}

		effect = {
			country_event = { 
				id = flavour_arawkelin.18
			}
			custom_tooltip = arawkelin_event_insight.2
		}
	}

	Y65_expand_into_the_interior = {
		icon = mission_conquer_andhra_vij
		position = 4
		required_missions = { Y65_conquer_kuta } 
		provinces_to_highlight = {
			region = lupulan_rainforest_region
			NOT = { country_or_non_sovereign_subject_holds = ROOT } 
		}

		trigger = {
			Y69 = {
				num_of_owned_provinces_with = {
					value = 12
					region = lupulan_rainforest_region
				}
			}
		}

		effect = {
			Y69 = {
				add_country_modifier = {
					name = "arawkelin_zealous_missionaries"
					duration = -1
				}
			}
			lupulan_rainforest_region = {
				limit = { NOT = { owned_by = ROOT }  } 
				add_permanent_claim = Y69
			}
		}
	}

	Y65_root_out_the_mystic_accord = {
		icon = mission_rb_control_state_religion
		position = 6
		required_missions = {
			Y65_expand_into_the_interior
			Y65_oust_the_binhrung
		}
		provinces_to_highlight = {
			AND = {
				region = lupulan_rainforest_region
				OR = {
					religion = mystic_accord
					religion = accretive_path
					religion = transmutative_path
					religion = devouring_path
				}
			}
		}

		trigger = {
			num_of_provinces_owned_or_owned_by_non_sovereign_subjects_with = {
				value = 30
				region = lupulan_rainforest_region
				NOT = {
					religion = accretive_path
					religion = transmutative_path
					religion = mystic_accord
					religion = devouring_path
				}
			}
		}

		effect = {
			if = {
				limit = { Y69 = { march_of = ROOT }  } 
				custom_tooltip = Y65_root_out_the_mystic_accord_tt
			}
			add_dip_power = 200
			hidden_effect = {
				if = {
					limit = { Y69 = { march_of = ROOT }  } 
					vassalize = Y69
				}
			}
			add_country_modifier = {
				name = "arawkelin_kelino_zealotry"
				duration = -1
			}
		}
	}

	Y65_integrate_the_expedition = {
		icon = mission_rb_monopolize_the_channel
		position = 9
		required_missions = { Y65_root_out_the_mystic_accord } 
		provinces_to_highlight = {
			region = lupulan_rainforest_region
			OR = {
				religion = mystic_accord
				religion = accretive_path
				religion = transmutative_path
				religion = devouring_path
			}
		}

		trigger = {
			Y69 = { exists = no } 
			num_of_provinces_owned_or_owned_by_non_sovereign_subjects_with = {
				value = 40
				region = lupulan_rainforest_region
				NOT = {
					religion = accretive_path
					religion = transmutative_path
					religion = mystic_accord
					religion = devouring_path
				}
			}
		}

		effect = {
			add_country_modifier = {
				name = "arawkelin_integrate_the_expedition"
				duration = 7300
			}
			hidden_effect = {
				add_country_modifier = {
					name = "arawkelin_kelino_convertion_free"
					duration = -1
				}
			}
			add_accepted_culture = yan_kelino
			add_accepted_culture = jahe_kelino
			add_accepted_culture = kano_kelino
			add_accepted_culture = gataw
			custom_tooltip = arawkelin_kelino_convertion_free.tt
			remove_country_modifier = arawkelin_no_conversion
			custom_tooltip = kelino_conversion_tt
			hidden_effect = { set_country_flag = arawkelin_kelino_conversion } 
		}
	}

	Y65_kelino_syncretism = {
		icon = mission_reliable_allies
		position = 10
		required_missions = { Y65_integrate_the_expedition } 
		provinces_to_highlight = {
			region = lupulan_rainforest_region
			owned_by = ROOT
			NOT = { culture_group = kelino } 
		}

		trigger = {
			lupulan_rainforest_region = {
				type = all
				owned_by = ROOT
				culture_group = kelino
			}
		}

		effect = {
			add_country_modifier = {
				name = "arawkelin_cultural_syncretism"
				duration = -1
			}
		}
	}

	Y65_first_halessi_gnomes = {
		icon = mission_science
		position = 11
		required_missions = { Y65_western_arrivals } 
		provinces_to_highlight = { } 

		trigger = {
			any_owned_province = {
				OR = {
					has_gnomish_majority_trigger = yes
					has_gnomish_minority_trigger = yes
				}
			}
		}

		effect = { 
			custom_tooltip = arawkelin_artificery_15.tt
			hidden_effect = {
				mission_reward_artifice_points_5 = yes 
				mission_reward_artifice_points_10 = yes 
			}
			change_innovativeness = 20
		}

	}

	Y65_attract_the_gommo = {
		icon = mission_gnomish_ship
		position = 12
		required_missions = { Y65_first_halessi_gnomes } 
		provinces_to_highlight = { 
			trade_goods = precursor_relics
			NOT = {
				AND = {
					base_production = 6
					has_production_building_trigger = yes
				}
			}
			owned_by = ROOT
		} 

		trigger = { 
            num_artifice_inventions_discovered = {
            	VAL = 7
            }
			OR = {
				num_of_owned_provinces_with  = {
					value = 3
					trade_goods = precursor_relics
					base_production = 6
					has_production_building_trigger = yes
				}					
				any_owned_province = {
					trade_goods = precursor_relics
					base_production = 16
					has_production_building_trigger = yes
				}
			}
		} 

		effect = { 
			custom_tooltip = arawkelin_artificery_15.tt
			hidden_effect = {
				mission_reward_artifice_points_5 = yes 
				mission_reward_artifice_points_10 = yes 
			}
			4774 = {
				add_province_modifier = {
					name = "arawkelin_gommo_base"
					duration = -1
				}
				add_base_tax = 2
				add_base_production = 2
				add_base_manpower = 2
			}
		} 
	}

	Y65_welcome_their_missionaries = {
		icon = sway_the_pope
		position = 14
		required_missions = { Y65_welcome_their_traders } 
		provinces_to_highlight = {  } 

		trigger = { religion = ravelian } 

		effect = {
			add_country_modifier = {
				name = "arawkelin_ravelian_rifle_missionaries"
				duration = -1
			}
		}
	}

	Y65_convert_the_countryside = {
		icon = mission_hands_praying
		position = 15
		required_missions = { Y65_welcome_their_missionaries } 
		provinces_to_highlight = {
			region = lupulan_rainforest_region
			owned_by = ROOT
			NOT = { religion = ravelian } 
		}

		trigger = {
			num_of_owned_provinces_with  = {
				value = 10
				region = lupulan_rainforest_region
				religion = ravelian
			}
		}

		effect = {
			add_adm_power = 100
			add_dip_power = 100
			add_mil_power = 100
		}
	}

	Y65_a_bright_new_age = {
		icon = mission_sunset
		position = 16
		required_missions = {
			Y65_modernized_army
			Y65_convert_the_countryside
			Y65_modernized_navy
		}
		provinces_to_highlight = {
			region = lupulan_rainforest_region
			country_or_non_sovereign_subject_holds = ROOT
			NOT = {
				AND = {
					religion = ravelian
					culture_group = kelino
				}
			}
		}

		trigger = {
			power_projection = 50
			1366 = { is_strongest_trade_power = ROOT } 
			1361 = { is_strongest_trade_power = ROOT } 
			1371 = { is_strongest_trade_power = ROOT } 
			lupulan_rainforest_region = {
				type = all
				culture_group = kelino
				religion = ravelian
			}
		}

		effect = {
			country_event = { id = flavour_arawkelin.19 }
			custom_tooltip = arawkelin_event_insight.3
		}
	}
}
arawkelin_3 = {
	slot = 3
	generic = no
	ai = yes
	has_country_shield = yes
	potential = { tag = Y65 } 

	Y65_prepare_the_fleet = {
		icon = mission_junk_boat
		position = 2
		required_missions = { Y65_drill_the_troops } 
		provinces_to_highlight = {  } 

		trigger = {
			num_of_light_ship = 10
			num_of_heavy_ship = 5
		}

		effect = {
			ringlet_isles_region = {
				limit = {
					owned_by = Y64
					is_city = yes
				}
				add_permanent_claim = ROOT
			}
			4962 = { add_permanent_claim = ROOT } 
			harumbasai_area = { add_permanent_claim = ROOT } 
		}
	}

	Y65_dread_queen_no_more = {
		icon = mission_combat_barbary_piracy
		position = 3
		required_missions = { Y65_prepare_the_fleet } 
		provinces_to_highlight = {
			region = ringlet_isles_region
			is_core = Y64
			NOT = { owned_by = ROOT } 
		}

		trigger = {
			ringlet_isles_region = {
				type = all
				OR = {
					AND = {
						is_core = Y64
						owned_by = ROOT
					}
					NOT = { is_core = Y64 } 
				}
			}
		}

		effect = {
			add_prestige = 10
			amkamsek_area = { add_permanent_claim = ROOT } 
			hoangdesinh_area = { add_permanent_claim = ROOT } 
		}
	}

	Y65_finish_the_pirates = {
		icon = Burn_Wooden_Wall
		position = 4
		required_missions = { Y65_dread_queen_no_more } 
		provinces_to_highlight = {
			OR = {
				AND = {
					area = amkamsek_area
					is_city = yes
					NOT = { owned_by = ROOT } 
				}
				AND = {
					area = hoangdesinh_area
					is_city = yes
					NOT = { owned_by = ROOT } 
				}
			}
		}

		trigger = {
			Y64 = { exists = no } 
			amkamsek_area = {
				type = all
				OR = {
					owned_by = ROOT
					is_city = no
				}
			}
			hoangdesinh_area = {
				type = all
				owned_by = ROOT
			}
		}

		effect = {
			country_event = { id = flavour_arawkelin.1 }
			custom_tooltip = arawkelin_event_insight.4 
		}
	}

	Y65_expand_yan_contacts = {
		icon = personal_diplomacy
		position = 7
		required_missions = {
			Y65_finish_the_pirates
			Y65_root_out_the_mystic_accord
		}
		provinces_to_highlight = { } 

		trigger = {
			any_ally = {
				NOT = { tag = Y20 }
				capital_scope = { superregion = yanshen_superregion } 
				has_opinion = {
					who = ROOT
					value = 150
				}
			}
		}

		effect = {
			random_ally = {
				limit = {
					capital_scope = { superregion = yanshen_superregion } 
					NOT = { tag = Y20 }
					has_opinion = {
						who = ROOT
						value = 150
					}
				}
				add_trust = {
					who = Y20
					value = 20
					mutual = yes
				}
			}
			4837 = {
				add_trade_modifier = {
					who = ROOT
					duration = 7300
					power = 10
					key = STRONG_MERCHANTS
				}
			}
			add_country_modifier ={
				name = "arawkelin_reaching_new_markets"
				duration = 10950
			}
		}
	}

	Y65_control_the_eastern_shipping_lanes = {
		icon = mission_the_triangle_trade
		position = 8
		required_missions = { Y65_expand_yan_contacts } 
		provinces_to_highlight = {  
			OR = {
				province_id = 4955
				province_id = 4837
			}
			NOT = { 
				owned_by = ROOT 
				owner = {
					is_in_trade_league_with = ROOT
				}
			}
		} 

		trigger = {
			any_known_country = {
				is_in_trade_league_with = ROOT
				owns = 4955
				has_reform = trading_city
			}
			OR = {
				any_known_country = {
					is_in_trade_league_with = ROOT
					owns = 4837 
					has_reform = trading_city
				}
				4837 = { owned_by = Y20}
			}
			1371 = {
				trade_share = {
					country = ROOT
					share = 50
				}
			}
		}

		effect = {
			add_country_modifier = {
				name = "arawkelin_control_shipping_lanes_east"
				duration = -1
			}
			if = {
				limit = {
					Y20 = { exists = no }
				}
				iongsim_area = { add_permanent_claim = ROOT }
			}
		}
	}

	Y65_our_northern_brothers_in_faith = {
		icon = mission_friends_or_enemies
		position = 9
		required_missions = { Y65_control_the_eastern_shipping_lanes } 
		provinces_to_highlight = {
			OR = {
				AND = {
					Y20 = { exists = yes }
					is_capital_of = Y20
					NOT = {
						owner = {
							has_opinion = {
								who = ROOT
								value = 180
							}
						}
					}
				}
				AND = {
					Y20 = { exists = no }
					area = iongsim_area
					NOT = { country_or_non_sovereign_subject_holds = ROOT }
				}
			}
		} 

		trigger = {
			if = {
				limit = { Y20 = { exists = yes } }
				alliance_with = Y20
				reverse_has_opinion = {
					who = Y20
					value = 180
				}
			}
			else = {
				iongsim_area = {
					type = all
					country_or_non_sovereign_subject_holds = ROOT
				}
			}
		}

		effect = {
			if = {
				limit = { Y20 = { NOT = { exists = yes } } }
				every_owned_province = {
					limit = { is_core = Y20 }
					remove_core = ROOT
				}
				release_with_religion_and_culture = {
					tag = Y20
					religion = ROOT
					culture = gangim
				} 
				create_subject = {
					subject_type = commercial_enterprise
					subject = Y20
				}
			}
			add_dip_power = 100
			add_trust = {
				who = Y20
				value = 20
				mutual = yes
			}
			add_favors = {
				who = Y20
				amount = 20
			}
		}
	}

	Y65_a_stable_source_of_food = {
		icon = mission_a_million_rice_fields
		position = 10
		required_missions = { Y65_integrate_the_expedition } 
		provinces_to_highlight = {
			OR = {
				AND = {
					NOT = { province_id = 4963 } #Arawkelin
					NOT = { has_production_building_trigger = yes }
					OR = {
						trade_goods = grain
						trade_goods = livestock
					}
					owned_by = ROOT
				}
				AND = {
					province_id = 4963 #Arawkelin
					has_any_ongoing_construction = yes
				}
			}
		}
		
		trigger = {
			treasury = 250
			num_of_owned_provinces_with = {
				value = 7
				has_production_building_trigger = yes
				OR = {
					trade_goods = grain
					trade_goods = livestock
				}
				NOT = { province_id = 4963 } #Arawkelin
			}
			4963 = { has_any_ongoing_construction = no } #Arawkelin
		}

		effect = {
			add_treasury = -250
			4963 = { #Arawkelin
				change_trade_goods = paper
				add_base_tax = 1
				add_base_production = 1
				add_base_manpower = 1
				add_building = mills
			}
		}
	}

	Y65_new_cities_of_the_lupulan = {
		icon = public_works
		position = 11
		required_missions = { Y65_a_stable_source_of_food } 
		provinces_to_highlight = {
			owned_by = ROOT
			NOT = {
				province_id = 4963
				AND = {
					development = 20 
					has_manpower_building_trigger = yes
					has_tax_building_trigger = yes
					has_trade_building_trigger = yes
				}
			}
		}

		trigger = {
			num_of_owned_provinces_with = {
				NOT = { province_id = 4963 }
				value = 3
				development = 20
				has_production_building_trigger = yes
				has_tax_building_trigger = yes
				has_manpower_building_trigger = yes
			}
		}

		effect = {
			custom_tooltip = arawkelin_burgeoning_city.tt
			hidden_effect = {
				random_owned_province = { 
					limit = {
						NOT = { province_id = 4963 }
						NOT = { has_province_modifier = arawkelin_burgeoning_city }
						development = 20
						has_production_building_trigger = yes
						has_tax_building_trigger = yes
						has_manpower_building_trigger = yes
					}
					add_base_tax = 1
					add_base_production = 1
					add_base_manpower = 1
					random_list = {
						20 = { change_trade_goods = gems } 
						20 = { change_trade_goods = paper } 
						20 = { change_trade_goods = glass } 
						20 = { change_trade_goods = silk } 
						20 = { change_trade_goods = incense } 
					}
					add_province_modifier = {
						name = "arawkelin_burgeoning_city"
						duration = -1
					}
				}
				random_owned_province = { 
					limit = {
						NOT = { has_province_modifier = arawkelin_burgeoning_city }
						development = 20
						has_production_building_trigger = yes
						has_tax_building_trigger = yes
						has_manpower_building_trigger = yes
					}
					add_base_tax = 1
					add_base_production = 1
					add_base_manpower = 1
					random_list = {
						20 = { change_trade_goods = gems } 
						20 = { change_trade_goods = paper } 
						20 = { change_trade_goods = glass } 
						20 = { change_trade_goods = silk } 
						20 = { change_trade_goods = incense } 
					}
					add_province_modifier = {
						name = "arawkelin_burgeoning_city"
						duration = -1
					}
				}
				random_owned_province = { 
					limit = {
						NOT = { has_province_modifier = arawkelin_burgeoning_city }
						development = 20
						has_production_building_trigger = yes
						has_tax_building_trigger = yes
						has_manpower_building_trigger = yes
					}
					add_base_tax = 1
					add_base_production = 1
					add_base_manpower = 1
					random_list = {
						20 = { change_trade_goods = gems } 
						20 = { change_trade_goods = paper } 
						20 = { change_trade_goods = glass } 
						20 = { change_trade_goods = silk } 
						20 = { change_trade_goods = incense } 
					}
					add_province_modifier = {
						name = "arawkelin_burgeoning_city"
						duration = -1
					}
				}
			}
		}
	}

	Y65_teak_furniture = {
		icon = saxon_manufacturing
		position = 13
		required_missions = { Y65_new_cities_of_the_lupulan } 
		provinces_to_highlight = {
			owned_by = ROOT
			trade_goods = tropical_wood
			NOT = { 
				AND = {
					base_production = 5 
					has_production_building_trigger = yes
					has_manufactory_trigger = yes
				}
			}
		}

		trigger = {
			num_of_owned_provinces_with = {
				value = 3
				base_production = 5
				trade_goods = tropical_wood
				has_production_building_trigger = yes
				has_manufactory_trigger = yes
			}
		}

		effect = {
			custom_tooltip = arawkelin_furniture.tt
			random_owned_province = {
				limit = {
					NOT = { has_province_modifier = arawkelin_furniture_manufactories }
					base_production = 5
					trade_goods = tropical_wood
					has_production_building_trigger = yes
					has_manufactory_trigger = yes
				}
				add_base_tax = 1
				add_base_production = 1
				add_base_manpower = 1
				add_permanent_province_modifier = {
					name = "arawkelin_furniture_manufactories"
					duration = -1
				}
			}
			random_owned_province = {
				limit = {
					NOT = { has_province_modifier = arawkelin_furniture_manufactories }
					base_production = 5
					trade_goods = tropical_wood
					has_production_building_trigger = yes
					has_manufactory_trigger = yes
				}
				add_base_tax = 1
				add_base_production = 1
				add_base_manpower = 1
				add_permanent_province_modifier = {
					name = "arawkelin_furniture_manufactories"
					duration = -1
				}
			}
			random_owned_province = {
				limit = {
					NOT = { has_province_modifier = arawkelin_furniture_manufactories }
					base_production = 5
					trade_goods = tropical_wood
					has_production_building_trigger = yes
					has_manufactory_trigger = yes
				}
				add_base_tax = 1
				add_base_production = 1
				add_base_manpower = 1
				add_permanent_province_modifier = {
					name = "arawkelin_furniture_manufactories"
					duration = -1
				}
			}
		}
	}

	Y65_welcome_their_wares = {
		icon = mission_wine_monopolies
		position = 14
		required_missions = {
			Y65_welcome_their_traders
			Y65_teak_furniture
		}
		provinces_to_highlight = {  } 

		trigger = {
			any_known_country = {
				OR = {
					capital_scope = {
						region = lencenor_region
					}
					capital_scope = {
						region = west_dameshead_region
					}
				}
				has_opinion = {
					who = ROOT
					value = 150
				}
			}
		}

		effect = {
			4722 = {
				change_trade_goods = wine
				add_province_modifier = {
					name = "arawkelin_cannorian_plantations"
					duration = -1
				}
			}
			add_country_modifier = {
				name = "arawkelin_cannorian_techniques"
				duration = -1
			}
		}
	}

	Y65_modernized_navy = {
		icon = mission_spanish_armada
		position = 15
		required_missions = { Y65_welcome_their_missionaries } 
		provinces_to_highlight = {  
			owner = {
				naval_strength = {
					who = ROOT
					value = 1.0
				}
				NOT = { tag = ROOT }
			}
		}

		trigger = {
			all_known_country = {
				OR = {
					NOT = { naval_forcelimit = 1 } 
					NOT = {
						naval_strength = {
							who = ROOT
							value = 1.0
						}
					}
				}
			}
		}

		effect = {
			add_country_modifier = {
				name = "arawkelin_modernized_navy"
				duration = -1
			}
		}
	}

	Y65_monopolized_shipping_lanes = {
		icon = mission_african_gold
		position = 16
		required_missions = { Y65_modernized_navy } 
		provinces_to_highlight = {  } 

		trigger = {
			has_global_modifier_value = {
				which = global_ship_trade_power
				value = 1.2
			}
		}

		effect = {
			add_country_modifier = {
				name = "arawkelin_monopolized_shipping_lanes"
				duration = -1
			}
		}
	}
}
arawkelin_4 = {
	slot = 4
	generic = no
	ai = yes
	has_country_shield = yes
	potential = { tag = Y65 } 

	Y65_aksa_pusoayan = {
		icon = mission_recover_konkan_ports
		position = 4
		required_missions = { Y65_dread_queen_no_more } 
		provinces_to_highlight = {
			province_id = 6153
			NOT = {
				AND = {
					development = 15
					has_trade_building_trigger = yes
					fort_level = 2
				}
			}
		}

		trigger = {
			6153 = {
				development = 15
				has_trade_building_trigger = yes
				fort_level = 2
			}
		}

		effect = {
			6153 = {
				add_province_modifier = {
					name = "arawkelin_citadel_of_the_heart_bay"
					duration = -1
				}
				change_province_name = "Heart Bay"
			}
		}
	}

	Y65_lupulan_lumber_shipyards = {
		icon = mission_grand_bengali_shipyards
		position = 5
		required_missions = { Y65_aksa_pusoayan } 
		provinces_to_highlight = {
			OR = {
				AND = {
					area = arawkelin_area
					NOT = { has_dock_building_trigger = yes }
				}
				AND = {
					province_id = 4718
					NOT = { has_dock_building_trigger = yes }
				}
				AND = {
					province_id = 4717
					NOT = { has_dock_building_trigger = yes }
				}
			}
		}

		trigger = {
			num_of_owned_provinces_with = {
				value = 3
				has_province_modifier = arawkelin_deforestation_in_progress
			}
			arawkelin_area = {
				type = all
				has_dock_building_trigger = yes
			}
			4718 = {
				has_dock_building_trigger = yes
			}
			4717 = {
				has_dock_building_trigger = yes
			}
		}

		effect = {
			arawkelin_area = {
				add_province_modifier = {
					name = "arawkelin_lupulan_lumber_shipyards"
					duration = -1
				}
			}
			4718 = {
				add_province_modifier = {
					name = "arawkelin_lupulan_lumber_shipyards"
					duration = -1
				}
			}
			4717 = {
				add_province_modifier = {
					name = "arawkelin_lupulan_lumber_shipyards"
					duration = -1
				}
			}
		}
	}

	Y65_expand_the_fleets = {
		icon = mission_aragonese_navy
		position = 6
		required_missions = { Y65_lupulan_lumber_shipyards } 
		provinces_to_highlight = {  } 

		trigger = { num_of_light_ship = 40 } 

		effect = {
			add_country_modifier = {
				name = "arawkelin_middlemen_of_haless"
				duration = -1
			}
		}
	}

	Y65_yan_kelino = {
		icon = mission_religious
		position = 8
		required_missions = { Y65_expand_yan_contacts } 
		provinces_to_highlight = {
			NOT = { superregion = yanshen_superregion }
			culture = naamjyut
			OR = {
				NOT = { owned_by = ROOT }
				AND = {
					owned_by = ROOT
					has_owner_religion = no
				}
			}
		}

		trigger = {
			num_of_owned_provinces_with = {
				value = 5
				culture = naamjyut
				has_owner_religion = yes
			}
			adm_power = 200
		}

		effect = {
			ringlet_isles_region = {
				limit = {
					culture = naamjyut
					owned_by = ROOT
				}
				change_culture = yan_kelino
			}
			4807 = {
				change_culture = yan_kelino
			}
		}
	}

	Y65_found_the_ringlet_company = {
		icon = mission_trade_company_region_abroad
		position = 9
		required_missions = { Y65_yan_kelino } 
		provinces_to_highlight = {  } 

		trigger = { 
			treasury = 500
			adm_power = 100
			estate_loyalty = {
				estate = estate_burghers
				loyalty = 60
			}
		} 

		effect = { 
			add_treasury = -500
			add_adm_power = -100
			add_temporary_colonist = { duration = -1 }
			add_country_modifier = {
				name = "arawkelin_free_coloniser"
				duration = -1
			}
		} 
	}

	Y65_settle_the_ringlet_isles = {
		icon = mission_settlers_north_america
		position = 11
		required_missions = { Y65_found_the_ringlet_company } 
		provinces_to_highlight = { 
			region = ringlet_isles_region
			NOT = { country_or_non_sovereign_subject_holds = ROOT }
		} 

		trigger = { 
			ringlet_isles_region = {
				type = all
				country_or_non_sovereign_subject_holds = ROOT
			}
		} 

		effect = { 
			custom_tooltip = arawkelin_deforestation_ringlet_isles.tt
			hidden_effect = {
				set_country_flag = arawkelin_deforestation_ringlet_isles
			}
			rimvuawuni_area = { add_permanent_claim = ROOT }
			6138 = {
				add_base_manpower = 3
				add_base_tax = 3
				add_base_production = 3
				add_center_of_trade_level = 1
			}
			merfolk_add_opinion_effect_largest = yes
		} 
	}

	Y65_merfolk_alliance = {
		icon = mission_missive
		position = 12
		required_missions = { Y65_settle_the_ringlet_isles } 
		provinces_to_highlight = { 
			province_id = 6138
		} 

		trigger = { 
			any_owned_province = {
				has_province_modifier = offcoast_merfolk_allied
			}
		} 

		effect = { 
			country_event = { id = flavour_arawkelin.20 }
			custom_tooltip = arawkelin_event_insight.5
		} 
	}

	Y65_sarhal_haless_searout = {
		icon = mission_establish_high_seas_navy
		position = 14
		required_missions = { Y65_merfolk_alliance } 
		provinces_to_highlight = { 
			region = jasiir_jadid_region
			NOT = { country_or_non_sovereign_subject_holds = ROOT }
		} 

		trigger = {
			NOT = { has_country_modifier = arawkelin_creating_merfolk_traderout }
			OR = {
				any_known_country = {
					capital_scope = { region = jasiir_jadid_region } 
					has_opinion = {
						who = ROOT
						value = 120
					}
				}
				num_of_provinces_owned_or_owned_by_non_sovereign_subjects_with = {
					region = jasiir_jadid_region
					value = 5
				}
			}
		}

		effect = {
			set_estate_privilege = estate_burghers_great_merfolk_searout
		} 
	}
}
arawkelin_5 = {
	slot = 5
	generic = no
	ai = yes
	has_country_shield = yes
	potential = { tag = Y65 } 

	Y65_modernize_aksa_sanuyego = {
		icon = mission_secure_hajj_ports
		position = 5
		required_missions = { Y65_aksa_pusoayan } 
		provinces_to_highlight = {
			province_id = 4716
			NOT = {
					AND = {
						OR = {
							has_great_project = {
								type = aksa_sanuyego
								tier = 2
							}

							has_great_project = {
								type = aksa_sanuyego
								tier = 3
							}
						}

						has_coast_defense_building_trigger = yes
						fort_level = 2
				}
			}
		}

		trigger = {
			4716 = {
				OR = {
					has_great_project = {
						type = aksa_sanuyego
						tier = 2
					}
					has_great_project = {
						type = aksa_sanuyego
						tier = 3
					}
				}
				has_coast_defense_building_trigger = yes
				fort_level = 2
			}
		}

		effect = {
			4716 = {
				add_base_tax = 1
				add_base_production = 1
				add_base_manpower = 1
				add_province_modifier = {
					name = "arawkelin_expand_aksa_sanuyego"
					duration = 18250
				}
			}
		}
	}

	Y65_more_than_just_a_fort = {
		icon = the_great_school
		position = 7
		required_missions = { Y65_modernize_aksa_sanuyego } 
		provinces_to_highlight = {
			province_id = 4716
			NOT = {
				AND = {
					has_manpower_building_trigger = yes
					has_production_building_trigger = yes
					has_courthouse_building_trigger = yes
					development = 25
				}
			}
		}

		trigger = {
			4716 = {
				has_manpower_building_trigger = yes
				has_production_building_trigger = yes
				has_courthouse_building_trigger = yes
				development = 25
			}
		}

		effect = {
			country_event = { id = flavour_arawkelin.17 }
			custom_tooltip = arawkelin_event_insight.6
		}
	}

	Y65_land_in_the_coffee_coast = {
		icon = mission_swiss_mercenaries_flipped
		position = 12
		required_missions = { Y65_settle_the_ringlet_isles } 
		provinces_to_highlight = { 
			area = rimvuawuni_area
			NOT = { country_or_non_sovereign_subject_holds = ROOT }
		} 

		trigger = { 
			rimvuawuni_area = {
				type = all
				country_or_non_sovereign_subject_holds = ROOT
			}
		} 

		effect = {
			add_country_modifier = {
				name = "arawkelin_coffee_coast_conquest"
				duration = 18250
			}
			bamaliwuni_region = { add_permanent_claim = ROOT}
		} 
	}

	Y65_encroach_into_the_jungle = {
		icon = mission_alone_in_the_wood
		position = 13
		required_missions = { Y65_land_in_the_coffee_coast } 
		provinces_to_highlight = { 
			region = bamaliwuni_region
			NOT = { owned_by = ROOT }
		} 

		trigger = { 
			num_of_owned_provinces_with = {
				value = 30
				region = bamaliwuni_region
			}
			num_of_owned_provinces_with = {
				value = 5
				region = bamaliwuni_region
				trade_goods = coffee
				base_production = 8
				has_production_building_trigger = yes
			}
		} 

		effect = {  
			add_mercantilism = 5
			custom_tooltip = arawkelin_five_coffee_rush.tt
			hidden_effect = {
				random_owned_province = {
					limit = {
						NOT = { has_province_modifier = "arawkelin_coffee_rush" }
						region = bamaliwuni_region 
						trade_goods = coffee 
						base_production = 8 
						has_production_building_trigger = yes
					}
					add_province_modifier = {
						name = "arawkelin_coffee_rush" 
						duration = 7300 
					}
				}
				random_owned_province = {
					limit = {
						NOT = { has_province_modifier = "arawkelin_coffee_rush" }
						region = bamaliwuni_region 
						trade_goods = coffee 
						base_production = 8 
						has_production_building_trigger = yes
					}
					add_province_modifier = {
						name = "arawkelin_coffee_rush" 
						duration = 7300 
					}
				}
				random_owned_province = {
					limit = {
						NOT = { has_province_modifier = "arawkelin_coffee_rush" }
						region = bamaliwuni_region 
						trade_goods = coffee 
						base_production = 8 
						has_production_building_trigger = yes 
					}
					add_province_modifier = {
						name = "arawkelin_coffee_rush" 
						duration = 7300 
					}
				}
				random_owned_province = {
					limit = {
						NOT = { has_province_modifier = "arawkelin_coffee_rush" }
						region = bamaliwuni_region 
						trade_goods = coffee 
						base_production = 8 
						has_production_building_trigger = yes	
					}
					add_province_modifier = {
						name = "arawkelin_coffee_rush" 
						duration = 7300 
					}
				}
				random_owned_province = {
					limit = {
						NOT = { has_province_modifier = "arawkelin_coffee_rush" }
						region = bamaliwuni_region 
						trade_goods = coffee 
						base_production = 8 
						has_production_building_trigger = yes
					}
					add_province_modifier = {
						name = "arawkelin_coffee_rush" 
						duration = 7300 
					}
				}
			}
		}
	}

	Y65_kings_of_coffe_trade = {
		icon = mission_dominate_persian_gulf
		position = 15
		required_missions = { Y65_encroach_into_the_jungle } 
		provinces_to_highlight = { 
			OR = {
				AND = {
					region = bamaliwuni_region
					NOT = { owned_by = ROOT }
				}
				AND = {
					region = bamaliwuni_region
					owned_by = ROOT 
					trade_goods = coffee
					NOT = {
						AND = {
							base_production = 12
							has_production_building_trigger = yes
							has_manufactory_trigger = yes
						}
					}
				}
			}
		}

		trigger = {  
			bamaliwuni_region ={
				type = all
				owned_by = ROOT
			}
			treasury = 1000
			bamaliwuni_region = {
				type = all
				OR = {
					NOT = { trade_goods = coffee }
					AND = {
						base_production = 12
						has_production_building_trigger = yes
						has_manufactory_trigger = yes
					}
				}
			}
		}

		effect = { 
			add_treasury = -1000
			add_mercantilism = 10
			ishyamtumu_region = { add_permanent_claim = ROOT }
			custom_tooltip = arawkelin_deforestation_sarhal.tt
			hidden_effect = {
				set_country_flag = arawkelin_deforestation_sarhal
			}
		} 
	}
}
