bianfang_missions_1 = {
	slot = 1
	generic = no
	ai = yes
	has_country_shield = yes
	potential = {
		OR = {
			tag = Y09
			AND = {
				tag = Z66
				was_tag = Y09
			}
		}
	}
	
	bianfang_fortress_with_a_state = {
		icon = mission_fortify_rajputana
		position = 1
		required_missions = { }
		
		provinces_to_highlight = {
			province_id = 4901
			NOT = {
				country_or_non_sovereign_subject_holds = ROOT
			}
		}
		
		trigger = {
			if = {
				limit = {
					4901 = { owned_by = Y03 }
					tag = Y09
				}
				mil_power = 100
				treasury = 150
				OR = {
					Y03 = {
						has_opinion = {
							who = ROOT
							value = 100
						}
					}
					4901 = { country_or_non_sovereign_subject_holds = ROOT }
				}
			}
			else = {
				4901 = { country_or_non_sovereign_subject_holds = ROOT }
			}
		}
		
		effect = {
			if = {
				limit = {
					4901 = { owned_by = Y03 }
				}
				country_event = {
					id = bianfang.1
					days = 1
				}
			}
			else = {
				add_prestige = 10
			}
		}
	}
	
	bianfang_frontier_fortress = {
		icon = mission_conquer_50_development
		position = 2
		required_missions = {
			bianfang_fortress_with_a_state
		}
		
		provinces_to_highlight = {
			province_id = 4901
			NOT = { country_or_non_sovereign_subject_holds = ROOT }
		}
		
		trigger = {
			4901 = { country_or_non_sovereign_subject_holds = ROOT }
			treasury = 250
			mil_power = 100
		}
		
		effect = {
			add_treasury = -250
			add_mil_power = -100
			4901 = {
				add_permanent_province_modifier = {
					name = bianfang_hulibao_fortified
					duration = -1
				}
			}
		}
	}
	
	bianfang_an_iron_fortress = {
		icon = take_the_bishoprics
		position = 4
		required_missions = {
			bianfang_frontier_fortress
			bianfang_greater_discipline
		}
		
		provinces_to_highlight = {
			province_id = 4901
			NOT = {
				AND = {
					country_or_non_sovereign_subject_holds = ROOT
					base_manpower = 10
					has_production_building_trigger = yes
					has_manpower_building_trigger = yes
					province_has_current_tech_fort_trigger = yes
					has_any_ongoing_construction = no
				}
			}
		}
		
		trigger = {
			4901 = {
				country_or_non_sovereign_subject_holds = ROOT
				base_manpower = 10
				has_production_building_trigger = yes
				has_manpower_building_trigger = yes
				province_has_current_tech_fort_trigger = yes
				has_any_ongoing_construction = no
			}
			treasury = 250
		}
		
		effect = {
			4901 = {
				if = {
					limit = { has_building = fort_15th }
					add_building_construction = {
						building = fort_16th
						speed = 2
						cost = 2
					}
				}
				else_if = {
					limit = { has_building = fort_16th }
					add_building_construction = {
						building = fort_17th
						speed = 2
						cost = 2
					}
				}
				else_if = {
					limit = { has_building = fort_17th }
					add_building_construction = {
						building = fort_18th
						speed = 2
						cost = 2
					}
				}
			}
			4826 = {
				add_harimari_minority_size_effect = yes
			}
			small_increase_of_harimari_tolerance_effect = yes
		}
	}
	
	bianfang_dragons_banner = {
		icon = mission_manchu_warrior
		position = 5
		required_missions = {
			bianfang_monstrous_drill
		}
		
		trigger = {
			if = {
				limit = { has_dlc = "Cradle of Civilization" }
				army_professionalism = 0.4
			}
			army_size = 60
			army_tradition = 40
			num_of_owned_provinces_with = {
				value = 25
				has_manpower_building_trigger = yes
			}
		}
		
		effect = {
			add_yearly_manpower = -1
			add_army_tradition = -10
			remove_country_modifier = bianfang_army_buff_2
			add_country_modifier = {
				name = bianfang_army_buff_3
				duration = -1
			}
		}
	}
}

bianfang_missions_2 = {
	slot = 2
	generic = no
	ai = yes
	has_country_shield = yes
	potential = {
		OR = {
			tag = Y09
			AND = {
				tag = Z66
				was_tag = Y09
			}
		}
	}
	
	bianfang_an_opening = {
		icon = mission_heated_battle
		position = 1
		required_missions = { }
		
		provinces_to_highlight = {
			owner = { has_reform = wulin }
		}
		
		trigger = {
			if = {
				limit = {
					any_known_country = { has_reform = wulin }
				}
				any_known_country = {
					has_reform = wulin
					is_at_war = yes
				}
			}
			else = {
				army_size_percentage = 0.8
			}
		}
		
		effect = {
			add_country_modifier = {
				name = bianfang_western_expedition
				duration = 5475
			}
			tietyuan_area = {
				limit = {
					NOT = { is_core = ROOT }
					NOT = { owned_by = ROOT }
				}
				add_permanent_claim = ROOT
			}
			wangqiu_area = {
				limit = {
					NOT = { is_core = ROOT }
					NOT = { owned_by = ROOT }
				}
				add_permanent_claim = ROOT
			}
			aoshan_area = {
				limit = {
					NOT = { is_core = ROOT }
					NOT = { owned_by = ROOT }
				}
				add_permanent_claim = ROOT
			}
		}
	}
	
	bianfang_subjugate_the_monks = {
		icon = mission_forest_shrine
		position = 2
		required_missions = {
			bianfang_an_opening
		}
		
		provinces_to_highlight = {
			OR = {
				area = tietyuan_area
				area = wangqiu_area
				area = aoshan_area
			}
			NOT = {
				country_or_non_sovereign_subject_holds = ROOT
			}
		}
		
		trigger = {
			tietyuan_area = {
				type = all
				country_or_non_sovereign_subject_holds = ROOT
			}
			wangqiu_area = {
				type = all
				country_or_non_sovereign_subject_holds = ROOT
			}
			aoshan_area = {
				type = all
				country_or_non_sovereign_subject_holds = ROOT
			}
		}
		
		effect = {
			country_event = { id = bianfang.11 }
		}
	}
	
	bianfang_greater_discipline = {
		icon = mission_chinese_general_riding
		position = 3
		required_missions = {
			bianfang_subjugate_the_monks
			bianfang_frontier_fortress
			bianfang_down_the_yan
		}
		
		trigger = {
			if = {
				limit = { has_dlc = "Cradle of Civilization" }
				army_professionalism = 0.2
			}
			num_of_infantry = 30
			num_of_owned_provinces_with = {
				value = 10
				has_manpower_building_trigger = yes
			}
		}
		
		effect = {
			add_country_modifier = {
				name = bianfang_army_buff_1
				duration = -1
			}
			add_yearly_manpower = 1
		}
	}
	
	bianfang_monstrous_drill = {
		icon = mission_japanese_samurai
		position = 4
		required_missions = {
			bianfang_greater_discipline
		}
		
		trigger = {
			if = {
				limit = {
					NOT = {
						exists = R62
						exists = Y58
					}
				}
				custom_trigger_tooltip = {
					tooltip = bianfang_has_hob_majority_minority_tt
					any_owned_province = {
						has_any_hobgoblin_pop_trigger = yes
					}
				}
			}
			else = {
				OR = {
					R62 = {
						has_spy_network_from = {
							who = ROOT
							value = 50
						}
					}
					Y58 = {
						has_spy_network_from = {
							who = ROOT
							value = 50
						}
					}
				}
			}
		}
		
		effect = {
			medium_increase_of_hobgoblin_tolerance_effect = yes
			4826 = { add_hobgoblin_minority_size_effect = yes }
			if = {
				limit = { has_dlc = "Cradle of Civilization" }
				add_army_professionalism = 0.05
			}
			remove_country_modifier = bianfang_army_buff_1
			add_country_modifier = {
				name = bianfang_army_buff_2
				duration = -1
			}
		}
	}
	
	bianfang_matchlock_warfare = {
		icon = mission_landsknecht_soldier
		position = 5
		required_missions = {
			bianfang_monstrous_drill
		}
		
		provinces_to_highlight = {
			owned_by = ROOT
			trade_goods = iron
			OR = {
				NOT = { base_production = 8 }
				NOT = { has_production_building_trigger = yes }
			}
		}
		
		trigger = {
			num_of_owned_provinces_with = {
				value = 2
				trade_goods = iron
				base_production = 8
				has_production_building_trigger = yes
			}
			num_of_infantry = 40
			years_of_income = 1
		}
		
		effect = {
			add_years_of_income = -1
			add_country_modifier = {
				name = bianfang_matchlock_adoption
				duration = 7300
			}
		}
	}
}

bianfang_missions_3 = {
	slot = 3
	generic = no
	ai = yes
	has_country_shield = yes
	potential = {
		OR = {
			tag = Y09
			AND = {
				tag = Z66
				was_tag = Y09
			}
		}
	}
	
	bianfang_increase_conscription = {
		icon = mission_assemble_an_army
		position = 1
		required_missions = { }
		
		trigger = {
			if = {
				limit = { ai = yes }
				army_size_percentage = 0.6
				has_mil_advisor = yes
			}
			else = {
				army_size_percentage = 0.8
				num_of_owned_provinces_with = {
					value = 8
					base_manpower = 4
				}
			}
		}
		
		effect = {
			bianfang_area = {
				limit = {
					NOT = { is_core = ROOT }
					NOT = { owned_by = ROOT }
				}
				add_permanent_claim = ROOT
			}
			anjiang_area = {
				limit = {
					NOT = { is_core = ROOT }
					NOT = { owned_by = ROOT }
				}
				add_permanent_claim = ROOT
			}
			jiangszun_area = {
				limit = {
					NOT = { is_core = ROOT }
					NOT = { owned_by = ROOT }
				}
				add_permanent_claim = ROOT
			}
			4851 = {
				add_permanent_claim = ROOT
			}
			4933 = {
				add_permanent_claim = ROOT
			}
			add_country_modifier = {
				name = bianfang_marching_down_the_yan
				duration = 9125
			}
		}
	}
	
	bianfang_down_the_yan = {
		icon = mission_invade_island
		position = 2
		required_missions = {
			bianfang_increase_conscription
		}
		
		provinces_to_highlight = {
			OR = {
				area = bianfang_area
				area = anjiang_area
				area = jiangszun_area
				province_id = 4851
				province_id = 4933
			}
			NOT = {
				country_or_non_sovereign_subject_holds = ROOT
			}
		}
		
		trigger = {
			bianfang_area = {
				type = all
				country_or_non_sovereign_subject_holds = ROOT
			}
			anjiang_area = {
				type = all
				country_or_non_sovereign_subject_holds = ROOT
			}
			jiangszun_area = {
				type = all
				country_or_non_sovereign_subject_holds = ROOT
			}
			4851 = {
				country_or_non_sovereign_subject_holds = ROOT
			}
			4933 = {
				country_or_non_sovereign_subject_holds = ROOT
			}
		}
		
		effect = {
			linyuan_area = {
				limit = {
					NOT = { is_core = ROOT }
					NOT = { owned_by = ROOT }
				}
				add_permanent_claim = ROOT
			}
			yanzhong_area = {
				limit = {
					NOT = { is_core = ROOT }
					NOT = { owned_by = ROOT }
				}
				add_permanent_claim = ROOT
			}
			hongnguan_area = {
				limit = {
					NOT = { is_core = ROOT }
					NOT = { owned_by = ROOT }
				}
				add_permanent_claim = ROOT
			}
			country_event = { id = bianfang.15 }
		}
	}
	
	bianfang_storm_the_palaces = {
		icon = mission_scholar_officials
		position = 3
		required_missions = {
			bianfang_down_the_yan
		}
		
		provinces_to_highlight = {
			OR = {
				area = linyuan_area
				area = yanzhong_area
				area = hongnguan_area
			}
			NOT = {
				country_or_non_sovereign_subject_holds = ROOT
			}
		}
		
		trigger = {
			linyuan_area = {
				type = all
				country_or_non_sovereign_subject_holds = ROOT
			}
			yanzhong_area = {
				type = all
				country_or_non_sovereign_subject_holds = ROOT
			}
			hongnguan_area = {
				type = all
				country_or_non_sovereign_subject_holds = ROOT
			}
		}
		
		effect = {
			add_country_modifier = {
				name = bianfang_yan_river_secured
				duration = 5475
			}
			jinqiu_area = {
				limit = {
					NOT = { is_core = ROOT }
					NOT = { owned_by = ROOT }
				}
				add_permanent_claim = ROOT
			}
			balrijin_area = {
				limit = {
					NOT = { is_core = ROOT }
					NOT = { owned_by = ROOT }
				}
				add_permanent_claim = ROOT
			}
			country_event = { id = bianfang.13 }
		}
	}
	
	bianfang_great_cities = {
		icon = mission_asian_city
		position = 4
		required_missions = {
			bianfang_storm_the_palaces
		}
		
		provinces_to_highlight = {
			owned_by = ROOT
			has_terrain = city_terrain
			NOT = {
				AND = {
					development = 25
					has_tax_building_trigger = yes
					has_trade_building_trigger = yes
				}
			}
		}
		
		trigger = {
			4826 = {
				owned_by = ROOT
				development = 25
				has_tax_building_trigger = yes
				has_trade_building_trigger = yes
			}
			4842 = {
				owned_by = ROOT
				development = 25
				has_tax_building_trigger = yes
				has_trade_building_trigger = yes
			}
			4846 = {
				owned_by = ROOT
				development = 25
				has_tax_building_trigger = yes
				has_trade_building_trigger = yes
			}
			4859 = {
				owned_by = ROOT
				development = 25
				has_tax_building_trigger = yes
				has_trade_building_trigger = yes
			}
		}
		
		effect = {
			4826 = {
				add_province_modifier = {
					name = bianfang_urban_population_influx
					duration = 3650
				}
			}
			add_country_modifier = {
				name = bianfang_urbanization
				duration = 9125
			}
		}
	}
}

bianfang_missions_4 = {
	slot = 4
	generic = no
	ai = yes
	has_country_shield = yes
	potential = {
		OR = {
			tag = Y09
			AND = {
				tag = Z66
				was_tag = Y09
			}
		}
	}
	
	bianfang_court_of_the_eunuch_king = {
		icon = mission_the_chola_campaigns
		position = 1
		required_missions = { }
		
		provinces_to_highlight = {
			province_id = 4893
			NOT = {
				country_or_non_sovereign_subject_holds = ROOT
			}
		}
		
		trigger = {
			OR = {
				AND = {
					alliance_with = Y21
					Y21 = {
						has_opinion = {
							who = ROOT
							value = 150
						}
					}
				}
				AND = {
					Y21 = { exists = no }
					4893 = {
						country_or_non_sovereign_subject_holds = ROOT
					}
				}
				Y21 = { is_subject_of = ROOT }
			}
		}
		
		effect = {
			if = {
				limit = {
					exists = Y21
				}
				add_trust = {
					who = Y21
					value = 15
					mutual = yes
				}
			}
			jyutsai_area = {
				limit = {
					NOT = { is_core = ROOT }
					NOT = { owned_by = ROOT }
				}
				add_permanent_claim = ROOT
			}
			wanglam_area = {
				limit = {
					NOT = { is_core = ROOT }
					NOT = { owned_by = ROOT }
				}
				add_permanent_claim = ROOT
			}
			hungngon_area = {
				limit = {
					NOT = { is_core = ROOT }
					NOT = { owned_by = ROOT }
				}
				add_permanent_claim = ROOT
			}
		}
	}
	
	bianfang_xiyun_reunification = {
		icon = mission_unite_home_region
		position = 3
		required_missions = {
			bianfang_court_of_the_eunuch_king
		}
		
		provinces_to_highlight = {
			is_core = Y21
			NOT = { owned_by = Y21 }
		}
		
		trigger = {
			Y21 = {
				OR = {
					alliance_with = ROOT
					is_subject_of = ROOT
				}
				all_core_province = {
					owned_by = Y21
				}
			}
		}
		
		effect = {
			iongsim_area = {
				limit = {
					NOT = { is_core = ROOT }
					NOT = { owned_by = ROOT }
				}
				add_permanent_claim = ROOT
			}
			if = {
				limit = {
					NOT = { Y21 = { is_subject_of = ROOT } }
				}
				Y21 = {
					country_event = { id = bianfang.6 }
				}
			}
		}
	}
	
	bianfang_one_king = {
		icon = mission_feast
		position = 4
		required_missions = {
			bianfang_xiyun_reunification
		}
		
		provinces_to_highlight = {
			province_id = 4893
		}
		
		trigger = {
			4893 = {
				num_of_units_in_province = {
					who = ROOT
					amount = 10
				}
			}
			Y21 = {
				is_subject_of = ROOT
			}
			Y21 = {
				has_spy_network_from = {
					who = ROOT
					value = 60
				}
			}
			Y21 = {
				NOT = { num_of_cities = 15 }
			}
		}
		
		effect = {
			country_event = { id = bianfang.5 }
		}
	}
	
	bianfang_imperial_capital = {
		icon = mission_early_game_buildings
		position = 5
		required_missions = {
			bianfang_great_cities
			bianfang_waypoint_metropolis
		}
		
		provinces_to_highlight = {
			province_id = 4826
			NOT = {
				AND = {
					owned_by = ROOT
					is_core = ROOT
					development = 45
				}
			}
		}
	
		trigger = {
			owns_core_province = 4826
			4826 = {
				development = 45
			}
		}
		
		effect = {
			add_prestige = 15
			add_splendor = 200
			4826 = {
				add_province_modifier = {
					name = bianfang_capital_1
					duration = -1
				}
			}
		}
	}
}

bianfang_missions_5 = {
	slot = 5
	generic = no
	ai = yes
	has_country_shield = yes
	potential = {
		OR = {
			tag = Y09
			AND = {
				tag = Z66
				was_tag = Y09
			}
		}
	}

	bianfang_facing_zyuhungwok = {
		icon = mission_conquer_burma
		position = 2
		required_missions = {
			bianfang_court_of_the_eunuch_king
		}
		
		provinces_to_highlight = {
			OR = {
				area = jyutsai_area
				area = wanglam_area
				area = hungngon_area
			}
			NOT = {
				country_or_non_sovereign_subject_holds = ROOT
			}
		}
		
		trigger = {
			jyutsai_area = {
				type = all
				country_or_non_sovereign_subject_holds = ROOT
			}
			wanglam_area = {
				type = all
				country_or_non_sovereign_subject_holds = ROOT
			}
			hungngon_area = {
				type = all
				country_or_non_sovereign_subject_holds = ROOT
			}
		}
		
		effect = {
			country_event = { id = bianfang.14 }
		}
	}
	
	bianfang_imperial_shipyard = {
		icon = mission_open_up_china
		position = 3
		required_missions = {
			bianfang_facing_zyuhungwok
		}
		
		provinces_to_highlight = {
			province_id = 4884
			NOT = {
				AND = {
					owned_by = ROOT
					is_core = ROOT
					development = 25
					has_dock_building_trigger = yes
					has_trade_building_trigger = yes
				}
			}
		}
		
		trigger = {
			owns_core_province = 4884 # Cuihiok
			4884 = {
				development = 25
				has_dock_building_trigger = yes
				has_trade_building_trigger = yes
				if = {
					limit = { has_dlc = "Dharma" }
					province_has_center_of_trade_of_level = 2
				}
			}
		}
		
		effect = {
			4884 = {
				change_religion = high_philosophy
				add_base_tax = 1
				add_base_production = 1
				add_base_manpower = 1
				add_permanent_province_modifier = {
					name = bianfang_imperial_shipyard_modifier
					duration = -1
				}
				change_province_name = "Szinyugang"
			}
		}
	}
	
	bianfang_waypoint_metropolis = {
		icon = mission_market_place_with_asian_traders
		position = 4
		required_missions = {
			bianfang_imperial_shipyard
		}
		
		provinces_to_highlight = {
			province_id = 4951
			NOT = {
				AND = {
					owned_by = ROOT
					is_core = ROOT
					development = 25
					has_trade_building_trigger = yes
					has_tax_building_trigger = yes
				}
			}
		}
		
		trigger = {
			owns_core_province = 4951
			4951 = {
				development = 25
				has_trade_building_trigger = yes
				has_tax_building_trigger = yes
				if = {
					limit = { has_dlc = "Dharma" }
					province_has_center_of_trade_of_level = 2
				}
			}
		}
		
		effect = {
			4951 = {
				change_religion = high_philosophy
				add_base_tax = 1
				add_base_production = 1
				add_base_manpower = 1
			}
			4826 = {
				add_province_modifier = {
					name = bianfang_coastal_trade_influx
					duration = 3650
				}
			}
		}
	}
}

#DAHUI PORTION

bianfang_liang_missions_1 = {
	slot = 1
	generic = no
	ai = yes 
	has_country_shield = yes
	potential = {
		tag = Z66
		was_tag = Y09
	}
	
	bianfang_imperial_army_restructuring = {
		icon = mission_asian_cannon
		position = 6
		required_missions = {
			bianfang_dragons_banner
			bianfang_matchlock_warfare
		}
		
		trigger = {
			if = {
				limit = { has_dlc = "Cradle of Civilization" }
				army_professionalism = 0.75
			}
			army_size = 90
			army_tradition = 50
			num_of_owned_provinces_with = {
				value = 35
				has_manpower_building_trigger = yes
			}
		}
		
		effect = {
			add_yearly_manpower = -1.5
			add_army_tradition = -15
			remove_country_modifier = bianfang_army_buff_3
			add_country_modifier = {
				name = bianfang_army_buff_4
				duration = -1
			}
		}
	}
	
	bianfang_perfect_army = {
		icon = mission_build_up_to_force_limit
		position = 8
		required_missions = {
			bianfang_imperial_army_restructuring
			bianfang_all_under_the_emperor
		}
		
		
		trigger = {
			OR = {
				full_idea_group = quantity_ideas
				full_idea_group = quality_ideas
				full_idea_group = defensive_ideas
				full_idea_group = offensive_ideas
			}
			if = {
				limit = { has_dlc = "Cradle of Civilization" }
				army_professionalism = 0.9
			}
			army_tradition = 70
			num_of_owned_provinces_with = {
				value = 50
				has_manpower_building_trigger = yes
			}
			army_size_percentage = 1
		}
		
		effect = {
			add_mil_power = -100
			add_yearly_manpower = -2.5
			add_army_tradition = -15
			remove_country_modifier = bianfang_army_buff_4
			add_country_modifier = {
				name = bianfang_army_buff_5
				duration = -1
			}
			xianjie_region = {
				limit = {
					NOT = { is_core = ROOT }
					NOT = { owned_by = ROOT }
				}
				add_claim = ROOT
			}
			rangadevi_area = {
				limit = {
					NOT = { is_core = ROOT }
					NOT = { owned_by = ROOT }
				}
				add_claim = ROOT
			}
		}
	}
	
	bianfang_the_lawless_west = {
		icon = mission_mosque
		position = 9
		required_missions = {
			bianfang_perfect_army
			bianfang_liang_economic_boom
		}

		provinces_to_highlight = {
			OR = {
				region = xianjie_region
				area = rangadevi_area
			}
			NOT = {
				country_or_non_sovereign_subject_holds = ROOT
			}
		}		
		
		trigger = {
			num_of_owned_provinces_with = {
				value = 25
				OR = {
					region = xianjie_region
					area = rangadevi_area
				}
			}
			owns_core_province = 4559 #xiadao
		}
		
		effect = {
			xianjie_region = {
				limit = {
					NOT = { is_core = ROOT }
					NOT = { owned_by = ROOT }
				}
				add_permanent_claim = ROOT
			}
			rangadevi_area = {
				limit = {
					NOT = { is_core = ROOT }
					NOT = { owned_by = ROOT }
				}
				add_permanent_claim = ROOT
			}
			phakphon_area = {
				limit = {
					NOT = { is_core = ROOT }
					NOT = { owned_by = ROOT }
				}
				add_permanent_claim = ROOT
			}
			ngoen_area = {
				limit = {
					NOT = { is_core = ROOT }
					NOT = { owned_by = ROOT }
				}
				add_permanent_claim = ROOT
			}
			kaiden_area = {
				limit = {
					NOT = { is_core = ROOT }
					NOT = { owned_by = ROOT }
				}
				add_permanent_claim = ROOT
			}
			thirabnir_area = {
				limit = {
					NOT = { is_core = ROOT }
					NOT = { owned_by = ROOT }
				}
				add_permanent_claim = ROOT
			}
		}
	}
	
	bianfang_our_greatest_foe = {
		icon = mission_beautiful_hobgoblin_stache
		position = 10
		required_missions = {
			bianfang_the_lawless_west
			bianfang_ramp_up_recruitment
		}
		
		trigger = {
			num_of_owned_provinces_with = {
				value = 10
				region = shamakhad_region
			}
			owns_core_province = 4633 #Sir
		}
		
		effect = {
			hidden_effect = {
				shamakhad_region = {
					limit = {
						NOT = { is_core = ROOT }
						NOT = { is_permanent_claim = ROOT }
						NOT = {
							OR = {
								area = west_rajnadhaga_area
								area = khadirnadi_area
								area = east_rajnadhaga_area
								area = tiltaghar_area
								area = middle_nadimraj_area
								area = bidhilar_area
							}
						}
					}
					add_permanent_claim = ROOT
				}
				# asia = {
					# limit = {
						# owned_by = R62
						# NOT = { is_core = ROOT }
						# NOT = { is_permanent_claim = ROOT }
					# }
					# add_permanent_claim = ROOT
				# }
			}
			custom_tooltip = bianfang_command_claims_tt
		}
	}
	
	bianfang_final_command = {
		icon = mission_burning_man
		position = 13
		required_missions = {
			bianfang_our_greatest_foe
		}
		
		provinces_to_highlight = {
			OR = {
				AND = {
					region = shamakhad_region
					NOT = {
						OR = {
							area = west_rajnadhaga_area
							area = khadirnadi_area
							area = east_rajnadhaga_area
							area = tiltaghar_area
							area = middle_nadimraj_area
							area = bidhilar_area
						}
					}
				}
				AND = {
					continent = asia
					owned_by = R62
				}
			}
			NOT = { country_or_non_sovereign_subject_holds = ROOT }
		}
		
		trigger = {
			custom_trigger_tooltip = {
				tooltip = bianfang_own_eastern_shamakhad_tt
				shamakhad_region = {
					type = all
					OR = {
						country_or_non_sovereign_subject_holds = ROOT
						area = west_rajnadhaga_area
						area = khadirnadi_area
						area = east_rajnadhaga_area
						area = tiltaghar_area
						area = middle_nadimraj_area
						area = bidhilar_area
					}
				}
			}
			custom_trigger_tooltip = {
				tooltip = bianfang_command_no_surface_prov_tt
				NOT = {
					asia = {
						owned_by = R62
					}
				}
			}
		}
		
		effect = {
			country_event = { id = bianfang.204 }
			country_event = { id = bianfang.205 days = 30 }
			#add tyrant event about dealing with the brown orcs
			shamakhad_region = {
				limit = { owned_by = ROOT }
				add_province_modifier = {
					name = bianfang_rebuilding_the_ruins
					duration = 9125
				}
			}
		}
	}
	
	bianfang_restore_desecrated_temples = {
		icon = mission_temple_patronage
		position = 14
		required_missions = {
			bianfang_final_command
		}
		
		provinces_to_highlight = {
			owned_by = ROOT
			OR = {
				has_province_modifier = damaged_temple_complex
				has_province_modifier = derelict_temple_complex
			}
		}
		
		trigger = {
			4465 = { country_or_non_sovereign_subject_holds = ROOT }
			4510 = { country_or_non_sovereign_subject_holds = ROOT }
			4546 = { country_or_non_sovereign_subject_holds = ROOT }
			4630 = { country_or_non_sovereign_subject_holds = ROOT }
			4633 = { country_or_non_sovereign_subject_holds = ROOT }
			custom_trigger_tooltip = {
				tooltip = bianfang_restore_the_high_temples_tt
				NOT = {
					any_owned_province = {
						OR = {
							has_province_modifier = damaged_temple_complex
							has_province_modifier = derelict_temple_complex
						}
					}
				}
			}
		}
		
		effect = {
			add_country_modifier = {
				name = bianfang_custodian_of_the_temples
				duration = -1
			}
		}
	}
}

bianfang_liang_missions_2 = {
	slot = 2
	generic = no
	ai = yes 
	has_country_shield = yes

	potential = {
		tag = Z66
		was_tag = Y09
	}
	
	bianfang_one_people_united = {
		icon = mission_noble_council
		position = 6
		required_missions = {
			bianfang_imperial_capital
		}
		
		provinces_to_highlight = {
			owned_by = ROOT
			OR = {
				culture = serene_harimari
				culture = goldscale_kobold
			}
		}
		
		trigger = {
			custom_trigger_tooltip = {
				tooltip = bianfang_one_people_united_tt
				accepted_culture = serene_harimari
				accepted_culture = goldscale_kobold
			}
		}
		
		effect = {
			add_country_modifier = {
				name = bianfang_yan_united
				duration = 9125
			}
			small_increase_of_kobold_tolerance_effect = yes
			small_increase_of_harimari_tolerance_effect = yes
			capital_scope = {
				add_harimari_minority_size_effect = yes
				add_kobold_minority_size_effect = yes
			}
			random_owned_province = {
				limit = { 
					superregion = yanshen_superregion 
					has_terrain = city_terrain
					NOT = { is_capital_of = ROOT }
				}
				add_harimari_minority_size_effect = yes
			}
			random_owned_province = {
				limit = { 
					superregion = yanshen_superregion 
					has_terrain = city_terrain
					NOT = { is_capital_of = ROOT }
				}
				add_kobold_minority_size_effect = yes
			}
			if = {
				limit = {
					has_country_flag = bianfang_oni_tolerated
				}
				capital_scope = {
					add_ogre_minority_size_effect = yes
				}
				random_owned_province = {
					limit = { 
						superregion = yanshen_superregion 
						has_terrain = city_terrain
						NOT = { is_capital_of = ROOT }
					}
					add_ogre_minority_size_effect = yes
				}
				small_increase_of_ogre_tolerance_effect = yes
			}
		}
	}
	
	bianfang_ramp_up_recruitment = {
		icon = mission_great_wall
		position = 9
		required_missions = {
			bianfang_liang_economic_boom
		}
		
		trigger = {
			if = {
				limit = {
					exists = R62
					exists = Y91
				}
				army_size = R62
				army_size = Y91
			}
			else_if = {
				limit = {
					NOT = { exists = Y91 }
					exists = R62
				}
				army_size = R62
			}
			else_if = {
				limit = {
					NOT = { exists = R62 }
					exists = Y91
				}
				army_size = Y91
			}
			else_if = {
				limit = {
					NOT = {
						exists = R62
						exists = Y91
					}
				}
				army_size = 125
			}
		}
		
		effect = {
			shuvuushudi_region = {
				limit = {
					NOT = { is_core = ROOT }
					NOT = { owned_by = ROOT }
				}
				add_permanent_claim = ROOT
			}
			sir_area = {
				limit = {
					NOT = { is_core = ROOT }
					NOT = { owned_by = ROOT }
				}
				add_claim = ROOT
			}
			pharata_area = {
				limit = {
					NOT = { is_core = ROOT }
					NOT = { owned_by = ROOT }
				}
				add_claim = ROOT
			}
			nadida_area = {
				limit = {
					NOT = { is_core = ROOT }
					NOT = { owned_by = ROOT }
				}
				add_claim = ROOT
			}				
		}

	}
	
	bianfang_pathetic_barbarism = {
		icon = mission_faceless_queen
		position = 10
		required_missions = {
			bianfang_ramp_up_recruitment
		}

		provinces_to_highlight = {
			region = shuvuushudi_region
			NOT = {
				country_or_non_sovereign_subject_holds = ROOT
			}
		}			
		
		trigger = {
			shuvuushudi_region = {
				type = all
				owned_by = ROOT
			}			
		}
		
		effect = {
			odheongu_region = {
				limit = {
					NOT = { is_core = ROOT }
					NOT = { owned_by = ROOT }
				}
				add_permanent_claim = ROOT
			}
			add_country_modifier = {
				name = bianfang_winner_winner_chicken_dinner
				duration = 5475
			}			
		}
	}
	
	bianfang_monuments_to_insignificance = {
		icon = mission_se_platform_mounds
		position = 11
		required_missions = {
			bianfang_pathetic_barbarism
		}
		
		
		provinces_to_highlight = {
			region = odheongu_region
			NOT = { area = somyonghon_area }
			NOT = {
				country_or_non_sovereign_subject_holds = ROOT
			}
		}			
		
		trigger = {
			odheongu_region = {
				type = all
				OR = {
					owned_by = ROOT
					area = somyonghon_area
				}
			}		
		}
		
		effect = {
			gozengun_superregion = {
				limit = {
					NOT = { is_core = ROOT }
					NOT = { owned_by = ROOT }
				}
				add_permanent_claim = ROOT
			}
			custom_tooltip = bianfang_buogoj_port_open_tt
			5356 = {
				add_province_modifier = { name = JY_LF_port duration = -1 }
				change_religion = high_philosophy
				if = {
					limit = {
						owner = { has_country_flag = shuokyuan_appeared }
					}
					change_culture = shuokyuan
				}
				else = { change_culture = ROOT }
			}
		}
	}
}

bianfang_liang_missions_3 = {
	slot = 3
	generic = no
	ai = yes
	has_country_shield = yes
	potential = {
		tag = Z66
		was_tag = Y09
	}
	
	bianfang_the_hills_have_eyes = {
		icon = mission_oni
		position = 6
		required_missions = {
			bianfang_imperial_capital
		}
		
		provinces_to_highlight = {
			region = demon_hills_region
			NOT = { owned_by = ROOT }
		}
		
		trigger = {
			demon_hills_region = {
				type = all
				country_or_non_sovereign_subject_holds = ROOT
			}
		}
		
		effect = {
			country_event = { id = bianfang.200 }			
		}
	}
	
	bianfang_all_under_the_emperor = {
		icon = mission_kowtow
		position = 7
		required_missions = {
			bianfang_imperial_army_restructuring
			bianfang_one_people_united
			bianfang_the_hills_have_eyes
			bianfang_city_of_temples
			bianfang_cries_of_freedom
		}

		provinces_to_highlight = {
			superregion = yanshen_superregion
			NOT = { owned_by = ROOT }
		}
		
		trigger = {
			yanshen_superregion = {
				type = all
				owned_by = ROOT
			}
		}

		effect = {
			add_splendor = 200
			add_prestige = 50
			capital_scope = {
				add_base_production = 1
				add_base_manpower = 1
				add_base_tax = 1
			}
			custom_tooltip = bianfang_all_under_the_emperor_city_tt
			custom_tooltip = bianfang_all_under_the_emperor_country_tt
			hidden_effect = { 
				every_owned_province = {
					limit = { 
						superregion = yanshen_superregion 
						has_terrain = city_terrain
						NOT = { is_capital_of = ROOT }
					}
					add_base_production = 1
				}
				for = {
					amount = 8
					effect = "
						random_owned_province = {
							limit = { 
								superregion = yanshen_superregion 
								NOT = { has_terrain = city_terrain }
								OR = {
									trade_goods = grain
									trade_goods = livestock
									trade_goods = wool
									trade_goods = sugar
									trade_goods = tea
								}
							}
							add_base_manpower = 1
						}
					"
				}
			}
		}
	}

	bianfang_liang_economic_boom = {
		icon = mission_rice_field
		position = 8
		required_missions = {
			bianfang_all_under_the_emperor
		}

		trigger = {
			num_of_owned_provinces_with = {
				value = 30
				superregion = yanshen_superregion
				development = 15
			}
		}

		effect = {
			add_country_modifier = {
				name = bianfang_economic_boom_modifier
				duration = 7300	
			}
		}
	}

	bianfang_yan_population_boom = {
		icon = mission_se_along_the_river
		position = 10
		required_missions = {
			bianfang_liang_economic_boom
		}
		
		
		trigger = {
			manpower_percentage = 1
			num_of_owned_provinces_with = {
				value = 20
				has_building = farm_estate
			}
		}
		
		effect = {
			add_yearly_manpower = 1
			add_country_modifier = {
				name = bianfang_population_boom_modifier
				duration = 9125 #25 years
			}
		}
	}
	
	bianfang_our_superior_culture = {
		icon = mission_mnd_dai_universities
		position = 11
		required_missions = {
			bianfang_yan_population_boom
		}
		
		
		trigger = {
			adm_power = 200
			dip_power = 200
			mil_power = 200
		}
		
		effect = {
			add_adm_power = -200
			add_dip_power = -200
			add_mil_power = -200
			add_country_modifier = {
				name = bianfang_yanification_campaigns
				duration = -1
			}
			custom_tooltip = bianfang_activate_yanification_tt
			hidden_effect = {
				set_country_flag = yanification_activated
				set_country_flag = unlock_yanification_missions
				set_country_flag = yanification_upgrade_0
			}
			swap_non_generic_missions = yes
		}
	}
}

bianfang_liang_missions_4 = {
	slot = 4
	generic = no
	ai = yes
	has_country_shield = yes
	potential = {
		tag = Z66
		was_tag = Y09
	}
	
	bianfang_city_of_temples = { #own Tianlou
		icon = mission_tianlou
		position = 6
		required_missions = {
			bianfang_imperial_capital
		}
		
		provinces_to_highlight = {
			province_id = 4871
			NOT = {
				AND = {
					owned_by = ROOT
					is_core = ROOT
					has_production_building_trigger = yes
					has_trade_building_trigger = yes
					has_tax_building_trigger = yes
					province_has_current_tech_fort_trigger = yes
				}
			}
		}

		trigger = {
			years_of_income = 0.5
			adm_power = 50
			owns_core_province = 4871
			4871 = {
				has_production_building_trigger = yes
				has_trade_building_trigger = yes
				has_tax_building_trigger = yes
				province_has_current_tech_fort_trigger = yes
				if = {
					limit = { has_dlc = "Dharma" }
					province_has_center_of_trade_of_level = 2
				}
			}
		}
		
		effect = {
			custom_tooltip = bianfang_palace_divine_call_tt
			4871 = {
				add_permanent_province_modifier = {
					name = bianfang_tianlou_city_of_temples
					duration = -1
				}
				add_center_of_trade_level = 1
			}
			add_adm_power = -50
			add_years_of_income = -0.5
		}
	}

	
	bianfang_the_jade_seal_fleet = {
		icon = mission_junk_boat
		position = 9
		required_missions = {
			bianfang_liang_economic_boom
		}
		
		provinces_to_highlight = {
		
		}
		
		trigger = {
			navy_size_percentage = 1
			num_of_heavy_ship = 40
			if = {
				limit = { has_dlc = "Golden Century" }
				has_flagship = yes
			}
			num_of_owned_provinces_with = {
				value = 15
				superregion = yanshen_superregion
				has_shipyard_building_trigger = yes
			}
			dip_power = 100
		}
		
		effect = {
			add_dip_power = -100
			ngaopho_area = {
				limit = {
					NOT = { is_core = ROOT }
					NOT = { owned_by = ROOT }
				}
				add_permanent_claim = ROOT
			}
			yemakaibo_area = {
				limit = {
					NOT = { is_core = ROOT }
					NOT = { owned_by = ROOT }
				}
				add_permanent_claim = ROOT
			}
			kasainam_area = {
				limit = {
					NOT = { is_core = ROOT }
					NOT = { owned_by = ROOT }
				}
				add_permanent_claim = ROOT
			}
			add_country_modifier = {
				name = bianfang_jade_seal_fleet_modifier
				duration = 18250 #50 years
			}						
		}
	}
	
	bianfang_sikai_townships = {
		icon = mission_mnd_khm_restore_angkor
		position = 11
		required_missions = {
			bianfang_the_jade_seal_fleet
		}

		provinces_to_highlight = {
			OR = {
				area = thirabnir_area
				area = ngoen_area
				area = kaiden_area
				area = phakphon_area
			}
			NOT = { owned_by = ROOT }
		}

		trigger = {	
			thirabnir_area = {
				type = all
				owned_by = ROOT
			}	
			ngoen_area = {
				type = all
				owned_by = ROOT
			}	
			kaiden_area = {
				type = all
				owned_by = ROOT
			}	
			phakphon_area = {
				type = all
				owned_by = ROOT
			}	
		}
		
		effect = {
			#country_event = {
				#add townships tyrant event
			#}	
			phaktai_area = {
				limit = {
					NOT = { is_core = ROOT }
					NOT = { owned_by = ROOT }
				}
				add_permanent_claim = ROOT
			}
			hinphat_area = {
				limit = {
					NOT = { is_core = ROOT }
					NOT = { owned_by = ROOT }
				}
				add_permanent_claim = ROOT
			}
			4942 = {
				add_permanent_claim = ROOT
			}
		}
	}
}

bianfang_liang_missions_5 = {
	slot = 5
	generic = no
	ai = yes
	has_country_shield = yes
	potential = {
		tag = Z66
		was_tag = Y09
	}
	
	bianfang_cries_of_freedom = {
		icon = mission_steppe_warriors
		position = 6
		required_missions = {
			bianfang_imperial_capital
		}
	
		provinces_to_highlight = {
			OR = {
				area = liuminxiang_area
				area = erluxi_area
			}
			NOT = {
				country_or_non_sovereign_subject_holds = ROOT
			}
		}
		
		trigger = {
			liuminxiang_area = {
				type = all
				country_or_non_sovereign_subject_holds = ROOT
			}
			erluxi_area = {
				type = all
				country_or_non_sovereign_subject_holds = ROOT
			}
		}
		
		effect = {
			country_event = { id = bianfang.202 }
		}
	}

	
	bianfang_the_empires_servants = {
		icon = mission_scholar_officials
		position = 8
		required_missions = {
			bianfang_all_under_the_emperor
		}
	
		provinces_to_highlight = {
			owned_by = ROOT
			NOT = {
				AND = {
					has_manpower_building_trigger = yes
					has_courthouse_building_trigger = yes
				}
			}
		}
		
		trigger = {
			reform_level = 5
			adm_power = 100
			num_of_owned_provinces_with = {
				value = 25
				has_manpower_building_trigger = yes
				has_courthouse_building_trigger = yes
			}
		}
		
		effect = {
			add_adm_power = -100
			if = {
				limit = { has_country_flag = anti_eunuch_country }
				add_government_reform = bianfang_military_administrators_reform
			}
			else = {
				add_government_reform = bianfang_eunuch_administrators_reform
			}
		}
	}
	
	bianfang_military_administrative_complex = {
		icon = mission_chinese_general_riding
		position = 9
		required_missions = {
			bianfang_the_empires_servants
		}
	
		provinces_to_highlight = {
			superregion = yanshen_superregion
			unrest = 0.01
		}
		
		trigger = {
			reform_level = 6
			NOT = {
				any_owned_province = {
					superregion = yanshen_superregion
					unrest = 0.01
					}
				}
			army_tradition = 80
			if = {
				limit = { has_dlc = "Cradle of Civilization" }
				army_professionalism = 1
			}
		}
		
		effect = {
			add_government_reform = bianfang_stratocratic_reform
		}
	}
	
	
	bianfang_kudet_kai_foothold = {
		icon = mission_malayan_viceroyalty
		position = 10
		required_missions = {
			bianfang_the_jade_seal_fleet
		}
		
		provinces_to_highlight = {
			OR = {
				area = ngaopho_area
				area = yemakaibo_area
				area = kasainam_area
			}
			NOT = {
				country_or_non_sovereign_subject_holds = ROOT
			}
		}
		
		trigger = {
			ngaopho_area = {
				type = all
				owned_by = ROOT
			}	
			yemakaibo_area = {
				type = all
				owned_by = ROOT
			}	
			kasainam_area = {
				type = all
				owned_by = ROOT
			}				
		}
		
		effect = {
			phaktai_area = {
				limit = {
					NOT = { is_core = ROOT }
					NOT = { owned_by = ROOT }
				}
				add_permanent_claim = ROOT
			}
			hinphat_area = {
				limit = {
					NOT = { is_core = ROOT }
					NOT = { owned_by = ROOT }
				}
				add_permanent_claim = ROOT
			}
			4942 = {
				add_permanent_claim = ROOT
			}
			add_country_modifier = {
				name = bianfang_march_to_the_south
				duration = 10950 #30 years
			}			
		}
	}
	
	bianfang_townships_and_dwarf_kings = {
		icon = mission_dwarf
		position = 12
		required_missions = {
			bianfang_kudet_kai_foothold
			bianfang_sikai_townships
		}

		provinces_to_highlight = {
			OR = {
				area = phaktai_area
				area = hinphat_area
				province_id = 4942
			}
			NOT = { owned_by = ROOT }
		}

		trigger = {
			phaktai_area = {
				type = all
				owned_by = ROOT
			}
			hinphat_area = {
				type = all
				owned_by = ROOT
			}	
			4942 = { owned_by = ROOT }
		}
		
		effect = {
			country_event = {
				id = bianfang.203 #verkal_ozovar tyranny event
				days = 1
			}
			thidinkai_region = {
				limit = {
					NOT = { is_core = ROOT }
					NOT = { owned_by = ROOT }
				}
				add_permanent_claim = ROOT
			}
		}
	}
	
	bianfang_no_longer_defiant = {
		icon = mission_mnd_khm_avenge_angkor
		position = 13
		required_missions = {
			bianfang_townships_and_dwarf_kings
		}
		
		provinces_to_highlight = {
			region = thidinkai_region
			NOT = { country_or_non_sovereign_subject_holds = ROOT }
		}
		
		trigger = {
			thidinkai_region = {
				type = all
				country_or_non_sovereign_subject_holds = ROOT
			}
		}
		
		effect = {
			lupulan_rainforest_region = {
				limit = {
					NOT = { is_core = ROOT }
					NOT = { owned_by = ROOT }
				}
				add_claim = ROOT
			}
			bomdan_region = {
				limit = {
					NOT = { is_core = ROOT }
					NOT = { owned_by = ROOT }
				}
				add_claim = ROOT
			}
			semphrerong_area = {
				limit = {
					NOT = { is_core = ROOT }
					NOT = { owned_by = ROOT }
				}
				add_claim = ROOT
			}
			phangban_area = {
				limit = {
					NOT = { is_core = ROOT }
					NOT = { owned_by = ROOT }
				}
				add_claim = ROOT
			}
			li_btei_area = {
				limit = {
					NOT = { is_core = ROOT }
					NOT = { owned_by = ROOT }
				}
				add_claim = ROOT
			}
			reanthung_area = {
				limit = {
					NOT = { is_core = ROOT }
					NOT = { owned_by = ROOT }
				}
				add_claim = ROOT
			}
			lower_telebei_area = {
				limit = {
					NOT = { is_core = ROOT }
					NOT = { owned_by = ROOT }
				}
				add_claim = ROOT
			}
			cmor_krueng_area = {
				limit = {
					NOT = { is_core = ROOT }
					NOT = { owned_by = ROOT }
				}
				add_claim = ROOT
			}
			khindi_area = {
				limit = {
					NOT = { is_core = ROOT }
					NOT = { owned_by = ROOT }
				}
				add_claim = ROOT
			}
			add_country_modifier = {
				name = bianfang_welcome_to_the_jungle
				duration = 9125
			}
		}
	}
	
	bianfang_monsoon_season = {
		icon = mission_clear_the_delta
		position = 14
		required_missions = {
			bianfang_no_longer_defiant
		}
		
		provinces_to_highlight = {
			region = lupulan_rainforest_region
			NOT = { country_or_non_sovereign_subject_holds = ROOT }
		}
		
		trigger = {
			num_of_provinces_owned_or_owned_by_non_sovereign_subjects_with = {
				value = 20
				region = lupulan_rainforest_region
			}
		}
		
		effect = {
			lupulan_rainforest_region = {
				limit = {
					NOT = { is_core = ROOT }
					NOT = { owned_by = ROOT }
				}
				add_permanent_claim = ROOT
			}
			#add another reward
		}
	}
	
	bianfang_jahers_furthest_city = {
		icon = mission_ne_great_lakes_conquest
		position = 15
		required_missions = {
			bianfang_monsoon_season
		}
		
		provinces_to_highlight = {
			OR = {
				province_id = 4963
				province_id = 4716
			}
			NOT = { owned_by = ROOT }
		}
		
		trigger = {
			4963 = {
				owned_by = ROOT
			}
			4716 = {
				owned_by = ROOT
			}
		}
		
		effect = {
			country_event = { id = bianfang.207 }
			ringlet_isles_region = {
				limit = {
					NOT = { is_core = ROOT }
					NOT = { owned_by = ROOT }
				}
				add_permanent_claim = ROOT
			}
			#maybe add an event to slowly make frontiers on uncolonized islands, like Missions Expanded's Malaya
		}
	}
}

#Yanification missions
bianfang_yanification_missions_2 = {
	slot = 2
	generic = no
	ai = yes 
	has_country_shield = yes
	potential = {
		tag = Z66
		was_tag = Y09
		has_country_flag = unlock_yanification_missions
	}

	bianfang_yanification_steppes = {
		icon = mission_non-western_cavalry_raid
		position = 1
		required_missions = {
			bianfang_our_superior_culture
		}
		
		provinces_to_highlight = {
			OR = {
				region = shuvuushudi_region
				region = odheongu_region
			}
			owned_by = ROOT
			NOT = { is_yanified_culture = yes }
		}
		
		trigger = {
			num_of_owned_provinces_with = {
				value = 35
				OR = {
					region = shuvuushudi_region
					region = odheongu_region
				}
				is_yanified_culture = yes
			}
		}
		
		effect = {
			hidden_effect = { set_country_flag = yanification_north_haless }
			upgrade_yanification_modifier_effect = yes
		}
	}
	
	bianfang_yanification_shamakhad = {
		icon = mission_interfaith_relations
		position = 2
		required_missions = {
			bianfang_yanification_xianjie
		}
		
		provinces_to_highlight = {
			region = shamakhad_region
			owned_by = ROOT
			NOT = { is_yanified_culture = yes }
		}
		
		trigger = {
			num_of_owned_provinces_with = {
				value = 35
				region = shamakhad_region
				is_yanified_culture = yes
			}
		}
		
		effect = {
			hidden_effect = { upgrade_yanification_effect = yes }
			if = {
				limit = {
					NOT = {
						OR = {
							has_country_flag = yanification_upgrade_1
							has_country_flag = yanification_upgrade_2
							has_country_flag = yanification_upgrade_3
						}
					}
				}
				custom_tooltip = yanification_upgrade_1_tt
			}
			else_if = {
				limit = { has_country_flag = yanification_upgrade_1 }
				custom_tooltip = yanification_upgrade_2_tt
			}
			else_if = {
				limit = { has_country_flag = yanification_upgrade_2 }
				custom_tooltip = yanification_upgrade_3_tt
			}
			
			upgrade_yanification_modifier_effect = yes
		}
	}
}

bianfang_liang_missions_2_second = {
	slot = 2
	generic = no
	ai = yes 
	has_country_shield = yes
	potential = {
		tag = Z66
		was_tag = Y09
	}
	
	bianfang_rebuild_shamakhad = {
		icon = mission_early_game_buildings
		position = 14
		required_missions = {
			bianfang_final_command
		}
		
		
		trigger = {
			num_of_owned_provinces_with = {
				value = 20
				region = shamakhad_region
				has_tax_building_trigger = yes
				has_production_building_trigger = yes
				has_manufactory_trigger = yes
			}
		}
		
		effect = {
			add_years_of_income = 2
			shamakhad_region = {
				limit = { owned_by = ROOT }
				add_province_modifier = {
					name = bianfang_rebuilt_the_ruins
					duration = 9125
				}
			}
		}
	}
	
	bianfang_risen_from_ruins = {
		icon = mission_unite_hindustan
		position = 15
		required_missions = {
			bianfang_rebuild_shamakhad
		}
		
		
		trigger = {
			4630 = {
				has_courthouse_building_trigger = yes
				development = 30
			}
			num_of_owned_provinces_with = {
				value = 30
				region = shamakhad_region
				if = {
					limit = { has_dlc = "Mandate of Heaven" }
					custom_trigger_tooltip = {
						tooltip = is_prosperous_tt
						is_prosperous = yes
					}
				}
			}
		}
		
		effect = {
			4630 = {
				change_culture = szitu
				change_religion = high_philosophy
				add_base_tax = 1
				add_base_production = 1
				add_base_manpower = 1
			}
			add_country_modifier = {
				name = bianfang_mustering_rahen_manpower
				duration = 3650
			}
			add_yearly_manpower = 2
		}
	}
}

bianfang_yanification_missions_3 = {
	slot = 3
	generic = no
	ai = yes 
	has_country_shield = yes
	potential = {
		tag = Z66
		was_tag = Y09
		has_country_flag = unlock_yanification_missions
	}

	bianfang_yanification_xianjie = {
		icon = mission_buddhist_monk_praying
		position = 1
		required_missions = {
			bianfang_our_superior_culture
		}
		
		
		provinces_to_highlight = {
			OR = {
				region = xianjie_region
				area = rangadevi_area
			}
			owned_by = ROOT
			NOT = { is_yanified_culture = yes }
		}
		
		trigger = {
			num_of_owned_provinces_with = {
				value = 35
				OR = {
					region = xianjie_region
					area = rangadevi_area
				}
				is_yanified_culture = yes
			}
		}
		
		effect = {
			hidden_effect = { upgrade_yanification_effect = yes }
			if = {
				limit = {
					NOT = {
						OR = {
							has_country_flag = yanification_upgrade_1
							has_country_flag = yanification_upgrade_2
							has_country_flag = yanification_upgrade_3
						}
					}
				}
				custom_tooltip = yanification_upgrade_1_tt
			}
			else_if = {
				limit = { has_country_flag = yanification_upgrade_1 }
				custom_tooltip = yanification_upgrade_2_tt
			}
			else_if = {
				limit = { has_country_flag = yanification_upgrade_2 }
				custom_tooltip = yanification_upgrade_3_tt
			}
			upgrade_yanification_modifier_effect = yes
		}
	}
	
	bianfang_yanification_bomdan = {
		icon = mission_mnd_siam_subjugate_vietnam
		position = 2
		required_missions = {
			bianfang_yanification_kai
		}
		
		provinces_to_highlight = {
			OR = {
				region = bomdan_region
				area = semphrerong_area
				area = phangban_area
				area = li_btei_area
				area = reanthung_area
				area = lower_telebei_area
				area = cmor_krueng_area
				area = khindi_area
			}
			owned_by = ROOT
			NOT = { is_yanified_culture = yes }
		}
		
		trigger = {
			num_of_owned_provinces_with = {
				value = 40
				OR = {
					region = bomdan_region
					area = semphrerong_area
					area = phangban_area
					area = li_btei_area
					area = reanthung_area
					area = lower_telebei_area
					area = cmor_krueng_area
					area = khindi_area
				}
				is_yanified_culture = yes
			}
		}
		
		effect = {
			hidden_effect = { upgrade_yanification_effect = yes }
			if = {
				limit = {
					NOT = {
						OR = {
							has_country_flag = yanification_upgrade_1
							has_country_flag = yanification_upgrade_2
							has_country_flag = yanification_upgrade_3
						}
					}
				}
				custom_tooltip = yanification_upgrade_1_tt
			}
			else_if = {
				limit = { has_country_flag = yanification_upgrade_1 }
				custom_tooltip = yanification_upgrade_2_tt
			}
			else_if = {
				limit = { has_country_flag = yanification_upgrade_2 }
				custom_tooltip = yanification_upgrade_3_tt
			}
			upgrade_yanification_modifier_effect = yes
		}
	}
}

bianfang_yanification_missions_3_second = {
	slot = 3
	generic = no
	ai = yes 
	has_country_shield = yes
	potential = {
		tag = Z66
		was_tag = Y09
		has_country_flag = unlock_yanification_missions
		has_country_flag = unlock_rahen_missions
	}

	bianfang_yanification_rahen = {
		icon = mission_magadna_and_varanasi
		position = 14
		required_missions = {
			bianfang_yanification_bomdan
			bianfang_yanification_shamakhad
		}
		
		provinces_to_highlight = {
			OR = {
				region = rahen_coast_region
				region = dhujat_region
			}
			NOT = {
				OR = {
					area = semphrerong_area
					area = phangban_area
					area = li_btei_area
					area = reanthung_area
					area = lower_telebei_area
					area = cmor_krueng_area
					area = khindi_area
				}
			}
			owned_by = ROOT
			NOT = { is_yanified_culture = yes }
		}
		
		trigger = {
			num_of_owned_provinces_with = {
				value = 40
				OR = {
					region = rahen_coast_region
					region = dhujat_region
				}
				NOT = {
					OR = {
						area = semphrerong_area
						area = phangban_area
						area = li_btei_area
						area = reanthung_area
						area = lower_telebei_area
						area = cmor_krueng_area
						area = khindi_area
					}
				}
				is_yanified_culture = yes
			}
		}
		
		effect = {
			upgrade_yanification_modifier_effect = yes
		}
	}
	
	# bianfang_yanification_final = { #Yanification capstone mission, make this variable depending on the outcome of the disaster and put it in its own block
		# icon = mission_build_up_to_force_limit
		# position = 15
		# required_missions = {
			# bianfang_yanification_rahen
		# }
		
		# provinces_to_highlight = {
			# OR = {
				# superregion = rahen_superregion
				# superregion = vimdatrong_superregion
				# superregion = yanshen_superregion
			# }
			# owned_by = ROOT
			# NOT = { is_yanified_culture = yes }
		# }
		
		# trigger = {
			
		# }
		
		# effect = {
			
		# }
	# }
}

bianfang_liang_missions_3_second = {
	slot = 3
	generic = no
	ai = yes 
	has_country_shield = yes
	potential = {
		tag = Z66
		was_tag = Y09
	}
		
	bianfang_an_army_of_millions = {
		icon = mission_defy_the_dragon
		position = 16
		required_missions = {
			bianfang_risen_from_ruins
			bianfang_man_the_forts
		}
		
		
		trigger = {
			has_country_modifier = bianfang_army_buff_5
			if = {
				limit = { has_dlc = "Emperor" }
				is_hegemon = yes
			}
			army_size = 1000
			num_of_generals = 10
		}
		
		effect = {
			hidden_effect = { set_country_flag = unlock_rahen_missions }
			add_splendor = 200
			country_event = { id = bianfang.299 }
		}
	}
}

bianfang_yanification_missions_4 = {
	slot = 4
	generic = no
	ai = yes 
	has_country_shield = yes
	potential = {
		tag = Z66
		was_tag = Y09
		has_country_flag = unlock_yanification_missions
	}
	
	bianfang_yanification_kai = {
		icon = mission_mnd_khm_protect_the_cham
		position = 1
		required_missions = {
			bianfang_our_superior_culture
		}
		
		
		trigger = {
			num_of_owned_provinces_with = {
				value = 35
				region = thidinkai_region
				is_yanified_culture = yes
			}
		}
		
		effect = {
			upgrade_yanification_modifier_effect = yes
		}
	}
	
	bianfang_yanification_lupulan = {
		icon = mission_pue_irrigation_cannals
		position = 2
		required_missions = {
			bianfang_yanification_kai
		}
		
		
		trigger = {
			num_of_owned_provinces_with = {
				value = 35
				region = lupulan_rainforest_region
				is_yanified_culture = yes
			}
		}
		
		effect = {
			upgrade_yanification_modifier_effect = yes
		}
	}
}

bianfang_liang_missions_4_second = {
	slot = 4
	generic = no
	ai = yes 
	has_country_shield = yes
	potential = {
		tag = Z66
		was_tag = Y09
	}
	
	bianfang_push_to_the_kharunyana = {
		icon = mission_advance_to_the_dnieper
		position = 14
		required_missions = {
			bianfang_no_longer_defiant
		}
		
		provinces_to_highlight = {
		
		}
		
		trigger = {
			num_of_provinces_owned_or_owned_by_non_sovereign_subjects_with = {
				value = 25
				OR = {
					region = bomdan_region
					area = semphrerong_area
					area = phangban_area
					area = li_btei_area
					area = reanthung_area
					area = lower_telebei_area
					area = cmor_krueng_area
					area = khindi_area
				}
			}
		}
		
		effect = {
			bomdan_region = {
				limit = {
					NOT = { is_core = ROOT }
					NOT = { owned_by = ROOT }
				}
				add_permanent_claim = ROOT
			}
			semphrerong_area = {
				limit = {
					NOT = { is_core = ROOT }
					NOT = { owned_by = ROOT }
				}
				add_claim = ROOT
			}
			phangban_area = {
				limit = {
					NOT = { is_core = ROOT }
					NOT = { owned_by = ROOT }
				}
				add_claim = ROOT
			}
			li_btei_area = {
				limit = {
					NOT = { is_core = ROOT }
					NOT = { owned_by = ROOT }
				}
				add_permanent_claim = ROOT
			}
			reanthung_area = {
				limit = {
					NOT = { is_core = ROOT }
					NOT = { owned_by = ROOT }
				}
				add_permanent_claim = ROOT
			}
			lower_telebei_area = {
				limit = {
					NOT = { is_core = ROOT }
					NOT = { owned_by = ROOT }
				}
				add_permanent_claim = ROOT
			}
			cmor_krueng_area = {
				limit = {
					NOT = { is_core = ROOT }
					NOT = { owned_by = ROOT }
				}
				add_permanent_claim = ROOT
			}
			khindi_area = {
				limit = {
					NOT = { is_core = ROOT }
					NOT = { owned_by = ROOT }
				}
				add_permanent_claim = ROOT
			}
			add_country_modifier = {
				name = bianfang_flatten_the_forts
				duration = 9125
			}
		}
	}
	
	bianfang_man_the_forts = {
		icon = mission_seize_the_bengal_coast
		position = 15
		required_missions = {
			bianfang_push_to_the_kharunyana
		}
		
		provinces_to_highlight = {
			OR = {
				region = bomdan_region
				area = semphrerong_area
				area = phangban_area
				area = li_btei_area
				area = reanthung_area
				area = lower_telebei_area
				area = cmor_krueng_area
				area = khindi_area
			}
			owned_by = ROOT
			has_fort_building_trigger = yes
			NOT = {
				AND = {
					province_has_current_tech_fort_trigger = yes
					has_manpower_building_trigger = yes
					has_building = ramparts
				}
			}
		}
		
		trigger = {
			num_of_owned_provinces_with = {
				value = 6
				OR = {
					region = bomdan_region
					area = semphrerong_area
					area = phangban_area
					area = li_btei_area
					area = reanthung_area
					area = lower_telebei_area
					area = cmor_krueng_area
					area = khindi_area
				}
				province_has_current_tech_fort_trigger = yes
				has_manpower_building_trigger = yes
				has_building = ramparts
			}
		}
		
		effect = {
			add_country_modifier = {
				name = bianfang_bomdan_building_techniques
				duration = 9125 #25 years
			}
		}
	}
}

#Conquest of Rahen missions
bianfang_rahen_missions_2 = {
	slot = 2
	generic = no
	ai = yes 
	has_country_shield = yes
	potential = {
		tag = Z66
		was_tag = Y09
		has_country_flag = unlock_rahen_missions
	}
	
	bianfang_break_the_elephant_lords = {
		icon = mission_mnd_siam_royal_duel
		position = 17
		required_missions = {
			bianfang_an_army_of_millions
		}
	
		trigger = {
			num_of_provinces_owned_or_owned_by_non_sovereign_subjects_with = {
				value = 15
				region = dhujat_region
			}
		}
		
		effect = {
			dhujat_region = {
				limit = {
					NOT = { is_core = ROOT }
					NOT = { owned_by = ROOT }
				}
				add_permanent_claim = ROOT
			}
			shamakhad_region = {
				limit = {
					NOT = { is_core = ROOT }
					NOT = { owned_by = ROOT }
				}
				add_permanent_claim = ROOT
			}
		}
	}
	
	bianfang_conquest_of_the_nadimraj = {
		icon = mission_conquer_sindh_mer
		position = 18
		required_missions = {
			bianfang_break_the_elephant_lords
		}
		
		provinces_to_highlight = {
			OR = {
				region = shamakhad_region
				region = dhujat_region
			}
			NOT = { country_or_non_sovereign_subject_holds = ROOT }
		}
	
		trigger = {
			shamakhad_region = {
				type = all
				country_or_non_sovereign_subject_holds = ROOT
			}
			dhujat_region = {
				type = all
				country_or_non_sovereign_subject_holds = ROOT
			}
		}
		
		effect = {
			add_country_modifier = {
				name = bianfang_commandeer_the_herds
				duration = 5475 #15 years
			}
			rahen_superregion = {
				limit = {
					NOT = { is_core = ROOT }
					NOT = { owned_by = ROOT }
				}
				add_permanent_claim = ROOT
			}
		}
	}
}

bianfang_rahen_missions_3 = {
	slot = 3
	generic = no
	ai = yes 
	has_country_shield = yes
	potential = {
		tag = Z66
		was_tag = Y09
		has_country_flag = unlock_rahen_missions
	}
	
	bianfang_conquerors_of_haless = {
		icon = mission_unite_home_region
		position = 19
		required_missions = {
			bianfang_conquest_of_the_nadimraj
			bianfang_harimars_home
		}
		
		provinces_to_highlight = {
			superregion = rahen_superregion
			NOT = { country_or_non_sovereign_subject_holds = ROOT }
		}
	
		trigger = {
			rahen_superregion = {
				type = all
				country_or_non_sovereign_subject_holds = ROOT
			}
		}
		
		effect = {
			add_power_projection = {
				type = mission_rewards_power_projection
				amount = 25
			}
			add_prestige = 50
		}
	}
}

bianfang_rahen_missions_4 = {
	slot = 4
	generic = no
	ai = yes 
	has_country_shield = yes
	potential = {
		tag = Z66
		was_tag = Y09
		has_country_flag = unlock_rahen_missions
	}
	
	bianfang_crossing_the_kharunyana = {
		icon = mission_elephant_herd
		position = 17
		required_missions = {
			bianfang_an_army_of_millions
		}
		
		provinces_to_highlight = {
			province_id = 4420 #sramaya
			NOT = { owned_by = ROOT }
		}
	
		trigger = {
			4420 = { owned_by = ROOT }
		}
		
		effect = {
			rahen_coast_region = {
				limit = {
					NOT = { is_core = ROOT }
					NOT = { owned_by = ROOT }
				}
				add_permanent_claim = ROOT
			}
			country_event = { id = bianfang.206 }
		}
	}
	
	bianfang_harimars_home = {
		icon = mission_conquer_bengal_dlh
		position = 18
		required_missions = {
			bianfang_crossing_the_kharunyana
		}
		
		provinces_to_highlight = {
			region = rahen_coast_region
			NOT = { country_or_non_sovereign_subject_holds = ROOT }
		}
	
		trigger = {
			rahen_coast_region = {
				type = all
				country_or_non_sovereign_subject_holds = ROOT
			}
		}
		
		effect = {
			add_country_modifier = {
				name = bianfang_raheni_ministries
				duration = -1
			}
		}
	}
}