khugra_1_missions = { 
	slot = 1
	generic = no
	ai = yes 
	has_country_shield = yes
	potential = {
		OR = {
			tag = L70
			AND = { #this should be removed when Khatalashya gets unique missions
				tag = S81
				was_tag = L70
			}
		}
	}

	L70_khugra_our_time_to_rule = {
		icon = mission_restore_faith_in_the_throne
		position = 5
		required_missions = { 
			L70_khugra_khugran_renaissance
		}

		provinces_to_highlight = {
			is_capital = yes
			owner = { 
				capital_scope = { superregion = taneyas_superregion }
				OR = {
					army_size = ROOT
					total_development = ROOT
				}
			}
		}

		trigger = {	
			calc_true_if = {
				all_subject_country = { 
					culture_group = lizardfolk 
					NOT = { liberty_desire = 50 }
				}
				amount = 2
			}
			all_known_country = { 
				OR = {
					capital_scope = { NOT = { superregion = taneyas_superregion } }
					AND = {
						NOT = { army_size = ROOT }
						NOT = { total_development = ROOT }
					}
				}
			}
		}

		effect = {
			custom_tooltip = L70_khugra_our_time_to_rule_tt
			add_power_projection = {
				type = mission_rewards_power_projection
				amount = 20
			}
		}
	}

	L70_khugra_primus_inter_pares = {
		icon = mission_strengthen_the_vegvar
		position = 6
		required_missions = { 
			L70_khugra_our_time_to_rule
			L70_khugra_our_lifeblood
		}

		provinces_to_highlight = { 
			
		}

		trigger = {
			calc_true_if = {
				all_subject_country = { 
					NOT = { liberty_desire = 50 }
				}
				amount = 5
			}
			all_subject_country = { 
				NOT = { liberty_desire = 50 }
			}
			any_subject_country = { total_development = 150 }
			diplomatic_reputation = 4
			
		}

		effect = {
			add_country_modifier = { 
				name = L70_rule_of_the_sapphire
				duration = -1
			}
			custom_tooltip = primus_inter_pares_tt
			hidden_effect = {
				every_subject_country = { 
					capital_scope = { 
						add_base_tax = 3	
						add_base_production = 3
						add_base_manpower = 3	
					}
					add_trust = {
						who = ROOT
						value = 20
						mutual = yes
					}
				}
			}
		}
	}
	
	L70_khugra_a_new_order_in_taneyas = {
		icon = mission_swear_fealty_knight
		position = 8
		required_missions = {
			L70_khugra_primus_inter_pares
			L70_khugra_the_sapphire_of_sarhal
		}

		provinces_to_highlight = {
			
		}

		trigger = {
			num_of_provinces_owned_or_owned_by_non_sovereign_subjects_with = {
				value = 40
				superregion = taneyas_superregion
				NOT = { owned_by = ROOT }
			}
			all_subject_country = {
				OR = {
					capital_scope = { 
						NOT = { superregion = taneyas_superregion }
					}
					transfers_trade_power_to = ROOT
				}
			}
		}

		effect = {
			custom_tooltip = new_order_taneyas_tt_1
			custom_tooltip = new_order_taneyas_tt_2
			hidden_effect = {
				every_subject_country = { 
					limit = {
						capital_scope = { superregion = taneyas_superregion	}
					}
					add_country_modifier = { 
						name = L70_sapphire_party
						duration = -1
					}
				}
				every_subject_country = { 
					limit = {
						capital_scope = { superregion = taneyas_superregion }
						total_development = 50
					}
					overlord = {
						capital_scope = { 
							add_base_tax = 1	
							add_base_production = 1
							add_base_manpower = 1
						}
					}
				}
			}
		}
	}

	L70_khugra_decree_of_unification = {
		icon = mission_the_sudebnik
		position = 11
		required_missions = {
			L70_khugra_a_new_order_in_taneyas
		}

		provinces_to_highlight = {	
			superregion = taneyas_superregion
			NOT = { country_or_non_sovereign_subject_holds = ROOT } 
		}

		trigger = {
			all_subject_country = { 
				NOT = { liberty_desire = 10 }
				has_opinion = {
					who = ROOT
					value = 190
				}
			}
			diplomatic_reputation = 8
			num_of_provinces_owned_or_owned_by_non_sovereign_subjects_with = {
				value = 100
				superregion = taneyas_superregion
			}
		}

		effect = {
			add_country_modifier = {
				name = L70_eternal_sapphire
				duration = -1
			}
			remove_country_modifier = L70_rule_of_the_sapphire
			custom_tooltip = L70_khugra_decree_of_unification_tt
		}
	}
}

khugra_2_missions = { 
	slot = 2
	generic = no
	ai = yes 
	has_country_shield = yes
	potential = {
		OR = {
			tag = L70
			AND = { #this should be removed when Khatalashya gets unique missions
				tag = S81
				was_tag = L70
			}
		}
	}

	L70_khugra_shattered_red = {
		icon = mission_burning_castle
		position = 2
		required_missions = { 
			L70_khugra_we_wont_back_down
		}

		provinces_to_highlight = {
			OR = {
				AND = {
					province_id = 5902
					5902 = {
						NOT = {owned_by = ROOT}
					}
				}
				AND = {
					province_id = 5898
					5898 = {
						NOT = {owned_by = ROOT}
					}
				}
			}
		}

		trigger = {
			is_subject = no
			5898 = { owned_by = ROOT }
			5902 = { owned_by = ROOT }
			NOT = { exists = L96 }
			NOT = { exists = L68 }
			OR = {
				estate_loyalty = {
					estate = estate_nobles
					loyalty = 65
				}
				NOT =  {
					estate_influence = {
						estate = estate_nobles
						influence = 20
					}			
				}
			}
		}

		effect = {
			remove_country_modifier = L70_treason_of_the_cornered_rat
			country_event = { id =  flavour_khugra.13 }
			hidden_effect  = { 
				if = { 
					limit = {
						OR = {
							AND = {
								has_estate_privilege = estate_burghers_war_of_colours_treacherous_gold 
								NOT = { has_estate_privilege = estate_church_war_of_colours_imperial_green }
							}
							AND = {
								has_estate_privilege = estate_church_war_of_colours_imperial_green 
								NOT = { has_estate_privilege = estate_burghers_war_of_colours_treacherous_gold }
							}
						}
					}
					country_event = { 
						id = flavour_khugra.9 
						days = 30
					} 
				}
			}
		}
	}
	
	L70_khugra_khugran_renaissance = {
		icon = mission_market
		position = 4
		required_missions = { 
			L70_khugra_triumphal_sapphire
		}

		provinces_to_highlight = {
		}

		trigger = {
			NOT = { num_of_loans = 1 }
			NOT = { corruption = 1 }
			has_institution = renaissance
			5914 = { province_has_center_of_trade_of_level = 2 }
		}

		effect = {
			khugra_adzalaz_river_shore = {
				add_permanent_claim = ROOT
			}
			if = {
				limit = {
					5914 = { province_has_center_of_trade_of_level = 3 }
				}
				5914 = { add_base_production = 3 }
			}
			else = {
				5914 = { add_center_of_trade_level = 1 }
			}
			custom_tooltip = L70_khugra_khugran_renaissance_tt
			hidden_effect  = { 
				every_owned_province = {
					add_devastation = -25
				}
			}
		}
	}
	
	L70_khugra_our_lifeblood = {
		icon = mission_city_prosperity
		position = 5
		required_missions = { 
			L70_khugra_khugran_renaissance
			L70_khugra_remember_the_pact
		}

		provinces_to_highlight = {
			province_group = khugra_adzalaz_river_shore
			OR = {
				NOT = { owned_by = ROOT }
				NOT = { is_state_core = ROOT }
				NOT = { is_prosperous = yes }
				NOT = { has_trade_building_trigger = yes }
				local_autonomy = 20
			}
		}

		trigger = {
			khugra_adzalaz_river_shore = {
				type = all
				owned_by = ROOT
				is_state_core = ROOT
				is_prosperous = yes
				has_trade_building_trigger = yes
				NOT = { local_autonomy = 20 }
			}
		}

		effect = {
			khugra_adzalaz_river_shore = {
				add_province_modifier = { 
					name = L70_prosperous_river
					duration = 7300  
				}
				add_province_modifier = { 
					name = L70_blessed_by_the_river_v1
					duration = -1  
				}
			}
		}
	}
	
	L70_khugra_the_sapphire_of_sarhal = {
		icon = mission_rb_inland_india
		position = 7
		required_missions = { 
			L70_khugra_primus_inter_pares
			L70_khugra_blessed_by_zurzis
		}

		provinces_to_highlight = {
			OR = {
				AND = {
					province_id = 5914
					5914 = {
						NOT = {
							development = 40
							has_manufactory_trigger = yes					
							has_production_building_trigger = yes
							num_of_times_expanded_infrastructure = 2
						}
					}
				}
				AND = {
					continent = africa 
					higher_development_than = 5914
					NOT = { province_id = 526 }
				}	
			}
		}

		trigger = {
			5914 = {
				development = 40
				has_manufactory_trigger = yes					
				has_production_building_trigger = yes
			}
			if = {
				limit = {
					has_dlc = "Leviathan"
				}
				5914 = { num_of_times_expanded_infrastructure = 2 }
			}
			custom_trigger_tooltip  = {
				tooltip  = trigger_sapphire_of_sarhal_70_tt
				africa = {
					type = all
					OR = {
						NOT = { higher_development_than = 5914 }
						province_id = 526
					
					}
				}
			}
		}

		effect = {
			5914 = {
					add_province_modifier = { 
						name = L70_khugra_blessed_sapphire
						duration = -1  
					}
					remove_province_modifier  = L70_blessed_by_the_river_v2
					change_trade_goods = gems
					if = {
						limit = {
							NOT = { has_building = mills }
						}
						add_building = mills
					}
			}
			add_prestige = 20	
			add_splendor = 300
		}
	}
}


khugra_3_missions = { 
	slot = 3
	generic = no
	ai = yes 
	has_country_shield = yes
	potential = {
		OR = {
			tag = L70
			AND = { #this should be removed when Khatalashya gets unique missions
				tag = S81
				was_tag = L70
			}
		}
	}

	L70_khugra_we_wont_back_down = {
		icon = mission_war_for_the_crown
		position = 1
		required_missions = { 
		}

		provinces_to_highlight = {  
		}

		trigger = {
				stability = 1
				army_size_percentage = 0.9
				is_monarch_leader = yes
				num_of_generals = 2
		}

		effect = {
			zesipas_tara_area = { add_permanent_claim = ROOT }
			narasad_area = { add_permanent_claim = ROOT }
			karassk_tara_area = { add_permanent_claim = ROOT }
			kakhaz_pton_bnal_area = { add_permanent_claim = ROOT }
			5908 = { add_permanent_claim = ROOT }
			5938 = { add_permanent_claim = ROOT }
			nazhni_tara_area = { add_permanent_claim = ROOT }
			5914 = {
				add_province_modifier = { 
					name = L70_standing_our_ground 
					duration = 7300  
				}
			}
		}
	}

	L70_khugra_humbled_green = {
		icon = mission_kon_repel_the_missionaries
		position = 2
		required_missions = { 
			L70_khugra_we_wont_back_down
		}

		provinces_to_highlight = {
			AND = {
				province_id = 5908
				5908 = {
					NOT = {owned_by = ROOT}
				}
			}
		}

		trigger = {
			is_subject = no
			5908 = { owned_by = ROOT }
			total_development = L95
			num_of_cities = L95
			OR = {
				estate_loyalty = {
					estate = estate_church
					loyalty = 65
				}
				NOT =  {
					estate_influence = {
						estate = estate_church
						influence = 20
					}			
				}
			}
		}

		effect = {
			remove_country_modifier = L70_treason_of_the_cornered_rat
			country_event = { id =  flavour_khugra.14 }
			hidden_effect  = { 
				if = { 
					limit = {
						OR = {
							AND = {
								has_estate_privilege = estate_burghers_war_of_colours_treacherous_gold 
								NOT = { has_estate_privilege = estate_nobility_war_of_colours_defeated_red }
							}
							AND = {
								has_estate_privilege = estate_nobility_war_of_colours_defeated_red 
								NOT = { has_estate_privilege = estate_burghers_war_of_colours_treacherous_gold }
							}
						}
					}
					country_event = { 
						id = flavour_khugra.9 
						days = 30
					} 
				}
			}
		}
	}

	L70_khugra_triumphal_sapphire = {
		icon = mission_empire
		position = 3
		required_missions = { 
			L70_khugra_shattered_red
			L70_khugra_humbled_green
			L70_khugra_tarnished_gold
		}

		provinces_to_highlight = {
		}

		trigger = {
			has_mil_advisor_2 = yes
			has_adm_advisor_2 = yes
			has_dip_advisor_2 = yes
			stability = 3
			legitimacy = 100
			prestige = 50
		}

		effect = {
			country_event = { id =  flavour_khugra.16 }
		}
	}

	L70_khugra_remember_the_pact = {
		icon = mission_look_west
		position = 4
		required_missions = {
			L70_khugra_triumphal_sapphire
		}

		provinces_to_highlight = {
			AND = {
				NOT = { province_id = 5914 }
				OR = {
					owned_by = ROOT
					owner = { is_subject_of = ROOT }
				}
				OR = {
					AND = {
						base_tax = 5
						NOT = { has_tax_building_trigger = yes }
					}
					AND = {
						NOT = { base_tax = 5 }
						has_tax_building_trigger = yes
					}
				}
			}
		}

		trigger = {
			num_of_provinces_owned_or_owned_by_non_sovereign_subjects_with = {
				value = 10
				base_tax = 5
				has_tax_building_trigger = yes
				NOT = { province_id = 5914 }
			}
			navy_size_percentage = 0.95
		}

		effect = {
			custom_tooltip = L70_khugra_remember_the_pact_tt
			hidden_effect = {
				every_owned_province = {
					limit = {
						base_tax = 5
						has_tax_building_trigger = yes
					}
					add_base_production = 1
				}
				every_subject_country = { 
					every_owned_province = {
						limit = {
							base_tax = 5
							has_tax_building_trigger = yes
						}
						add_base_production = 1
					}
				}
			}
			define_explorer = {
				shock = 3
				fire = 4
				manuever = 6
				siege = 2
				name = "Vush Farsight"
			}
		}
	}

	L70_khugra_an_unbreakable_bond = {
		icon = mission_naval_kingdom
		position = 5
		required_missions = {
			L70_khugra_remember_the_pact
		}

		provinces_to_highlight = {  
		}

		trigger = {
			reform_level = 4
			NOT =  {
				estate_influence = {
					estate = estate_church
					influence = 40
				}			
			}
			adm_power = 100
			mil_power = 100
			dip_power = 100
			treasury = 1000
		}

		effect = {
			country_event = { id =  flavour_khugra.17 }
		}
	}

	L70_khugra_blessed_by_zurzis = { #this mission is supposed to unlock Zurzis as a patron as an effect once that system is in
		icon = mission_se_along_the_river
		position = 6
		required_missions = {
			L70_khugra_our_lifeblood
			L70_khugra_an_unbreakable_bond
		}

		provinces_to_highlight = {
			province_group = khugra_adzalaz_river_shore
			OR = {
				NOT = { development = 15 }
				NOT = { has_manpower_building_trigger = yes }
				NOT = { has_tax_building_trigger = yes }
			}
		}

		trigger = {
			khugra_adzalaz_river_shore = {
				type = all
				development = 15
				has_manpower_building_trigger = yes
				has_tax_building_trigger = yes
			}
		}

		effect = {
			khugra_adzalaz_river_shore = {
				if = {
					limit = { NOT = { has_building = cathedral } }
					remove_building = temple
					add_building = cathedral
				}
				remove_province_modifier = L70_blessed_by_the_river_v1
				add_province_modifier = {  
					name = L70_blessed_by_the_river_v2
					duration = -1  
				}
			}
			add_splendor = 200
		}
	}

	L70_khugra_their_goal = {
		icon = mission_stormy_seas
		position = 8
		required_missions = {
			L70_khugra_the_sapphire_of_sarhal
			L70_khugra_a_foothold_in_ardimya
		}

		provinces_to_highlight = {  
		}

		trigger = {
			check_variable  = {
				which = L70_completed_great_journeys
				value = 5
			}
			custom_trigger_tooltip = {
				tooltip = L70_khugra_their_goal_communion_tt
				OR = {
					has_ruler_flag = communed_with_yusshela
				}
			}
			navy_tradition = 80
			5914 = { 
				light_ships_in_province = 10
			}
		}

		effect = {
			country_event = { id =  flavour_khugra.47 }
			5914 = {
				kill_units = {
					who = ROOT
					type = light_ship
					amount = 10
				}
			}
		}
	}

	L70_khugra_search_in_every_corner = {
		icon = mission_crystal_cave
		position = 9
		required_missions = {
			L70_khugra_their_goal
		}

		provinces_to_highlight = {
		}

		trigger = {
			check_variable  = {
				which = L70_completed_great_journeys
				value = 10
			}
			europe = {
				has_discovered = ROOT
			}
			asia = {
				has_discovered = ROOT
			}
			north_america = {
				has_discovered = ROOT
			}
			south_america = {
				has_discovered = ROOT
			}
			north_ocean_of_the_lost_region = {
				has_discovered = ROOT
			}
			south_ocean_of_the_lost_region = {
				has_discovered = ROOT
			}
			northern_thaw_region = {
				has_discovered = ROOT
			}
		}

		effect = {
			add_government_power = {
				mechanic_type = khugra_araizary_affinity_mechanic
				power_type = khugra_araizary_affinity_power
				value = 20
			}
			custom_tooltip = L70_khugra_search_in_every_corner_rewards_tt
			hidden_effect = {
				set_country_flag = L70_khugra_searched_in_every_corner
				random_list = { #picks the event that trigger
					1 = { country_event = { id = flavour_khugra.37 } }
					1 = { country_event = { id = flavour_khugra.38 } }
					1 = { country_event = { id = flavour_khugra.39 } }
					1 = { country_event = { id = flavour_khugra.40 } }
					1 = { country_event = { id = flavour_khugra.41 } }
					1 = { country_event = { id = flavour_khugra.42 } }
					1 = { country_event = { id = flavour_khugra.43 } }
					1 = { country_event = { id = flavour_khugra.44 } }
				}
				random_list = { #picks the event that trigger
					1 = { country_event = { id = flavour_khugra.37 } }
					1 = { country_event = { id = flavour_khugra.38 } }
					1 = { country_event = { id = flavour_khugra.39 } }
					1 = { country_event = { id = flavour_khugra.40 } }
					1 = { country_event = { id = flavour_khugra.41 } }
					1 = { country_event = { id = flavour_khugra.42 } }
					1 = { country_event = { id = flavour_khugra.43 } }
					1 = { country_event = { id = flavour_khugra.44 } }
				}
			}
			swap_non_generic_missions = yes
		}
	}
}


khugra_4_missions = { 
	slot = 4
	generic = no
	ai = yes 
	has_country_shield = yes
	potential = {
		OR = {
			tag = L70
			AND = { #this should be removed when Khatalashya gets unique missions
				tag = S81
				was_tag = L70
			}
		}
	}

	L70_khugra_tarnished_gold = {
		icon = Burn_Wooden_Wall
		position = 2
		required_missions = { 
			L70_khugra_we_wont_back_down
		}

		provinces_to_highlight = {
			AND = {
				province_id = 5941
				5941 = {
					NOT = {owned_by = ROOT}
				}
			}
		}

		trigger = {
			is_subject = no
			5941 = { owned_by = ROOT }
			NOT = { exists = L71 }
			OR = {
				estate_loyalty = {
					estate = estate_burghers
					loyalty = 65
				}
				NOT =  {
					estate_influence = {
						estate = estate_burghers
						influence = 20
					}			
				}
			}
		}

		effect = {
			remove_country_modifier = L70_treason_of_the_cornered_rat
			country_event = { id =  flavour_khugra.15 }
			hidden_effect  = { 
				if = { 
					limit = {
						OR = {
							AND = {
								has_estate_privilege = estate_nobility_war_of_colours_defeated_red 
								NOT = { has_estate_privilege = estate_church_war_of_colours_imperial_green }
							}
							AND = {
								has_estate_privilege = estate_church_war_of_colours_imperial_green 
								NOT = { has_estate_privilege = estate_nobility_war_of_colours_defeated_red }
							}
						}
					}
					country_event = { 
						id = flavour_khugra.9 
						days = 30
					} 
				}
			}
			
		}
	}
	
	L70_khugra_guides_to_the_unknown = {
		icon = mission_establish_high_seas_navy
		position = 5
		required_missions = { 
			L70_khugra_remember_the_pact
		}

		provinces_to_highlight = {
			region = south_uelos_lament_ocean_region
			NOT = { has_discovered = ROOT }
		}

		trigger = {
			south_uelos_lament_ocean_region = {
				type = all
				has_discovered = ROOT
			}
			navy_tradition = 40
			has_estate_privilege = estate_burghers_tsyhyra_mutation
			OR = {
				advisor = naval_reformer
				advisor = navigator
				AND = {
					dip_power = 100 
					employed_advisor = {
						category = DIP
					}
				}
			}

		}

		effect = {
			if = {
				limit = {
					NOT = {
						advisor = naval_reformer
						advisor = navigator
					}
				}
				add_dip_power = -100
			}
			add_country_modifier = { 
				name = L70_guides_to_the_unknown
				duration = 12775
			}
			every_known_country = {
				limit = { 
					culture_group = baashidi 
					NOT = { primary_culture = guryadagga  }
				}
				reverse_add_casus_belli = {
					target = ROOT
					type = cb_trade_war_triggered
					months = 360
				}
			}
		}
	}

	L70_khugra_control_baashidi_trade = {
		icon = mission_dharma_mission_arabian_trade
		position = 6
		required_missions = {
			L70_khugra_an_unbreakable_bond
			L70_khugra_guides_to_the_unknown
		}

		provinces_to_highlight = {  
		}

		trigger = {
			1449 = { #Biya Mudibya
				trade_share = {
					country = ROOT
					share = 50
				}
			}
			num_of_light_ship = 30
			NOT = { has_country_modifier = monstrous_nation }
		}

		effect = {
			add_country_modifier = { 
				name = L70_broken_isolation
				duration = -1
			}
			custom_tooltip = control_baashidi_trade_tt
			every_known_country = {
				limit = { 
					culture_group = baashidi 
					transfers_trade_power_to = ROOT
				}
				add_opinion = {
					who = ROOT
					modifier = L70_khugran_reaproach
				}
			}
		}
	}

	L70_khugra_a_foothold_in_ardimya = {
		icon = mission_desert_city
		position = 7
		required_missions = {
			L70_khugra_control_baashidi_trade
		}

		provinces_to_highlight = {
			region = ardimya_region
			NOT = { owned_by = ROOT}
		}

		trigger = {
			calc_true_if = {
				amount = 3
				ardimya_region = {
					type = all
					owned_by = ROOT
				}
			}
			any_owned_province = {
				region = ardimya_region
				province_has_center_of_trade_of_level = 2
			}
			1330 = { #Ardimya
				trade_share = {
					country = ROOT
					share = 30
				}
			}
		}

		effect = {
			add_casus_belli = {
				target = S86
				type = cb_vassalize_mission
				months = 120
			}
			add_casus_belli = {
				target = S88
				type = cb_vassalize_mission
				months = 120
			}
			add_casus_belli = {
				target = S85
				type = cb_vassalize_mission
				months = 120
			}
			add_casus_belli = {
				target = S87
				type = cb_vassalize_mission
				months = 120
			}
			ardimya_region = { add_permanent_claim = ROOT }
		}
	}

	L70_khugra_resettle_the_genie_cultists = {
		icon = mission_desert_pilgrim
		position = 8
		required_missions = {
			L70_khugra_a_foothold_in_ardimya
		}

		provinces_to_highlight = {  
		}

		trigger = {
			S86 = {
				OR = { 
					exists = no
					AND = {
						is_subject_of = ROOT
						NOT = { liberty_desire = 50 }
					}
				}
			}
			S88 = {
				OR = { 
					exists = no
					AND = {
						is_subject_of = ROOT
						NOT = { liberty_desire = 50 }
					}
				}
			}
			S85 = {
				OR = { 
					exists = no
					AND = {
						is_subject_of = ROOT
						NOT = { liberty_desire = 50 }
					}
				}
			}
			S87 = {
				OR = { 
					exists = no
					AND = {
						is_subject_of = ROOT
						NOT = { liberty_desire = 50 }
					}
				}
			}
			high_tolerance_human_race_trigger = yes
			has_global_modifier_value = {
					which = tolerance_heathen 
					value = 0
			}
		}

		effect = {
			5914 = {
				add_human_minority_size_effect = yes
				add_human_minority_size_effect = yes
			}
			add_country_modifier = {
				name = L70_integrated_genie_cultists
				duration = -1
			}
			add_accepted_culture = guryadagga
			custom_tooltip = L70_khugra_resettle_the_genie_cultists_tt
			hidden_effect = {
				ROOT = {
					set_variable = {
						which = khugra_resettle_genie_cultists_variable
						value = 0
					}
				}
				if = {
					limit = {
						exists = S85
					}
					ROOT = {
						change_variable = {
							which = khugra_resettle_genie_cultists
							value = 3
						} 
					}
					S85 = {
						remove_country = yes
					}
				}
				if = {
					limit = {
						exists = S87
					}
					ROOT = {
						change_variable = {
							which = khugra_resettle_genie_cultists
							value = 3
						} 
					} 
					S87 = {
						remove_country = yes
					}
				}	
				if = {
					limit = {
						exists = S88
					}
					ROOT = {
						change_variable = {
							which = khugra_resettle_genie_cultists
							value = 3
						} 
					} 
					S88 = {
						remove_country = yes
					}
				}	
				if = {
					limit = {
						exists = S86
					}
					ROOT = {
						change_variable = {
							which = khugra_resettle_genie_cultists
							value = 3
						} 
					} 
					S86 = {
						remove_country = yes
					}
				}	
				while = {
					limit = {
						ROOT = {
							check_variable = {
								which = khugra_resettle_genie_cultists
								value = 1
							}
						}
					}
					ROOT = {
						subtract_variable = {
							which = khugra_resettle_genie_cultists
							value = 1
						}
					}
					if = {
						limit = {
							any_owned_province = {
								any_empty_neighbor_province = {
									region = ardimya_region
									has_port = yes
								}
							}
						}
						random_owned_province = {
							limit = {
								any_empty_neighbor_province = {
									region = ardimya_region
									has_port = yes
								}
							}
							random_empty_neighbor_province = {
								limit = {
									region = ardimya_region
									has_port = yes
								}
								cede_province = ROOT
								add_core = ROOT
								change_culture = guryadagga
								change_religion = genie_cult
								discover_country = ROOT
							}
						}	
					}
					else= {
						random_province = {
							limit = {
								region = ardimya_region
								is_empty = yes
								has_port = yes
							}
							cede_province = ROOT
							add_core = ROOT
							change_culture = guryadagga
							change_religion = genie_cult
							discover_country = ROOT
						}
					}
				}
			}
		}
	}

	L70_khugra_the_land_of_spirits = {
		icon = mission_haless_map
		position = 9
		required_missions = { 
			L70_khugra_resettle_the_genie_cultists
		}

		provinces_to_highlight = {
			trade_company_region = trade_company_arawkelin 
			NOT = { owned_by = ROOT }
			NOT = { is_owned_by_trade_company = yes }
		}

		trigger = {
			custom_trigger_tooltip = {
				tooltip = the_land_of_spirits_tt
				trade_company_arawkelin  = { 
					trade_company_size = 10 
					OR = {
						num_investments_in_trade_company_region = { 
							investment = brokers_office
							value = 5
						}
						num_investments_in_trade_company_region = { 
							investment = brokers_exchange
							value = 5
						}
						AND = {
							num_investments_in_trade_company_region = { 
								investment = brokers_office
								value = 1
							}
							num_investments_in_trade_company_region = { 
								investment = brokers_exchange
								value = 4
							}
						}
						AND = {
							num_investments_in_trade_company_region = { 
								investment = brokers_office
								value = 2
							}
							num_investments_in_trade_company_region = { 
								investment = brokers_exchange
								value = 3
							}
						}
						AND = {
							num_investments_in_trade_company_region = { 
								investment = brokers_office
								value = 3
							}
							num_investments_in_trade_company_region = { 
								investment = brokers_exchange
								value = 2
							}
						}
						AND = {
							num_investments_in_trade_company_region = { 
								investment = brokers_office
								value = 4
							}
							num_investments_in_trade_company_region = { 
								investment = brokers_exchange
								value = 1
							}
						}
					}
					OR = {
						num_investments_in_trade_company_region = { 
							investment = settlements
							value = 5
						}
						num_investments_in_trade_company_region = { 
							investment = district
							value = 5
						}
						AND = {
							num_investments_in_trade_company_region = { 
								investment = settlements
								value = 1
							}
							num_investments_in_trade_company_region = { 
								investment = district
								value = 4
							}
						}
						AND = {
							num_investments_in_trade_company_region = { 
								investment = settlements
								value = 2
							}
							num_investments_in_trade_company_region = { 
								investment = district
								value = 3
							}
						}
						AND = {
							num_investments_in_trade_company_region = { 
								investment = settlements
								value = 3
							}
							num_investments_in_trade_company_region = { 
								investment = district
								value = 2
							}
						}
						AND = {
							num_investments_in_trade_company_region = { 
								investment = settlements
								value = 4
							}
							num_investments_in_trade_company_region = { 
								investment = district
								value = 1
							}
						}
					}
				}
			}
			1366 = { #Arawkelin
				trade_share = {
					country = ROOT
					share = 50
				}
			}
		}

		effect = {
			ringlet_isles_region = {
				add_permanent_claim = ROOT
			}
			custom_tooltip = the_land_of_spirits_1_tt
			every_owned_province = {
				if = {
					limit = { 
						trade_company_region = trade_company_arawkelin 
						province_has_center_of_trade_of_level = 1
					}
					add_center_of_trade_level = 1
				}
			}
			random_owned_province = {
				limit = { 
					trade_company_region = trade_company_arawkelin 
					NOT = { province_has_center_of_trade_of_level = 1 }
				}
				center_of_trade = 1
			}
		}
	}

	L70_khugra_fair_payment_for_our_efforts = {
		icon = mission_high_income
		position = 10
		required_missions = {
			L70_khugra_the_land_of_spirits
			L70_khugra_taychend_selfrule
		}

		provinces_to_highlight = {
		}

		trigger = {
			num_of_provinces_owned_or_owned_by_non_sovereign_subjects_with = {
				value = 5
				colonial_region = colonial_taychend
				OR = {
					has_terrain = city_terrain
					trade_goods = slaves
					trade_goods = precursor_relics
				}
				base_production = 10
				has_manufactory_trigger = yes					
				has_production_building_trigger = yes
				has_trade_building_trigger = yes
			}
			num_of_provinces_owned_or_owned_by_non_sovereign_subjects_with = {
				value = 3
				colonial_region = colonial_taychend
				province_has_center_of_trade_of_level = 3
			}
		}

		effect = {
			custom_tooltip = L70_khugra_fair_payment_for_our_efforts_tt
			custom_tooltip = L70_khugra_fair_payment_for_our_efforts_1_tt
			hidden_effect = {
				ROOT = {
					set_variable = {
						which = khugra_fair_payment_variable
						value = 0
					}
				}
				colonial_taychend = {
					limit = { 
						owned_by_subject_of = ROOT
						OR = {
							province_has_center_of_trade_of_level = 3
							AND = { 
								OR = {
									has_terrain = city_terrain
									trade_goods = slaves
									trade_goods = precursor_relics
								}
								base_production = 10
								has_manufactory_trigger = yes					
								has_production_building_trigger = yes
								has_trade_building_trigger = yes
							}
						}
					}
					add_lizardfolk_minority_size_effect = yes
					ROOT = {
						change_variable = {
							which = khugra_fair_payment_variable
							value = 1
						} 
					} 
				}	
				while = {
					limit = {
						ROOT = {
							check_variable = {
								which = khugra_fair_payment_variable
								value = 1
							}
						}
					}
					ROOT = {
						subtract_variable = {
							which = khugra_fair_payment_variable
							value = 1
						}
					}
					random_owned_province = {
						limit = { 
							region = throden_gokad_region
							NOT = { 
								province_id = 5914
								has_ruinborn_minority_trigger = yes
							}	
						}
						add_base_production = 2
						add_ruinborn_minority_size_effect = yes	
					}
				}	
			}
		}
	}

	L70_khugra_make_the_riches_flow = {
		icon = mission_african_gold
		position = 11
		required_missions = {
			L70_khugra_fair_payment_for_our_efforts
		}

		provinces_to_highlight = {  
		}

		trigger = {
			trading_bonus = {
				trade_goods = precursor_relics
				value = yes
			}
			all_subject_country = {
				OR = {
					is_colonial_nation = no
					AND = { 
						tariff_value = 0.30
						NOT = { liberty_desire = 50 }
					}
				}
			}
			home_trade_node = { 
				highest_value_trade_node = yes
			}
			monthly_income = 500
		}

		effect = {
			country_event = { id =  flavour_khugra.20 }
		}
	}
}

khugra_5_missions = { 
	slot = 5
	generic = no
	ai = yes 
	has_country_shield = yes
	potential = {
		OR = {
			tag = L70
			AND = { #this should be removed when Khatalashya gets unique missions
				tag = S81
				was_tag = L70
			}
		}
	}

	L70_khugra_the_islands_of_the_littlefolk = {
		icon = mission_rb_colonise_spice_islands
		position = 6
		required_missions = { 
			L70_khugra_guides_to_the_unknown
		}

		provinces_to_highlight = {  
			OR = { 
				AND = { 
					area = velanynosy_area
					NOT = { owned_by = ROOT }
				}
				AND = { 
					area = pikakely_area
					NOT = { owned_by = ROOT }
				}
				AND = { 
					area = sil_berkhens_land_area
					NOT = { owned_by = ROOT }
				}
				AND = { 
					area = far_uelos_isles_area
					NOT = { owned_by = ROOT }
				}
			}
		}

		trigger = {
			development_in_provinces = {
				value = 50
				OR = { 
					area = pikakely_area
					area = sil_berkhens_land_area
					area = velanynosy_area
					area = far_uelos_isles_area
				}
			}
			native_policy = native_policy_trade
			custom_trigger_tooltip = {
				tooltip = the_islands_of_the_littlefolk_tooltip
				has_halfling_accepted_culture = yes
			}
		}

		effect = {
			custom_tooltip = the_islands_of_the_littlefolk_cloves_tooltip
			pikakely_area = { 
				if = {
					limit = {
						owned_by = ROOT
						trade_goods = cloves
					}
					
					add_base_production = 2
				}
				else_if = {
					limit = {
						owned_by = ROOT
						NOT = { trade_goods = cloves }
					}
					change_trade_goods = cloves
				}
			}
			sil_berkhens_land_area = { 
				if = {
					limit = {
						owned_by = ROOT
						trade_goods = cloves
					}
					
					add_base_production = 2
				}
				else_if = {
					limit = {
						owned_by = ROOT
						NOT = { trade_goods = cloves }
					}
					change_trade_goods = cloves
				}
			}
			velanynosy_area = { 
				if = {
					limit = {
						owned_by = ROOT
						trade_goods = cloves
					}
					
					add_base_production = 2
				}
				else_if = {
					limit = {
						owned_by = ROOT
						NOT = { trade_goods = cloves }
					}
					change_trade_goods = cloves
				}
			}
			far_uelos_isles_area = { 
				if = {
					limit = {
						owned_by = ROOT
						trade_goods = cloves
					}
					
					add_base_production = 2
				}
				else_if = {
					limit = {
						owned_by = ROOT
						NOT = { trade_goods = cloves }
					}
					change_trade_goods = cloves
				}
			}
			5914 = {
				add_halfling_minority_size_effect = yes
			}
			ibibakely_area = {
				add_claim = ROOT
			}
		}
	}

	L70_khugra_shores_unreached = {
		icon = mission_aelantir
		position = 7
		required_missions = { 
			L70_khugra_control_baashidi_trade
			L70_khugra_the_islands_of_the_littlefolk
		}

		provinces_to_highlight = {
			OR = {
				AND = {
					region = dry_coast_region
					NOT = {
						ROOT = {
							num_of_provinces_owned_or_owned_by_non_sovereign_subjects_with = {
								value = 5
								region = dry_coast_region
								is_city = yes
							}
						}
					}
				}
				AND = {
					province_id = 2259
					NOT = { owned_by_subject_of = ROOT }
				}
			}
		}
		
		trigger = {
			num_of_provinces_owned_or_owned_by_non_sovereign_subjects_with = {
				value = 5
				region = dry_coast_region
				is_city = yes
			}
			any_subject_country = {
				capital_scope = {
					colonial_region = colonial_lai_peninsula
				}
				is_colonial_nation_of = ROOT
				num_of_owned_provinces_with = {
					value = 10
					colonial_region = colonial_lai_peninsula
					is_city = yes
				}
				owns = 2259
			}
			2259 = { is_city = yes }
		}

		effect = {
			random_subject_country = {
				limit = {
					capital_scope = {
						colonial_region = colonial_lai_peninsula
					}
					is_colonial_nation_of = ROOT
					num_of_owned_provinces_with = {
						value = 10
						colonial_region = colonial_lai_peninsula
						is_city = yes
					}
					owns = 2259
				}
				override_country_name = VALIGNATSEK
				set_capital = 2259
				large_increase_of_ruinborn_tolerance_effect = yes
			}
			2259 = {
				add_base_tax = 3	
				add_base_production = 3
				add_base_manpower = 3	
				change_province_name = "Kanshaga"
				center_of_trade = 1
			}
			country_event = { id =  flavour_khugra.18 }
		}
	}

	L70_khugra_a_cursed_land_of_war = {
		icon = mission_burning_separation
		position = 8
		required_missions = {
			L70_khugra_shores_unreached
		}

		provinces_to_highlight = {
			province_id = 2512
			NOT = { owned_by_subject_of = ROOT }
		}

		trigger = {
			OR = {
				calc_true_if = {
					amount = 2
					all_known_country = {
						culture_group = taychendi_ruinborn_elf
						any_owned_province = { region = kalavend_region }
						has_spy_network_from = {
							who = ROOT
							value = 50
						}
					}
				}
				any_known_country = {
					culture_group = taychendi_ruinborn_elf
					any_owned_province = { region = kalavend_region }
					has_spy_network_from = {
						who = ROOT
						value = 80
					}
				}
				kalavend_region = {
					type = all
					NOT = { 
						owner = { 
							culture_group = taychendi_ruinborn_elf 
						} 
					}
				}
			}
			owns_or_non_sovereign_subject_of = 2512
			OR = {
				high_tolerance_ruinborn_race_trigger = yes
				medium_tolerance_ruinborn_race_trigger = yes
			}
		}

		effect = {
			country_event = { id =  flavour_khugra.19 }
		}
	}

	L70_khugra_taychend_selfrule = {
		icon = mission_court_education
		position = 9
		required_missions = {
			L70_khugra_a_cursed_land_of_war
		}

		provinces_to_highlight = {
			region = kalavend_region
			NOT = { owned_by_subject_of = ROOT }
		}

		trigger = {
			any_subject_country = {
				capital_scope = {
					colonial_region = colonial_taychend
				}
				is_subject_of_type = self_governing_colony
				kalavend_region = {
					type = all
					owned_by = PREV
				}
				NOT = {
					dominant_religion = gods_of_the_taychend
					dominant_religion = oren_nayiru
					dominant_religion = gods_of_the_taychend_reformed
				}
				NOT = { liberty_desire = 50 }	
				custom_trigger_tooltip  = {
					tooltip  = taychendi_selfrule_tt
					has_country_flag = L70_autonomous_taxes_flag
					has_country_flag = L70_autonomous_trade_flag
					has_country_flag = L70_autonomous_military_flag
					has_country_flag = L70_autonomous_navy_flag
				}
			}
		}

		effect = {
			random_subject_country = {
				limit = {
					capital_scope = {
						colonial_region = colonial_taychend
					}
					is_subject_of_type = self_governing_colony
					kalavend_region = {
						type = all
						owned_by = PREV
					}
				}
				override_country_name = KILAIEKARYACIMAI
				change_primary_culture = kalavendhi
				colonial_taychend = {
					add_permanent_claim = PREV
				}
				add_country_modifier = {
					name = L70_under_the_sapphire
					duration = -1
				}
			}
			large_increase_of_ruinborn_tolerance_effect = yes
		}
	}
}

khugra_missions_3b = {
	slot = 3
	generic = no
	ai = yes
	has_country_shield = yes
	potential = {
		OR = {
			tag = L70
			AND = { #this should be removed when Khatalashya gets unique missions
				tag = S81
				was_tag = L70
			}
		}
		has_country_flag = L70_khugra_searched_in_every_corner
	}
	
	L70_khugra_but_she_is_still_not_here = {
		icon = mission_look_west
		required_missions = {
			L70_khugra_search_in_every_corner	
		
		}
		position = 11
		
		provinces_to_highlight = {	
			continent = africa
			has_port = yes
			NOT = {	has_discovered = ROOT }
		}
		
		trigger = {	
			check_variable  = {
				which = L70_completed_great_journeys
				value = 20
			}
			has_government_power = {
				mechanic_type = khugra_araizary_affinity_mechanic
				power_type = khugra_araizary_affinity_power
				value = 100
			}
			africa = {	
				type = all
				OR = {	
					has_port = no
					has_discovered = ROOT
				}
			}
		}

		effect = {
			country_event = { id =  flavour_khugra.48 }
		}
	}
}