#Designed and Coded by Hydro

sunijalla_missions_slot_1 = {
	slot = 1
	generic = no
	ai = yes
	has_country_shield = yes
	potential = {
		tag = J50 #Sunijalla
	}
	
	sunijalla_royal_forces = {
		icon = mission_armoury
		required_missions = {
			sunijalla_royal_renaissance 
		}
		position = 4
		
		trigger = {
			mil_tech = 7
			num_of_owned_provinces_with = {
				value = 10
				has_manpower_building_trigger = yes
				has_dock_building_trigger = yes
			}
			num_of_generals = 1
			num_of_admirals = 1
			has_estate_privilege = estate_nobles_officer_corp
		}
		
		effect = {
			country_event = { id = flavour_splinter.103 }
		}
	}
	
	sunijalla_land_lake = {
		icon = army_reforms
		required_missions = {
			sunijalla_royal_forces
			sunijalla_echo_ancestors
		}
		position = 6
		
		provinces_to_highlight = {
			OR = {
				province_id = 5256
				province_id = 5257
			}
			has_shipyard_building_trigger = no
		}
		
		trigger = {
			NOT = {
				OR = {
					has_country_modifier = sunijalla_slow
					has_country_modifier = sunijalla_quick
				}
			}
			OR = {
				army_professionalism = 0.20
				army_tradition = 40
				mil_power = 200
			}
			num_of_owned_provinces_with = {
				value = 5
				has_forcelimit_building_trigger = yes
			}
			qarshtuluu_area = {
				type = all
				has_shipyard_building_trigger = yes
			}
			treasury = 1000
		}
		
		effect = {
			add_country_modifier = {
				name = sunijalla_luevarjlur
				duration = -1
			}
			qarshtuluu_area = {
				if = {
					limit = {
						NOT = {
							has_building = grand_shipyard
						}
					}
					add_building = grand_shipyard
				}
			}
			if = {
				limit = {
					NOT = {
						OR = {
							army_professionalism = 0.40
							army_tradition = 40
						}
					}
				}
				add_mil_power = -200
			}
			add_treasury = -1000
			custom_tooltip = sunijalla_conscription_tt
			hidden_effect = {
				random_core_province = {
					limit = {
						has_forcelimit_building_trigger = yes
						NOT = { has_building = conscription_center }
					}
					add_building = conscription_center
				}
				random_core_province = {
					limit = {
						has_forcelimit_building_trigger = yes
						NOT = { has_building = conscription_center }
					}
					add_building = conscription_center
				}
				random_core_province = {
					limit = {
						has_forcelimit_building_trigger = yes
						NOT = { has_building = conscription_center }
					}
					add_building = conscription_center
				}
				random_core_province = {
					limit = {
						has_forcelimit_building_trigger = yes
						NOT = { has_building = conscription_center }
					}
					add_building = conscription_center
				}
				random_core_province = {
					limit = {
						has_forcelimit_building_trigger = yes
						NOT = { has_building = conscription_center }
					}
					add_building = conscription_center
				}
			}
		}
	}
}

sunijalla_missions_slot_MT_1 = {
	slot = 1
	generic = no
	ai = yes
	has_country_shield = yes
	potential = {
		tag = J50 #Sunijalla
		has_country_flag = sunijalla_MT_2
	}
	
	sunijalla_foreign_traditions = {
		icon = mission_nomad
		required_missions = {
			sunijalla_land_lake
			sunijalla_south_shield
		}
		position = 9
		
		provinces_to_highlight = {
			OR = {
				trade_goods = copper
				trade_goods = iron
			}
			owned_by = ROOT
			has_manufactory_trigger = no
		}

		trigger = {			
			calc_true_if = {
				all_known_country = {
					OR = {
						has_opinion = { 
							who = ROOT 
							value = 150 
						}
						has_spy_network_from = {
							who = ROOT
							value = 75
						}
					}
					capital_scope = { superregion = western_cannor_superregion }
				}
				amount = 1
			}
			calc_true_if = {
				all_known_country = {
					OR = {
						has_opinion = { 
							who = ROOT 
							value = 150 
						}
						has_spy_network_from = {
							who = ROOT
							value = 75
						}
					}
					capital_scope = { superregion = yanshen_superregion }
				}
				amount = 1
			}
			calc_true_if = {
				all_known_country = {
					OR = {
						has_opinion = { 
							who = ROOT 
							value = 150 
						}
						has_spy_network_from = {
							who = ROOT
							value = 75
						}
					}
					capital_scope = { superregion = bulwar_superregion }
				}
				amount = 1
			}
			num_of_owned_provinces_with = {
				value = 20
				AND = {
					base_manpower = 8
					has_manpower_building_trigger = yes
				}
			}
			num_of_owned_provinces_with = {
				value = 10
				OR = {
					trade_goods = copper
					trade_goods = iron
				}
				has_manufactory_trigger = yes
			}
		}
		
		effect = {
			if = {
				limit = {
					has_dlc = "Cradle of Civilization"
				}
				add_country_modifier = {
					name = sunijalla_foreign_professionalism
					duration = 9125
				}
			}
			else = {
				add_country_modifier = {
					name = sunijalla_foreign_no_dlc
					duration = 9125
				}
			}
			set_estate_privilege = estate_nobles_sunijalla_triunic_nobles
			hidden_effect = {
				remove_estate_privilege = estate_nobles_officer_corp
			}
		}
	}
	
	sunijalla_kings_conquerors = {
		icon = professional_army
		required_missions = {
			sunijalla_foreign_traditions
		}
		position = 11
		
		trigger = {
			num_of_artillery = 60
			army_size = 100
			OR = {
				army_professionalism = 0.95
				employed_advisor = {
					category = MIL
					type = commandant
					skill = 5
				}
			}
			num_of_owned_provinces_with = {
				value = 40
				AND = {
					base_manpower = 8
					has_manpower_building_trigger = yes
					has_production_building_trigger = yes
				}
			}
		}
		
		effect = {
			hidden_effect = {
				remove_country_modifier = sunijalla_luevarjlur
			}
			add_country_modifier = {
				name = sunijalla_luevarjlur_2
				duration = -1
			}
		}
	}
}

sunijalla_missions_slot_2 = {
	slot = 2
	generic = no
	ai = yes
	has_country_shield = yes
	potential = {
		tag = J50 #Sunijalla
	}
	
	sunijalla_blue_royal_blood = {
		icon = mission_candide_letter
		required_missions = { J50_new_begining }
		position = 2
		
		trigger = {
			employed_advisor = {
				category = MIL
				skill = 1
			}
			army_size = 20
			estate_loyalty = {
				estate = estate_nobles
				loyalty = 60
			}
		}
		
		effect = {
			kesh_golkhin_area = {
				add_permanent_claim = ROOT
			}
			qarshtuluu_area = {
				add_permanent_claim = ROOT
			}
			sarts_neisar_area = {
				add_permanent_claim = ROOT
			}
			tolgalsui_area = {
				add_permanent_claim = ROOT
			}
			tomoryon_area = {
				add_permanent_claim = ROOT
			}
			qushyil_area = {
				add_permanent_claim = ROOT
			}
			doykilraj_area = {
				add_permanent_claim = ROOT
			}
			define_general = {
				fire = 2
				shock = 3
				manuever = 2
				siege = 2
				name = "Masyri Omyyska"
			}
			add_country_modifier = {
				name = sunijalla_varjlur
				duration = 3650
			}
		}
	}
	
	sunijalla_royal_renaissance = {
		icon = continue_the_renaissance
		required_missions = { sunijalla_blue_royal_blood }
		position = 3
		
		provinces_to_highlight = {
			OR = {
				area = kesh_golkhin_area
				area = qarshtuluu_area
				area = sarts_neisar_area
				area = tolgalsui_area
				area = tomoryon_area
				area = qushyil_area
				area = doykilraj_area
			}
			NOT = {
				country_or_non_sovereign_subject_holds = ROOT
			}
		}
		
		trigger = {
			kesh_golkhin_area = {
				type = all 
				country_or_non_sovereign_subject_holds = ROOT
			}
			qarshtuluu_area = {
				type = all 
				country_or_non_sovereign_subject_holds = ROOT
			}
			sarts_neisar_area = {
				type = all 
				country_or_non_sovereign_subject_holds = ROOT
			}
			tolgalsui_area = {
				type = all 
				country_or_non_sovereign_subject_holds = ROOT
			}
			tomoryon_area = {
				type = all 
				country_or_non_sovereign_subject_holds = ROOT
			}
			qushyil_area = {
				type = all 
				country_or_non_sovereign_subject_holds = ROOT
			}
			doykilraj_area = {
				type = all 
				country_or_non_sovereign_subject_holds = ROOT
			}
			OR = {
				ruler_has_personality = righteous_personality
				ruler_has_personality = just_personality
				adm_power = 100
			}
			OR = {
				advisor = statesman
				advisor = diplomat
				dip_power = 100
			}
		}
		
		effect = {
			set_estate_privilege = estate_nobles_sunijalla_enshrined_noblesse_oblige
			if = {
				limit = {
					NOT = {
						OR = {
							ruler_has_personality = righteous_personality
							ruler_has_personality = just_personality
						}
					}
				}
				add_adm_power = -100
			}
			if = {
				limit = {
					NOT = {
						OR = {
							advisor = statesman
							advisor = diplomat
						}
					}
				}
				add_dip_power = -100
			}
		}
	}
	
	sunijalla_echo_ancestors = {
		icon = chivalry_is_not_dead
		required_missions = {
			sunijalla_royal_renaissance
			sunijalla_academia_aristocracy
		}
		position = 5
		
		provinces_to_highlight = {
			province_id = 5256
			NOT = { cavalry_in_province = 4 }
		}
		
		trigger = {
			5256 = {
				cavalry_in_province = 4
			}
			OR = {
				army_tradition = 40
				mil_power = 100
			}
			num_of_generals = 3
			treasury = 500
		}
		
		effect = {
			custom_tooltip = sunijalla_heir_tt
			country_event = { id = flavour_splinter.104 }
			add_treasury = -500
		}
	}
	
	sunijalla_crown_yarikhoi = {
		icon = mission_crown_of_denmark
		required_missions = {
			sunijalla_echo_ancestors
			sunijalla_triunic_throne
		}
		position = 6
		
		provinces_to_highlight = {
			owned_by = J51
			owned_by = J52
			owned_by = J53
		}
		
		trigger = {
			OR = {
				statesman = 3
				diplomat = 3
				dip_power = 200
			}
			J51 = {
				OR = {
					is_subject_of = ROOT
					NOT = {
						exists = yes
					}
				}
				if = {
					limit = {
						AND = {
							exists = yes
							is_subject_of = ROOT
						}
					}
					NOT = {
						liberty_desire = 50
					}
					has_opinion = {
						who = ROOT
						value = 100
					}
				}
			}
			J52 = {
				OR = {
					is_subject_of = ROOT
					NOT = {
						exists = yes
					}
				}
				if = {
					limit = {
						AND = {
							exists = yes
							is_subject_of = ROOT
						}
					}
					NOT = {
						liberty_desire = 50
					}
					has_opinion = {
						who = ROOT
						value = 100
					}
				}
			}
			J53 = {
				OR = {
					is_subject_of = ROOT
					NOT = {
						exists = yes
					}
				}
				if = {
					limit = {
						AND = {
							exists = yes
							is_subject_of = ROOT
						}
					}
					NOT = {
						liberty_desire = 50
					}
					has_opinion = {
						who = ROOT
						value = 100
					}
				}
			}
		}
		
		effect = {
			if = {
				limit = {
					NOT = {
						OR = {
							statesman = 3
							diplomat = 3
						}
					}
				}
				add_dip_power = -100
			}
			country_event = { id = flavour_splinter.112 }
		}
	}
}

sunijalla_missions_slot_MT_2 = {
	slot = 2
	generic = no
	ai = yes
	has_country_shield = yes
	potential = {
		tag = J50 #Sunijalla
		has_country_flag = sunijalla_MT_2
	}
	
	sunijalla_south_shield = {
		icon = mission_horse_siege
		required_missions = {
			sunijalla_crown_yarikhoi
			sunijalla_unity_monarchy_truth
		}
		position = 8
		
		provinces_to_highlight = {
			NOT = {
				has_great_project = {
					type = zabyostlar_canal
					tier = 1
				}
			}
			OR = {
				province_id = 5304
				province_id = 5305
			}
			has_fort_building_trigger = no
			has_manpower_building_trigger = no
		}
		
		trigger = {
			army_size = 100
			5304 = {
				has_great_project = {
					type = zabyostlar_canal
					tier = 1
				}
				country_or_non_sovereign_subject_holds = ROOT
			}
			5304 = { # Zabyostlar
				has_fort_building_trigger = yes
				has_manpower_building_trigger = yes
			}
			5305 = { #Lankina
				has_fort_building_trigger = yes
				has_manpower_building_trigger = yes
			}
		}
		
		effect = {
			east_forbidden_plains_region = {
				add_permanent_claim = ROOT
			}
			west_forbidden_plains_region = {
				add_permanent_claim = ROOT
			}
			add_country_modifier = {
				name = sunijalla_south_push
				duration = 7300
			}
		}
	}
	
	sunijalla_regal_steppe = {
		icon = mission_steppe_warriors
		required_missions = {
			sunijalla_south_shield
		}
		position = 10

		trigger = {
			sochuleag_area = {
				type = all
				country_or_non_sovereign_subject_holds = ROOT
			}
			adoi_filaenan_area = {
				type = all
				country_or_non_sovereign_subject_holds = ROOT
			}
			domn_filaenan_area = {
				type = all
				country_or_non_sovereign_subject_holds = ROOT
			}
			orchekh_area = {
				type = all
				country_or_non_sovereign_subject_holds = ROOT
			}
			moitsraj_area = {
				type = all
				country_or_non_sovereign_subject_holds = ROOT
			}
			aporlaen_area = {
				type = all
				country_or_non_sovereign_subject_holds = ROOT
			}
			num_of_provinces_owned_or_owned_by_non_sovereign_subjects_with = {
				value = 10
				OR = {
					area = adoi_filaenan_area
					area = domn_filaenan_area
					area = orchekh_area
					area = aporlaen_area
				}
				has_production_building_trigger = yes
				base_manpower = 5
				has_terrain = steppe
			}
		}

		effect = {
			ogre_valley_region = {
				add_permanent_claim = ROOT
			}
			serpent_gift_region = {
				add_permanent_claim = ROOT
			}
			custom_tooltip = sunijalla_regal_tt
				tooltip = {
					5129 = {
						add_province_modifier = {
							name = sunijalla_regal_steppe_mod
							duration = 7300
						}
					}
				}
			hidden_effect = {
				every_owned_province = {
					limit = {
						area = sochuleag_area
						area = adoi_filaenan_area
						area = domn_filaenan_area
						area = orchekh_area
						area = moitsraj_area
						area = aporlaen_area
						has_production_building_trigger = yes
						base_manpower = 5
						has_terrain = steppe
					}
						set_province_flag = sunijalla_regal_steppe_flag
				}
				every_owned_province = {
					limit = {
						has_province_flag = sunijalla_regal_steppe_flag
					}
					add_province_modifier = {
						name = sunijalla_regal_steppe_mod
						duration = 7300
					}
				}
			}
		}
	}
	
	sunijalla_peace_upon_plains = {
		icon = mission_fortifying_the_plain
		required_missions = {
			sunijalla_regal_steppe
		}
		position = 11
		
		trigger = {
			custom_trigger_tooltip = {
				tooltip = sunijalla_peace_plains_tt
				east_forbidden_plains_region = {
					type = all
					OR = {
						NOT = {
							has_terrain = steppe
							has_terrain = farmlands
							has_terrain = grasslands
							has_terrain = desert
						}
						AND = {
							has_production_building_trigger = yes
							base_manpower = 6
						}
					}
				}
				west_forbidden_plains_region = {
					type = all
					OR = {
						NOT = {
							has_terrain = steppe
							has_terrain = farmlands
							has_terrain = grasslands
							has_terrain = desert
						}
						AND = {
							has_production_building_trigger = yes
							base_manpower = 6
						}
					}
				}
			}
			num_of_owned_provinces_with = {
				value = 5
				OR = {
					region = west_forbidden_plains_region
					region = east_forbidden_plains_region
				}
				OR = {
					has_fort_building_trigger = yes
					has_building = ramparts
				}
			}
			5110 = { #Taegaersh
				has_trade_building_trigger = yes
				has_production_building_trigger = yes
				base_production = 8
				province_has_center_of_trade_of_level = 2
			}
			5057 = { #Chotlochd
				has_trade_building_trigger = yes
				has_production_building_trigger = yes
				base_production = 8
				province_has_center_of_trade_of_level = 2
			}
			5129 = { #Dochradurscaen
				has_trade_building_trigger = yes
				has_production_building_trigger = yes
				base_production = 8
				province_has_center_of_trade_of_level = 2
			}
			5149 = { #Faanhosegh
				OR = {
					has_trade_building_trigger = yes
					province_has_center_of_trade_of_level = 2
				}
				has_production_building_trigger = yes
				base_production = 8
			}
			5086 = { #Ageenoirgh
				has_trade_building_trigger = yes
				has_production_building_trigger = yes
				base_production = 8
				province_has_center_of_trade_of_level = 2
			}
		}
		
		effect = {
			custom_tooltip = sunijalla_noble_patronage_tt
				tooltip = {
					5129 = {
						add_province_modifier = {
							name = sunijalla_noble_patronage
							duration = -1
						}
					}
				}
			hidden_effect = {
				every_owned_province = {
					limit = {
						OR = {
							region = west_forbidden_plains_region
							region = east_forbidden_plains_region
						}
						OR = {
							has_terrain = steppe
							has_terrain = drylands
							has_terrain = grasslands
							has_terrain = desert
						}
					}
					add_province_modifier = {
						name = sunijalla_noble_patronage
						duration = -1
					}
				}
			}
		}
	}
	
	sunijalla_magic_unbound = {
		icon = mission_empowerment
		required_missions = { 
			sunijalla_peace_upon_plains 
		}
		position = 12
		
		trigger = {
			OR = {
				estate_loyalty = {
					estate = estate_mages
					loyalty = 60
				}
				NOT = {
					has_estate = estate_mages
				}
			}
			if = {
				limit = {
					has_estate = estate_mages
				}
				nomsyulhan_region = {
					type = all
					OR = {
						area = nomsyulhan_portal_area
						NOT = {
							trade_goods = precursor_relics
						}
						AND = {
							has_building = mage_tower
							base_production = 8
						} 
					}
				}
			}
			else = {
				nomsyulhan_region = {
					type = all
					OR = {
						area = nomsyulhan_portal_area
						NOT = {
							trade_goods = precursor_relics
						}
						base_production = 8
					}
				}
			}
			OR = {
				has_estate = estate_artificers
				estate_loyalty = {
					estate = estate_nobles
					loyalty = 90
				}
			}
			custom_trigger_tooltip = {
				tooltip = sunijalla_magic_unbound_tt
				has_country_flag = sunijalla_event_chain_done
			}
		}
		
		effect = {
			every_owned_province = {
				limit = {
					region = nomsyulhan_region
					trade_goods = precursor_relics
				}
				add_province_modifier = {
					name = sunijalla_triunic_archaeology
					duration = -1
				}
			}
		}
	}
}

sunijalla_missions_slot_3 = {
	slot = 3
	generic = no
	ai = yes
	has_country_shield = yes
	potential = {
		tag = J50 #Sunijalla
	}
	
	J50_new_begining = {
		icon = mission_unite_home_region
		required_missions = { }
		position = 1
		
		trigger = {
			OR = {
				custom_trigger_tooltip = {
					tooltip = J50_won_splinter_war
					has_global_flag = lake_federation_disbanded
				}
				exists = J33
			}
		}
		
		effect = {
			add_country_modifier = {
				name = JXX_new_begining_m
				duration = 7300
			}
			custom_tooltip = J50_unban_mages
			hidden_effect = { clr_country_flag = LF_mages_banned }
	    }
	}

	sunijalla_consult_archives = {
		icon = mission_writing_book
		required_missions = { J50_new_begining }
		position = 2
		
		provinces_to_highlight = {
			area = qarshtuluu_area
			NOT = {
				country_or_non_sovereign_subject_holds = ROOT
			}
		}
		
		trigger = {
			qarshtuluu_area = {
				type = all
				country_or_non_sovereign_subject_holds = ROOT
				base_production = 5
			}
			5256 = {
				has_great_project = {
					type = grand_archives
					tier = 1
				}
			}
		}
		
		effect = {
			set_capital = 5256
			country_event = { id = flavour_splinter.101 }
		}
	}
	
	sunijalla_academia_aristocracy = {
		icon = mission_early_modern_university
		required_missions = { 
			sunijalla_royal_renaissance
			sunijalla_adorned_regalia
		}
		position = 4
		
		trigger = {
			estate_loyalty = {
				estate = estate_nobles
				loyalty = 70
			}
			estate_influence = {
				estate = estate_nobles
				influence = 80
			}
			treasury = 600
			5256 = {
				NOT = {	has_construction = building }
				NOT = { has_building = university }
			}
			5257 = {
				NOT = { has_construction = building }
				NOT = { has_building = university }
			}
		}
		
		effect = {
			set_estate_privilege = estate_nobles_sunijalla_aristocratic_academia
			change_estate_land_share = {
				estate = estate_nobles
				share = 5
			}
			5256 = {
				add_building_construction = {
					building = university
					speed = 1
					cost = 0
				}
			}
			5257 = {
				add_building_construction = {
					building = university
					speed = 1
					cost = 0
				}
			}
			add_treasury = -600
		}
	}
	
	sunijalla_triunic_throne = {
		icon = mission_monarch_in_throne_room
		required_missions = {
			sunijalla_academia_aristocracy
			sunijalla_matter_sovereignty
		}
		position = 5
		
		provinces_to_highlight = {
			is_capital_of = J51
			is_capital_of = J52
			is_capital_of = J53
		}

		trigger = {
			government_reform_progress = 50
			OR = {
				J51 = {
					exists = no
				}
				J51 = {
					OR = {
						AND = {
							alliance_with = J50
							has_opinion = {
								who = ROOT
								value = 200
							}
						}
						AND = {
							is_rival = J50
							OR = {
								has_opinion_modifier = {
									who = J50
									modifier = insulted
								}
								has_opinion_modifier = {
									who = J50
									modifier = scornfully_insulted
								}
							}
						}
					}
				}
			}
			OR = {
				J52 = {
					exists = no
				}
				J52 = {
					OR = {
						AND = {
							alliance_with = J50
							has_opinion = {
								who = ROOT
								value = 200
							}
						}
						AND = {
						is_rival = J50
							OR = {
								has_opinion_modifier = {
									who = J50
									modifier = insulted
								}
								has_opinion_modifier = {
									who = J50
									modifier = scornfully_insulted
								}
							}
						}
					}
				}
			}
			OR = {
				J53 = {
					exists = no
				}
				J53 = {
					OR = {
						AND = {
							alliance_with = J50
							has_opinion = {
								who = ROOT
								value = 200
							}
						}
						AND = {
							is_rival = J50
							OR = {
								has_opinion_modifier = {
									who = J50
									modifier = insulted
								}
								has_opinion_modifier = {
									who = J50
									modifier = scornfully_insulted
								}
							}
						}
					}
				}
			}
		}
		
		effect = {
			change_government_reform_progress = -50
			set_country_flag = sunijalla_arveviijeja_unlock
			add_government_reform = sunijalla_arveviijeja
			country_event = { id = flavour_splinter.107 }
			if = {
				limit = {
					J51 = {
						OR = {
							is_rival = ROOT
							OR = {
								has_opinion_modifier = {
									who = ROOT
									modifier = insulted
								}
								has_opinion_modifier = {
									who = ROOT
									modifier = scornfully_insulted
								}
							}
						}
					}
				}
				add_casus_belli = {
					target = J51
					type = cb_vassalize_mission
					months = 600
				}
			}
			if = {
				limit = {
					J52 = {
						OR = {
							is_rival = ROOT
							OR = {
								has_opinion_modifier = {
									who = ROOT
									modifier = insulted
								}
								has_opinion_modifier = {
									who = ROOT
									modifier = scornfully_insulted
								}
							}
						}
					}
				}
				add_casus_belli = {
					target = J52
					type = cb_vassalize_mission
					months = 600
				}
			}
			if = {
				limit = {
					J53 = {
						OR = {
							is_rival = ROOT
							OR = {
								has_opinion_modifier = {
									who = ROOT
									modifier = insulted
								}
								has_opinion_modifier = {
									who = ROOT
									modifier = scornfully_insulted
								}
							}
						}
					}
				}
				add_casus_belli = {
					target = J53
					type = cb_vassalize_mission
					months = 600
				}
			}
		}
	}
	
	sunijalla_crown_monarchy = {
		icon = mission_crown_of_sweden
		required_missions = {
			sunijalla_triunic_throne
		}
		position = 6
		
		provinces_to_highlight = {
			OR = {
				province_id = 5256
				province_id = 5257
			}
			has_courthouse_building_trigger = no
			has_manufactory_trigger = no
			NOT = {
				development = 30
			}
			NOT = {
				base_production = 8
			}
		}
		
		trigger = {
			5256 = {
				development = 30
				base_production = 8
				has_courthouse_building_trigger = yes
				has_manufactory_trigger = yes
			}
			5257 = {
				development = 30
				base_production = 8
				has_courthouse_building_trigger = yes
				has_manufactory_trigger = yes
			}
			custom_trigger_tooltip = {
				tooltip = sunijalla_3_advisor_tt
				employed_advisor = {
					category = ADM
					skill = 3
				}
				employed_advisor = {
					category = DIP
					skill = 3
				}
				employed_advisor = {
					category = MIL
					skill = 3
				}
			}
			stability = 2
		}
		
		effect = {
			add_country_modifier = {
				name = sunijalla_monarchy_triumphant
				duration = -1
			}
			qarshtuluu_area = {
				add_province_modifier = {
					name = sunijalla_port_of_kings
					duration = -1
				}
			}
		}
	}
	
	sunijalla_unity_monarchy_truth = {
		icon = mission_approach_throne
		required_missions = {
			sunijalla_crown_yarikhoi
			sunijalla_crown_monarchy
			sunijalla_crown_kalyin
		}
		position = 7
		
		trigger = {
			north_yarikhoi_region = {
				type = all
				country_or_non_sovereign_subject_holds = ROOT
			}
			south_yarikhoi_region = {
				type = all
				country_or_non_sovereign_subject_holds = ROOT
			}
			all_subject_country = {
				NOT = {
					liberty_desire = 5
				}
				has_opinion = {
					who = ROOT
					value = 200
				}
			}
			OR = {
				AND = {
					has_idea_group = aristocracy_ideas
					aristocracy_ideas = 1
				}
				AND = {
					has_idea_group = court_ideas
					court_ideas = 1
				}
				dip_power = 200
			}
		}
		
		effect = {
			country_event = { id = flavour_splinter.113 }
			if = {
				limit = {
					NOT = {
						OR = {
							has_idea_group = aristocracy_ideas
							has_idea_group = court_ideas
						}
					}
				}
				add_dip_power = -200
			}
		}
	}
}

sunijalla_missions_slot_MT_3 = {
	slot = 3
	generic = no
	ai = yes
	has_country_shield = yes
	potential = {
		tag = J50 #Sunijalla
		has_country_flag = sunijalla_MT_2
	}
	
	sunijalla_royal_shores = {
		icon = mng_survey_ocean_shores
		required_missions = { 
			sunijalla_unity_monarchy_truth
		}
		position = 10
		
		provinces_to_highlight = {
			OR = {
				area = eternal_winter_area
				area = moitsahdi_area
				area = yyl_moitsa_east_area
				area = sochuleag_area
				area = adoi_filaenan_area
				area = domn_filaenan_area
				area = orchekh_area
				area = aporlaen_area
				area = jaratish_area
				area = pasktisk_area
				area = zarmiklon_area
				area = priktisk_area
				area = bulrekayig_area
				area = kalgazuur_area
				area = tozgonrek_area
				area = zuurzoi_area
				area = zurkalga_area
			}
			NOT = {
				country_or_non_sovereign_subject_holds = ROOT
			}
		}
		
		trigger = {
			custom_trigger_tooltip = {
				tooltip = sunijalla_royal_shores_tt
				eternal_winter_area = {
					country_or_non_sovereign_subject_holds = ROOT
				}
				yyl_moitsa_east_area = {
					country_or_non_sovereign_subject_holds = ROOT
				}
				moitsahdi_area = {
					country_or_non_sovereign_subject_holds = ROOT
				}
				sochuleag_area = {
					country_or_non_sovereign_subject_holds = ROOT
				}
				adoi_filaenan_area = {
					country_or_non_sovereign_subject_holds = ROOT
				}
				domn_filaenan_area = {
					country_or_non_sovereign_subject_holds = ROOT
				}
				orchekh_area = {
					country_or_non_sovereign_subject_holds = ROOT
				}
				aporlaen_area = {
					country_or_non_sovereign_subject_holds = ROOT
				}
				jaratish_area = {
					country_or_non_sovereign_subject_holds = ROOT
				}
				pasktisk_area = {
					country_or_non_sovereign_subject_holds = ROOT
				}
				zarmiklon_area = {
					country_or_non_sovereign_subject_holds = ROOT
				}
				priktisk_area = {
					country_or_non_sovereign_subject_holds = ROOT
				}
				bulrekayig_area = {
					country_or_non_sovereign_subject_holds = ROOT
				}
				kalgazuur_area = {
					country_or_non_sovereign_subject_holds = ROOT
				}
				tozgonrek_area = {
					country_or_non_sovereign_subject_holds = ROOT
				}
				zuurzoi_area = {
					country_or_non_sovereign_subject_holds = ROOT
				}
				zurkalga_area = {
					country_or_non_sovereign_subject_holds = ROOT
				}
			}
			5315 = {
				OR = {
					is_strongest_trade_power = ROOT
					trade_share = {
						country = ROOT
						share = 50
					}
				}
			}
			5312 = {
				OR = {
					is_strongest_trade_power = ROOT
					trade_share = {
						country = ROOT
						share = 50
					}
				}
			}
			1382 = {
				OR = {
					is_strongest_trade_power = ROOT
					trade_share = {
						country = ROOT
						share = 50
					}
				}
			}
			1444 = {
				OR = {
					is_strongest_trade_power = ROOT
					trade_share = {
						country = ROOT
						share = 50
					}
				}
			}
		}
		
		effect = {
			country_event = { id = flavour_splinter.114 }
		}
	}
	
	sunijalla_jewels_crown = {
		icon = mission_unite_the_princes
		required_missions = {
			sunijalla_royal_shores
		}
		position = 11
		
		trigger = {
			treasury = 2000
			if = {
				limit = { J51 = { exists = yes } }
				J51 = {
					years_in_union_under = {
						who = ROOT
						years = 25
					}
					has_opinion = {
						who = ROOT
						value = 200
					}
					has_support_loyalists = yes
				}
			}
			else = {
				J51 = {
					NOT = {
						any_core_province = {
							NOT = { owned_by = ROOT }
						}
					}
				}
			}
			if = {
				limit = { J52 = { exists = yes } }
				J52 = {
					years_in_union_under = {
						who = ROOT
						years = 25
					}
					has_opinion = {
						who = ROOT
						value = 200
					}
					has_support_loyalists = yes
				}
			}
			else = {
				J52 = {
					NOT = {
						any_core_province = {
							NOT = { owned_by = ROOT }
						}
					}
				}
			}
			if = {
				limit = { J53 = { exists = yes } }
				J53 = {
					years_in_union_under = {
						who = ROOT
						years = 25
					}
					has_opinion = {
						who = ROOT
						value = 200
					}
					has_support_loyalists = yes
				}
			}
			else = {
				J53 = {
					NOT = {
						any_core_province = {
							NOT = { owned_by = ROOT }
						}
					}
				}
			}
		}
		
		effect = {
			country_event = { id = flavour_splinter.115 }
		}
	}
	
	sunijalla_empire_north = {
		icon = mng_pure_land
		required_missions = {
			sunijalla_jewels_crown
			sunijalla_magic_unbound
			sunijalla_down_dragon_river
		}
		position = 13
		
		trigger = {
			gozengun_superregion = {
				type = all
				OR = {
					country_or_non_sovereign_subject_holds = ROOT
					province_id = 6838
				}
			}
			forbidden_lands_superregion = {
				type = all
				country_or_non_sovereign_subject_holds = ROOT
			}
			yanshen_superregion = {
				type = all
				country_or_non_sovereign_subject_holds = ROOT
			}
			army_size = 500
			monthly_income = 500
			treasury = 1500
			num_of_owned_provinces_with = {
				value = 200
				has_courthouse_building_trigger = yes
			}
			num_of_owned_provinces_with = {
				value = 200
				has_manpower_building_trigger = yes
			}
			num_of_owned_provinces_with = {
				value = 200
				has_production_building_trigger = yes
			}
			num_of_owned_provinces_with = {
				value = 50
				has_manufactory_trigger = yes
			}
		}
		
		effect = {
			country_event = { id = flavour_splinter.124 }
		}
	}
	
	sunijalla_reign_over_all_creation = {
		icon = mission_among_the_great_powers
		required_missions = {
			sunijalla_empire_north
		}
		position = 14
		
		trigger = {
			stability = 3
			NOT = {
				great_power_rank = 2
			}
			num_of_harmonized = 7
			custom_trigger_tooltip = {
				tooltip = sunijalla_reign_tt
				NOT = {
					any_known_country = {
						NOT = {
							tag = ROOT 
						}
						army_size = ROOT
					}
				}
			}
		}
		
		effect = {
			country_event = { id = flavour_splinter.125 }
		}
	}
}

sunijalla_missions_slot_4 = {
	slot = 4
	generic = no
	ai = yes
	has_country_shield = yes
	potential = {
		tag = J50 #Sunijalla
	}
	
	sunijalla_foundations_royalty = {
		icon = mission_magnificent_castle
		required_missions = { }
		position = 2
		
		trigger = {
			employed_advisor = {
				category = ADM
				skill = 1
			}
			stability = 1
			diplomatic_reputation = 2
			estate_influence = {
				estate = estate_nobles
				influence = 60
			}
		}
		
		effect = {
			add_country_modifier = {
				name = sunijalla_from_ground_up 
				duration = 7300
			}
		}
	}
	
	sunijalla_adorned_regalia = {
		icon = mission_city_prosperity
		required_missions = { 
			sunijalla_consult_archives
			sunijalla_foundations_royalty
			sunijalla_whispers_shouts
		}
		position = 3
		
		provinces_to_highlight = {
			OR = {
				province_id = 5256
				province_id = 5257
			}
			NOT = {
				AND = {
					NOT = {
						devastation = 1
					}
					has_trade_building_trigger = yes
					has_tax_building_trigger = yes
					base_production = 8
					num_of_units_in_province = {
						amount = 10
					}
				}
			}			
		}
		
		trigger = {
			5256 = {
				AND = {
					NOT = {
						devastation = 1
					}
					has_trade_building_trigger = yes
					has_tax_building_trigger = yes
					base_production = 8
					num_of_units_in_province = {
						amount = 10
					}
				}
			}
			5257 = {
				AND = {
					NOT = {
						devastation = 1
					}
					has_trade_building_trigger = yes
					has_tax_building_trigger = yes
					base_production = 8
					num_of_units_in_province = {
						amount = 10
					}
				}
			}
		}
		
		effect = {
			qarshtuluu_area = {
				add_province_modifier = {
					name = sunijalla_triunic_royal_institute
					duration = -1
				}
			}
		}
	}
	
	sunijalla_matter_sovereignty = {
		icon = mission_thinking_king
		required_missions = { 
			sunijalla_adorned_regalia
		}
		position = 4
		
		trigger = {
			OR = {
				if = {
					limit = {
						has_estate = estate_nobles
					}
					num_of_estate_agendas_completed = {
						estate = estate_nobles
						value = 3
					}
				}
				estate_loyalty = {
					estate = estate_nobles
					loyalty = 80
				}
			}
			AND = {
				estate_loyalty = {
					estate = estate_nobles
					loyalty = 60
				}
				estate_loyalty = {
					estate = estate_church
					loyalty = 60
				}
				estate_loyalty = {
					estate = estate_burghers
					loyalty = 60
				}
			}
		}
		
		effect = {
			custom_tooltip = sunijalla_council_tt
			set_estate_privilege = estate_nobles_sunijalla_council_of_lords
			hidden_effect = {
				remove_estate_privilege = estate_nobles_strong_duchies
			}
		}
	}
	
	sunijalla_three_as_one = {
		icon = unite_the_realm
		required_missions = {
			sunijalla_matter_sovereignty
		}
		position = 5
		
		trigger = {
			dip_power = 150
			has_estate_privilege = estate_burghers_enforced_interfaith_dialogue
			custom_trigger_tooltip = {
				tooltip = sunijalla_three_one_tt
				OR = {
					AND = {
						has_harmonized_with = yukel_followers
						has_harmonized_with = enuuk_followers
						is_harmonizing_with = kodave_followers
					}
					AND = {
						has_harmonized_with = yukel_followers
						has_harmonized_with = kodave_followers
						is_harmonizing_with = enuuk_followers
					}
					AND = {
						has_harmonized_with = kodave_followers
						has_harmonized_with = enuuk_followers
						is_harmonizing_with = yukel_followers
					}
					AND = {
						has_harmonized_with = yukel_followers
						has_harmonized_with = enuuk_followers
						has_harmonized_with = kodave_followers
					}
				}
			}
		}
		
		effect = {
			if = {
				limit = {
					has_harmonized_with = yukel_followers
					has_harmonized_with = enuuk_followers
					has_harmonized_with = kodave_followers
				}
				add_country_modifier = {
					name = sunijalla_early_unification
					duration = -1
				}
			}
			if = {
				limit = {
					NOT = {
						has_harmonized_with = kodave_followers
					}
				}
				hidden_effect = {
					5257 = {
						change_religion = kodave_followers
					}
				}
				add_harmonized_religion = kodave_followers
				hidden_effect = {
					5257 = {
						change_religion = kalyin_worshippers
					}
				}
			}
			if = {
				limit = {
					NOT = {
						has_harmonized_with = enuuk_followers
					}
				}
				hidden_effect = {
					5257 = {
						change_religion = enuuk_followers
					}
				}
				add_harmonized_religion = enuuk_followers
				hidden_effect = {
					5257 = {
						change_religion = kalyin_worshippers
					}
				}
			}
			if = {
				limit = {
					NOT = {
						has_harmonized_with = yukel_followers
					}
				}
				hidden_effect = {
					5257 = {
						change_religion = yukel_followers
					}
				}
				add_harmonized_religion = yukel_followers
				hidden_effect = {
					5257 = {
						change_religion = kalyin_worshippers
					}
				}
			}
			add_country_modifier = {
				name = sunijalla_three_rule
				duration = 7300
			}
		}
	}
	
	sunijalla_crown_kalyin = {
		icon = mission_crown_of_norway
		required_missions = {
			sunijalla_triunic_throne
			sunijalla_three_as_one
			sunijalla_kalyin_the_queen
		}
		position = 6
		
		provinces_to_highlight = {
			province_id = 5290
			has_tax_building_trigger = no
			NOT = {
				has_great_project = {
					type = temple_kodave
					tier = 1
				}
			}
		}
		
		trigger = {
			5290 = {
				has_tax_building_trigger = yes
				base_tax = 8
				NOT = {
					unrest = 1
				}
				has_great_project = {
					type = temple_kodave
					tier = 1
				}
			}
		}
		
		effect = {
			country_event = { id = flavour_splinter.111 }
		}
	}
}

sunijalla_missions_slot_MT_4 = {
	slot = 4
	generic = no
	ai = yes
	has_country_shield = yes
	potential = {
		tag = J50 #Sunijalla
		has_country_flag = sunijalla_MT_2
	}
	
	sunijalla_north_sword = {
		icon = mission_establish_high_seas_navy
		required_missions = {
			sunijalla_unity_monarchy_truth
			sunijalla_crown_kalyin
		}
		position = 8
		
		trigger = {
			naval_forcelimit = 100
			5226 = { # Zurkanrek
				province_has_center_of_trade_of_level = 2
				has_dock_building_trigger = yes
				has_manpower_building_trigger = yes
				has_forcelimit_building_trigger = yes
			}
			5239 = { #Ultakal
				base_production = 10
			}
			5253 = { #Vahjevgiiv
				has_manpower_building_trigger = yes
				has_forcelimit_building_trigger = yes
			}
		}

		effect = {
			nuzurbokh_region = {
				add_permanent_claim = ROOT
			}
			yyl_moista_region = {
				add_permanent_claim = ROOT
			}
			add_country_modifier = {
				name = sunijalla_royal_colonies
				duration = 18250
			}
			define_explorer = {
				fire = 1
				shock = 3
				manuever = 5
				siege = 1
				name = "Tuuli Hirkine"
			}
		}
	}
	
	sunijalla_blessed_fields = {
		icon = mission_pol_breadbasket_europe
		required_missions = {
			sunijalla_north_sword
		}
		position = 9
		
		trigger = {
			tozgonrek_area = {
				type = all
				country_or_non_sovereign_subject_holds = ROOT
			}
			bulrekayig_area = {
				type = all
				country_or_non_sovereign_subject_holds = ROOT
			}
			priktisk_area = {
				type = all
				country_or_non_sovereign_subject_holds = ROOT
			}
			enkayiin_area = {
				type = all
				country_or_non_sovereign_subject_holds = ROOT
			}
			kalgazuur_area = {
				type = all
				country_or_non_sovereign_subject_holds = ROOT
			}
			num_of_provinces_owned_or_owned_by_non_sovereign_subjects_with = {
				value = 10
				OR = {
					area = tozgonrek_area
					area = bulrekayig_area
					area = priktisk_area
					area = enkayiin_area
					area = kalgazuur_area
				}
				has_production_building_trigger = yes
				base_manpower = 5
				OR = {
					trade_goods = grain
					trade_goods = livestock
					trade_goods = fish
				}
			}
		}
		
		effect = {
			khaashalg_region = {
				add_permanent_claim = ROOT
			}
			shuvuushudi_region = {
				add_permanent_claim = ROOT
			}
			custom_tooltip = sunijalla_blessed_tt
				tooltip = {
					5217 = {
						add_devastation = -25
						add_prosperity = 50
					}
				}
			hidden_effect = {
				every_owned_province = {
					limit = {
						region = nuzurbokh_region
						owned_by = ROOT
					}
					add_devastation = -25
					add_prosperity = 50
				}
			}
		}
	}
	
	sunijalla_harness_harvest = {
		icon = mission_lit_harness_steppes
		required_missions = {
			sunijalla_blessed_fields
		}
		position = 10
		
		trigger = {
			custom_trigger_tooltip = {
				tooltip = sunijalla_harness_harvest_tt
				nuzurbokh_region = {
					type = all
					OR = {
						NOT = {
							has_terrain = steppe
							has_terrain = grasslands
							has_terrain = desert
							has_terrain = drylands
						}
						AND = {
							has_production_building_trigger = yes
							base_production = 6
						}
					}
				}
			}
			num_of_owned_provinces_with = {
				value = 5
				region = nuzurbokh_region
				OR = {
					trade_goods = grain
					trade_goods = livestock
					trade_goods = wine
					trade_goods = fish
				}
				has_manufactory_trigger = yes
			}
			5191 = { #Stargaenan
				has_production_building_trigger = yes
				base_production = 8
				OR = {
					has_trade_building_trigger = yes
					province_has_center_of_trade_of_level = 2
				}
			}
			5163 = {
				has_production_building_trigger = yes
				base_production = 8
				OR = {
					has_trade_building_trigger = yes
					province_has_center_of_trade_of_level = 2
				}
			}
			5179 = {
				has_production_building_trigger = yes
				base_production = 8
				OR = {
					has_trade_building_trigger = yes
					province_has_center_of_trade_of_level = 2
				}
			}
			5173 = {
				has_production_building_trigger = yes
				base_production = 8
				OR = {
					has_trade_building_trigger = yes
					province_has_center_of_trade_of_level = 2
				}
			}
			5217 = {
				has_production_building_trigger = yes
				base_production = 8
				OR = {
					has_trade_building_trigger = yes
					province_has_center_of_trade_of_level = 2
				}
			}
			5202 = {
				has_production_building_trigger = yes
				base_production = 8
				OR = {
					has_trade_building_trigger = yes
					province_has_center_of_trade_of_level = 2
				}
			}
		}
		
		effect = {
			custom_tooltip = sunijalla_noble_patronage_tt
				tooltip = {
					5217 = {
						add_province_modifier = {
							name = sunijalla_noble_patronage
							duration = -1
						}
					}
				}
			hidden_effect = {
				every_owned_province = {
					limit = {
						region = nuzurbokh_region
						OR = {
							has_terrain = steppe
							has_terrain = drylands
							has_terrain = grasslands
							has_terrain = desert
						}
					}
					add_province_modifier = {
						name = sunijalla_noble_patronage
						duration = -1
					}
				}
			}
		}
	}
	
	sunijalla_down_dragon_river = {
		icon = mission_defy_the_dragon
		required_missions = {
			sunijalla_silk_iron
		}
		position = 12
		
		trigger = {
			OR = {
				Y09 = {
					exists = yes
					OR = {
						has_spy_network_from = {
							who = ROOT
							value = 50
						}
						marriage_with = ROOT
					}
				}
				AND = {
					Y09 = {
						exists = no
					}
					army_size = 250
				}
			}
			num_of_heavy_ship = 50
			1372 = {
				is_strongest_trade_power = ROOT
			}
		}
		
		effect = {
			yanshen_superregion = {
				add_permanent_claim = ROOT
			}
			custom_tooltip = sunijalla_dragon_tt
			if = {
				limit = {
					Y09 = {
						exists = yes
					}	
				}
				add_casus_belli = {
					target = Y09
					type = cb_restore_personal_union
					months = 600
				}
			}
		}
	}
}

sunijalla_missions_slot_5 = {
	slot = 5
	generic = no
	ai = yes
	has_country_shield = yes
	potential = {
		tag = J50 #Sunijalla
	}
	
	sunijalla_whispers_shouts = {
		icon = mission_women_prayer
		required_missions = { }
		position = 2
		
		provinces_to_highlight = { 
			province_id = 5256
			NOT = {
				country_or_non_sovereign_subject_holds = ROOT
				is_capital_of = ROOT
			}
		}
		
		trigger = {
			adm_power = 100
			OR = {
				is_year = 1502
				AND = {
					capital = 5256
					OR = {
						advisor = theologian
						advisor = inquisitor
					}
				}
			}
		}
		
		effect = {
			country_event = { id = flavour_splinter.102 }
		}
	}
	
	sunijalla_kalyins_truth = {
		icon = mission_pray_light
		required_missions = {
			sunijalla_whispers_shouts
		}
		position = 4
		
		trigger = {
			has_estate_privilege = estate_church_clerical_ministers
			estate_loyalty = {
				estate = estate_church 
				loyalty = 60
			}
			NOT = { has_country_modifier = sunijalla_prophetess }
		}
		
		effect = {
			add_country_modifier = {
				name = sunijalla_truth_kalyin
				duration = 7300
			}
			define_advisor = {
				type = theologian
				name = "Saragerel Oqaryezin"
				skill = 3
				discount = yes
				female = yes
				religion = kalyin_worshippers
			}	
		}
	}
	
	sunijalla_kalyin_the_queen = {
		icon = mission_female_throne
		required_missions = {
			sunijalla_kalyins_truth
		}
		position = 5
		
		provinces_to_highlight = {
			province_id = 5290
			NOT = { 
				country_or_non_sovereign_subject_holds = ROOT 
			}
		}
		
		trigger = {
			5290 = {
				country_or_non_sovereign_subject_holds = ROOT
			}
			OR = {
				calc_true_if = {
					amount = 3
					all_known_country = {
						religion = kalyin_worshippers
					}
				}
				NOT = {
					all_known_country = {
						religion = kalyin_worshippers
					}
				}
			}
			num_of_owned_provinces_with = {
				value = 8
				has_tax_building_trigger = yes
			}
		}
		
		effect = {
			country_event = { id = flavour_splinter.106 }
		}
	}
}

sunijalla_missions_slot_MT_5 = {
	slot = 5
	generic = no
	ai = yes
	has_country_shield = yes
	potential = {
		tag = J50 #Sunijalla
		has_country_flag = sunijalla_MT_2
	}
	
	sunijalla_beyond_blue = {
		icon = imperial_navy
		required_missions = {
			sunijalla_north_sword
		}
		position = 9
		
		trigger = {
			has_discovered = 4990
			has_discovered = 5419
			4990 = {
				is_strongest_trade_power = ROOT
			}
			if = {
				limit = {
					Y93 = {
						exists = yes
					}
				}
				Y93 = {
					OR = {
						has_spy_network_from = {
							who = ROOT
							value = 50
						}
						marriage_with = ROOT
					}
				}
			}
			if = {
				limit = {
					Y93 = {
						exists = no
					}
				}
				5342 = {
					has_fort_building_trigger = yes
				}
				5331 = {
					has_fort_building_trigger = yes
				}
				5353 = {
					owner = {
						has_spy_network_from = {
							who = ROOT
							value = 50
						}
					}
				}
			}
		}

		effect = {
			moduk_region = {
				add_permanent_claim = ROOT
			}
			odheongu_region = {
				add_permanent_claim = ROOT
			}
			custom_tooltip = sunijalla_daengun_tt
			if = {
				limit = {
					Y93 = {
						exists = yes
					}
				}
				add_casus_belli = {
					target = Y93
					type = cb_restore_personal_union
					months = 600
				}
			}
		}
	}
	
	sunijalla_silk_iron = {
		icon = mission_asian_trader
		required_missions = {
			sunijalla_harness_harvest
			sunijalla_beyond_blue
		}
		position = 11
		
		trigger = {
			zhunmudi_area = {
				type = all
				country_or_non_sovereign_subject_holds = ROOT
			}
			churgyund_area = {
				type = all
				country_or_non_sovereign_subject_holds = ROOT
			}
			jibojagi_area = {
				type = all
				country_or_non_sovereign_subject_holds = ROOT
			}
			northern_peaks_area = {
				type = all
				country_or_non_sovereign_subject_holds = ROOT
			}
			somyonghon_area = {
				type = all
				owned_by = ROOT
			}
			5356 = {
				has_trade_building_trigger = yes
				base_production = 8
				province_has_center_of_trade_of_level = 2
			}
			if = {
				limit = { has_estate = estate_mages }
				5419 = {
					has_building = mage_tower
					has_production_building_trigger = yes
				}
			}
			else = {
				5419 = {
					has_production_building_trigger = yes
				}
			}
		}
		
		effect = {
			if ={
				limit = {
					Y93 = {
						exists = yes
					}
				}
				country_event = { id = flavour_splinter.122 }
			}
			5356 = {
				add_center_of_trade_level = 1
				add_permanent_province_modifier = {
					name = sunijalla_buogoj_port
					duration = -1
				}
			}
		}
	}
}