
namespace = flavor_crathanor 
 
#The Declaration of Crathano 
country_event = { 
	id = flavor_crathanor.1 
	title = flavor_crathanor.1.t 
	desc = flavor_crathanor.1.d 
	picture = PARLIAMENT_eventPicture 
	fire_only_once = yes 
	is_triggered_only = yes 
	
	trigger = {
		or = {
			tag = U17
			was_tag = U17
		}
	}
	 
	option = { 
		name = flavor_crathanor.1.a	 
		 
		add_government_reform = crathanori_assembly 
		change_government_reform_progress = -100  
		capital_scope = {  
			spawn_rebels = { 
				type = noble_rebels 
				size = 1 
			} 
		} 
	} 
} 
 
#A Constitution Forged 
country_event = { 
	id = flavor_crathanor.2 
	title = flavor_crathanor.2.t 
	desc = flavor_crathanor.2.d 
	picture = DIPLOMACY_SIGNING_eventPicture 
	fire_only_once = yes 
	is_triggered_only = yes 
	
	trigger = {
		or = {
			tag = U17
			was_tag = U17
		}
	}
	 
	option = { 
		name = flavor_crathanor.2.a 
		 
		add_country_modifier = {  
			name = crathanor_crathanori_commercial_constitution  
			duration = -1 
		} 
	} 
} 
 
#An Offer of Allegiance 
country_event = { 
	id = flavor_crathanor.3 
	title = flavor_crathanor.3.t 
	desc = flavor_crathanor.3.d 
	picture = DIPLOMACY_SIGNING_eventPicture 
	fire_only_once = yes 
	is_triggered_only = yes 
	
	trigger = {
		or = {
			tag = F23
			was_tag = F23
		}
	}
	 
	option = { 
		name = flavor_crathanor.3.a 
		 
		ai_chance = { 
			factor = 100 
		} 
		U17 = {  
			country_event = {  
				id = flavor_crathanor.4 
			}
			vassalize = F23
		}
	}
 
 
	option = { 
		name = flavor_crathanor.3.b 
		 
		ai_chance = {  
			factor = 0  
		} 
		U17 = {  
			country_event = {  
				id = flavor_crathanor.5  
			} 
		}  
	} 
} 
 
#Ovdal-Tungr Accepts 
country_event = { 
	id = flavor_crathanor.4 
	title = flavor_crathanor.4.t 
	desc = flavor_crathanor.4.d 
	picture = DIPLOMACY_SIGNING_eventPicture 
	fire_only_once = no 
	is_triggered_only = yes 
	
	trigger = {
		or = {
			tag = U17
			was_tag = U17
		}
	}
	 
	major = yes 
 
	option = { 
		name = flavor_crathanor.4.a 
		vassalize = F23 
	} 
} 
 
#Ovdal-Tungr Declines 
country_event = { 
	id = flavor_crathanor.5 
	title = flavor_crathanor.5.t 
	desc = flavor_crathanor.5.d 
	picture = DEBATE_REPUBLICAN_eventPicture 
	fire_only_once = no 
	is_triggered_only = yes 
	
	trigger = {
		or = {
			tag = U17
			was_tag = U17
		}
	}
	 
	option = { 
		name = flavor_crathanor.5.a 
		add_prestige = -20 
	} 
}

#Of Dwarf and Men
country_event = {
	id = flavor_crathanor.6
	title = flavor_crathanor.6.t
	desc = flavor_crathanor.6.d
	picture = DIPLOMACY_eventPicture
	fire_only_once = yes
	is_triggered_only = yes
	
	trigger = {
		or = {
			tag = U17
			was_tag = U17
		}
	}
	
	option = {
		name = flavor_crathanor.6.a
		add_country_modifier = {
			name = crathanor_crathanori_corps
			duration = -1
		}
		create_march = F23
		F23 = {
			add_country_modifier = {
				name = crathanor_shield_on_seas
				duration = -1
			}
		}
		add_treasury = -200
	}
	
	option = {
		name = flavor_crathanor.6.b
		trigger = {
			F23 = {
				ai = yes
			}
		}
		add_country_modifier = {
			name = crathanor_crathanori_corps
			duration = -1
		}
		inherit = F23
		add_treasury = -200
		anb_add_accepted_culture_or_dip_power = {
			culture = copper_dwarf
			dip_reward = yes
		}
	}

	option = {
		name = flavor_crathanor.6.c
		add_country_modifier = {
			name = crathanor_crathanori_corps
			duration = -1
		}
		F23 = {
			add_country_modifier = {
				name = crathanor_shield_on_seas
				duration = -1
			}
		}
	}
}

#The Lion on the Seas, The Sun on the Waves
country_event = {
	id = flavor_crathanor.7
	title = flavor_crathanor.7.t
	desc = flavor_crathanor.7.d
	picture = FLAGSHIP_SUNK_eventPicture
	fire_only_once = yes
	is_triggered_only = yes
	
	trigger = {
		or = {
			tag = U17
			was_tag = U17
		}
	}
	
	option = {
		name = flavor_crathanor.7.a
		lorbet_area = {
			add_permanent_claim = U17
		}
		busilar_area = {
			add_permanent_claim = U17
		}
	}
}

#At the Peak of Dawn
country_event = {
	id = flavor_crathanor.8
	title = flavor_crathanor.8.t
	desc = flavor_crathanor.8.d
	picture = BIG_ARABIAN_CITY_eventPicture
	fire_only_once = yes
	is_triggered_only = yes
	
	trigger = {
		or = {
			tag = U17
			was_tag = U17
		}
	}
	
	option = {
		name = flavor_crathanor.8.a
		gnollsgate_area = {
			add_permanent_claim = U17
		}	
		hawkfields_area = {		
			add_permanent_claim = U17
		}
		antir_drop_area = {			
			add_permanent_claim = U17
		}
		rhinmond_area = {			
			add_permanent_claim = U17
		}
			highcliff_area = {		
			add_permanent_claim = U17
		}
		businor_region = {
			add_permanent_claim = U17
		}
		deshak_area = {
			add_permanent_claim = ROOT
		}
		oris_area = {
			add_permanent_claim = ROOT
		}
		add_casus_belli = {
			target = U06
			type = cb_vassalize_mission
			months = 240
		}
		365 = {
			add_permanent_province_modifier = {
				name = crathanor_ilatani_homecoming
				duration = -1
			}
		}
		set_capital = 365
		
		override_country_name = ITRAHURES
	}
}

#The First Theological Debate
country_event = {
	id = flavor_crathanor.9
	title = flavor_crathanor.9.t
	desc = flavor_crathanor.9.d
	picture = DEBATE_REPUBLICAN_eventPicture
	fire_only_once = yes
	is_triggered_only = yes
	
	trigger = {
		or = {
			tag = U17
			was_tag = U17
		}
	}
	
	option = {
		name = flavor_crathanor.9.a
		add_country_modifier = {
			name = crathanor_first_debate_reaction
			duration = 1825
		}
	}
}

#The Second Theological Debate
country_event = { 
	id = flavor_crathanor.10
	title = flavor_crathanor.10.t
	desc = flavor_crathanor.10.d
	picture = DEBATE_REPUBLICAN_eventPicture
	fire_only_once = yes
	is_triggered_only = yes
	
	trigger = {
		or = {
			tag = U17
			was_tag = U17
		}
	}
	
	option = {
		name = flavor_crathanor.10.a
		add_country_modifier = {
			name = crathanor_second_debate_reaction
			duration = 1825
		}
	}
}

#The Third Theological Debate
country_event = {
	id = flavor_crathanor.11
	title = flavor_crathanor.11.t
	desc = flavor_crathanor.11.d
	picture = PARLIAMENT_eventPicture
	fire_only_once = yes
	is_triggered_only = yes
	
	trigger = {
		or = {
			tag = U17
			was_tag = U17
		}
	}
	
	option = {
		name = flavor_crathanor.11.a
		add_country_modifier = {
			name = crathanor_third_debate_reaction
			duration = 1825
		}
	}
}

#The Restoration of Ilatani Architecture
country_event = {
	id = flavor_crathanor.12
	title = flavor_crathanor.12.t
	desc = flavor_crathanor.12.d
	picture = muslimgfx_GREAT_BUILDING_eventPicture
	fire_only_once = yes
	is_triggered_only = yes
	
	trigger = {
		or = {
			tag = U17
			was_tag = U17
		}
	}
	
	option = {
		name = flavor_crathanor.12.a
		365 = {
			remove_province_modifier = crathanor_jewel_abtanus_dream
			add_permanent_province_modifier = {
				name = crathanor_jewel_abtanus_plan
				duration = -1
			}
		}
		lorbet_area = {
			change_culture = ilatani
		}
		busilar_area = {
			change_culture = ilatani
		}
		if = {
			limit = {
				NOT = {
					high_tolerance_dwarven_race_trigger = yes
				}
			}
			largest_increase_of_dwarven_tolerance_effect = yes
		}
	}
}

#The Final Theological Debate
country_event = {
	id = flavor_crathanor.13
	title = flavor_crathanor.13.t
	desc = flavor_crathanor.13.d
	picture = SUN_CULT_PRIEST_event_picture
	fire_only_once = yes
	is_triggered_only = yes
	
	trigger = {
		OR = {
			tag = U17
			was_tag = U17
		}
		NOT = {
			has_country_modifier = crathanor_third_debate_reaction
		}
	}
	
	option = {
		name = flavor_crathanor.13.a
		add_country_modifier = {
			name = crathanor_court_and_sun
			duration = 1825
		}
		custom_tooltip = crathanor_lightfather_tt
		set_global_flag = crathanor_lightfather
	}
}

#Itrahures Ascendant
country_event = {
	id = flavor_crathanor.14
	title = flavor_crathanor.14.t
	desc = flavor_crathanor.14.d
	picture = ANB_GLOBAL_TRADE_eventPicture
	fire_only_once = yes
	is_triggered_only = yes
	
	trigger = {
		or = {
			tag = U17
			was_tag = U17
		}
	}
	
	option = {
		name = flavor_crathanor.14.a
		add_prestige = 100
		add_country_modifier = {
			name = crathanor_ascendant
			duration = 36500
		}
		custom_tooltip = itrahures_ascendant_tt
		hidden_effect = {
			set_country_flag = itrahures_surakes
		}
		14 = {
			add_permanent_claim = ROOT
		}
		east_damesear_area = {
			add_permanent_claim = ROOT
		}
		west_damesear_area = {
			add_permanent_claim = ROOT
		}
	}
}

# Favored of the Gods - Lightfather
country_event = {
	id = flavor_crathanor.15
	title = "flavor_crathanor.15.t"
	desc = "flavor_crathanor.15.d"
	picture = RELIGION_eventPicture

	trigger = {
		has_personal_deity = lightfather
		OR = {
			ruler_has_personality = righteous_personality
			ruler_has_personality = just_personality
			ruler_has_personality = well_advised_personality
		}
		has_regency = no
		NOT = { has_ruler_modifier = RC_withdrawn_meditation }
		NOT = { has_ruler_modifier = favored_RC_castellos_t_a }
		NOT = { has_ruler_modifier = favored_RC_castellos_t_b }
		NOT = { has_ruler_flag = RC_emulant_rejected_castellos }
		OR = {
			NOT = { has_ruler_modifier = favored_RC_adean_t_a has_ruler_modifier = favored_RC_adean_t_b }
			ruler_has_personality = just_personality
			ruler_has_personality = well_advised_personality
			ruler_has_personality = martial_educator_personality
			ruler_has_personality = strict_personality
		}
		OR = {
			NOT = { has_ruler_modifier = favored_RC_nerat_t_a has_ruler_modifier = favored_RC_nerat_t_b }
			ruler_has_personality = righteous_personality
			ruler_has_personality = well_advised_personality
			ruler_has_personality = lawgiver_personality
			ruler_has_personality = incorruptible_personality
		}
	}

	is_triggered_only = yes

	# Emulate aspect 1
	option = {
		name = "flavor_crathanor.15.a"
		add_ruler_modifier = {
			name = favored_RC_castellos_t_a
			hidden = yes
			duration = -1
		}
		add_ruler_modifier = {
			name = RC_withdrawn_meditation
			duration = 1825
		}
		custom_tooltip = favored_tt
		tooltip = {
			add_ruler_modifier = {
				name = RC_emulant_castellos_1
				duration = -1
			}
		}
		hidden_effect = {
			country_event = {
				id = favored_RC.2
				days = 1826
			}
		}
	}

	# Emulate aspect 2
	option = {
		name = "flavor_crathanor.15.b"
		add_ruler_modifier = {
			name = favored_RC_castellos_t_b
			hidden = yes
			duration = -1 }
		add_ruler_modifier = {
			name = RC_withdrawn_meditation
			duration = 1825
		}
		custom_tooltip = favored_tt
		tooltip = {
			add_ruler_modifier = {
				name = RC_emulant_castellos_2
				duration = -1
			}
		}
		hidden_effect = {
			country_event = {
				id = favored_RC.3
				days = 1826
			}
		}
	}

	# Eschew emulation
	option = {
		name = "flavor_crathanor.15.c"
		add_prestige = 2
		set_ruler_flag = RC_emulant_rejected_castellos
	}
}

# aspect 1
country_event = {
	id = flavor_crathanor.16
	title = "flavor_crathanor.16.t"
	desc = "flavor_crathanor.16.d"
	picture = RELIGION_eventPicture

	trigger = {
		has_ruler_modifier = favored_RC_castellos_t_a
		NOT = { has_ruler_modifier = RC_withdrawn_meditation }
		NOT = { has_ruler_modifier = RC_emulant_castellos_1 }
	}

	is_triggered_only = yes

	option = {
		name = "flavor_crathanor.16.a"
		add_ruler_modifier = {
			name = RC_emulant_castellos_1
			duration = -1
		}
	}
}

# aspect 2
country_event = {
	id = flavor_crathanor.17
	title = "flavor_crathanor.17.t"
	desc = "flavor_crathanor.17.d"
	picture = RELIGION_eventPicture

	trigger = {
		has_ruler_modifier = favored_RC_castellos_t_b
		NOT = { has_ruler_modifier = RC_withdrawn_meditation }
		NOT = { has_ruler_modifier = RC_emulant_castellos_2 }
	}

	is_triggered_only = yes

	option = {
		name = "flavor_crathanor.17.a"
		add_ruler_modifier = {
			name = RC_emulant_castellos_2
			duration = -1
		}
	}
}
